Division,WeightClassKg,Name,Age,Best3SquatKg,Best3BenchKg,Best3DeadliftKg,TotalKg,Event,Equipment,Sex,Place
Open,56,Linda Messina,,79.38,43.09,108.86,231.33,SBD,Single-ply,F,1
Teen,56,Shelly Peterson,,81.65,40.82,97.52,219.99,SBD,Single-ply,F,1
Open,60,Tom McCarty,,158.76,122.47,185.97,467.2,SBD,Single-ply,M,1
