Place,Name,Sex,BirthDate,Age,State,Equipment,Division,BodyweightKg,WeightClassKg,Squat1Kg,Squat2Kg,Squat3Kg,Best3SquatKg,Bench1Kg,Bench2Kg,Bench3Kg,Bench4Kg,Best3BenchKg,Deadlift1Kg,Deadlift2Kg,Deadlift3Kg,Deadlift4Kg,Best3DeadliftKg,TotalKg,Event
1,Sophia Fry,F,,15,WV,Raw,J13-15,84.4,90,87,95,103,103,40,48,53,,53,107,116,-123,,116,272,SBD
1,Tamara Crowe,F,,51,OH,Raw,M50-54,81,82.5,104,114,121,121,78,83,-88,,83,134,145,152,,152,356,SBD
DQ,Shelly Martin,F,,53,WV,Raw,M50-54,89.3,90,-52,52,61,61,-36,-39,-39,,,79,84,91,,91,,SBD
1,Ayngelia Star Ara,F,,39,IN,Raw,Open,60.7,67.5,138,145,152,152,96,102,106,,106,194,207,-217,,207,465,SBD
1,Candace Kesselring,F,,26,WV,Raw,Open,79.8,82.5,98,-103,-107,98,50,52,54,,54,115,125,137,145,137,289,SBD
1,Ayngelia Star Ara,F,,39,IN,Raw,S35-39,60.7,67.5,138,145,152,152,96,102,106,,106,194,207,-217,,207,465,SBD
1,Janelle Lentz,F,,34,WV,Raw,Open,101,110,,,,,-70,75,-80,82,75,,,,,,75,B
NS,Natalie Zambori,F,,37,OH,Raw,S35-39,64.6,67.5,,,,,,,,,,,,,,,,D
1,Billy Kroll,M,,14,OH,Raw,J13-15,93.9,100,100,110,113,113,80,85,-90,,85,125,130,135,,135,333,SBD
1,William Craigo,M,,17,PA,Raw,J16-17,96.8,100,170,184,188,188,-125,137,-147,,137,200,215,-227,,215,540,SBD
1,Ducatti Hurley,M,,16,WV,Raw,J16-17,127.9,140,125,146,159,159,70,82,91,,91,159,175,182,,182,432,SBD
1,Seth Phillis,M,,19,PA,Raw,J18-19,97.8,100,180,190,200,200,136,152,-159,,152,250,-261,261,,261,613,SBD
1,Anthony Lee #1,M,,21,WV,Raw,J20-23,60,60,142,152,161,161,96,102,105,109,105,185,195,214,-227,214,480,SBD
1,Arthur McClish,M,,48,OH,Raw,M45-49,108.2,110,200,216,230,230,166,179,185,,185,227,250,261,,261,676,SBD
1,David Bosler,M,,51,OH,Raw,M50-54,137.4,140,254,273,287,287,166,178,-185,,178,265,279,287,,287,752,SBD
1,Mark Martin,M,,56,WV,Raw,M55-59,153.3,140+,133,143,152,152,84,-93,93,,93,129,143,152,,152,397,SBD
1,Ben Greene,M,,25,OH,Raw,Open,66.3,67.5,105,113,118,118,85,90,-91,,90,140,150,160,,160,368,SBD
1,Trevor Skeens,M,,22,IN,Raw,Open,80.6,82.5,184,193,-205,193,121,129,-137,,129,184,193,198,,198,520,SBD
1,Drake Stephens #1,M,,30,WV,Raw,Open,89.1,90,-268,268,-279,268,218,-227,-227,,218,313,333,-340,,333,819,SBD
1,Matthew E Weaver,M,,38,OH,Raw,Open,97.5,100,202,220,-227,220,161,175,178,,178,211,229,-239,,229,627,SBD
2,William Craigo,M,,17,PA,Raw,Open,96.8,100,170,184,188,188,-125,137,-147,,137,200,215,-227,,215,540,SBD
1,Justin Herder,M,,31,OH,Raw,Open,109.4,110,231,248,265,265,148,159,,,159,252,278,-291,,278,702,SBD
2,Adam Drayer,M,,37,WV,Raw,Open,107.9,110,229,-243,-244,229,138,146,-152,,146,236,245,265,,265,640,SBD
1,Shea Poffenberger,M,,45,OH,Raw,Open,122,125,300,-313,313,313,175,191,,,191,295,308,-319,,308,812,SBD
1,Seth Smith,M,,24,WV,Raw,Open,139.1,140,-215,215,-230,215,-145,-150,150,,150,210,-230,230,240,230,595,SBD
1,Ryan Novick,M,,31,WV,Raw,Open,145.8,140+,174,188,195,195,170,177,184,,184,219,227,239,,239,618,SBD
1,Matthew E Weaver,M,,38,OH,Raw,S35-39,97.5,100,202,220,-227,220,161,175,178,,178,211,229,-239,,229,627,SBD
2,Jeremy Demoss,M,,36,WV,Raw,S35-39,99.6,100,-107,-116,124,124,103,116,125,,125,149,160,177,,177,426,SBD
1,Jamie Withrow,M,,45,WV,Wraps,M45-49,121.5,125,265,-279,279,279,178,-187,187,,187,252,260,-273,,260,726,SBD
1,Chad Snodgrass,M,,32,WV,Wraps,Open,120.8,125,301,313,318,318,172,185,195,,195,277,295,305,,305,818,SBD
1,Jacob Walker,M,,32,VA,Multi-ply,Open,120.8,125,-318,318,-340,318,-250,-250,250,,250,250,265,273,,273,841,SBD
1,Cody Byers,M,,22,WV,Raw,J20-23,79.6,82.5,,,,,102,108,114,,114,175,185,200,,200,314,BD
1,Daron M Murray,M,,49,MD,Raw,M45-49,98,100,,,,,137,143,-146,,143,-182,182,209,,209,352,BD
1,Mike Proctor,M,,57,WV,Raw,M55-59,96.8,100,,,,,137,143,-148,,143,174,184,-188,,184,327,BD
1,Ducatti Hurley,M,,16,WV,Raw,J16-17,127.9,140,,,,,70,82,91,,91,,,,,,91,B
1,Michael Lusk,M,,43,WV,Raw,M40-44,145.6,140+,,,,,-173,-182,182,,182,,,,,,182,B
1,Samuel Garner,M,,39,WV,Raw,Open,124.9,125,,,,,200,212,214,-227,214,,,,,,214,B
1,Samuel Garner,M,,39,WV,Raw,S35-39,124.9,125,,,,,200,212,214,-227,214,,,,,,214,B
1,Josh Best,M,,36,WV,Raw,S35-39,137.6,140,,,,,,,,,,260,273,-275,,273,273,D
DQ,Greyson Loweecy,M,,27,OH,Raw,Open,93.9,100,,,,,,,,,,,,,,,,D
