Division,WeightClassKg,Place,Name,Team,BodyweightKg,Best3SquatKg,Best3BenchKg,Best3DeadliftKg,TotalKg,Equipment,Event,Sex,BirthDate
Boys,51.71,1,Ryan Fleming,Dallas Jesuit,47.26,97.52,49.9,104.33,251.74,Single-ply,SBD,M,
Boys,55.79,1,Treyvon Barrett,Cedar Hill,53.34,111.13,90.72,120.2,322.05,Single-ply,SBD,M,
Boys,55.79,2,Ajay Bhavan,Dallas Jesuit,52.98,122.47,56.7,120.2,299.37,Single-ply,SBD,M,
Boys,59.87,1,Drake Fucuals,Cedar Hill,58.69,183.7,86.18,165.56,435.45,Single-ply,SBD,M,
Boys,59.87,2,Braylon Riggs,Cedar Hill,58.97,147.42,92.99,172.37,412.77,Single-ply,SBD,M,
Boys,59.87,3,Antwan Reeves,Cedar Hill,59.06,154.22,68.04,161.03,383.29,Single-ply,SBD,M,
Boys,59.87,4,Becket Polma,Dallas Jesuit,59.69,79.38,47.63,99.79,226.8,Single-ply,SBD,M,
Boys,59.87,5,Sam Butts,Oakridge School,56.7,70.31,38.56,70.31,179.17,Single-ply,SBD,M,
Boys,67.13,1,Will Nickols,Dallas Jesuit,66.5,179.17,117.93,190.51,487.61,Single-ply,SBD,M,
Boys,67.13,2,Elisha Jones,Cedar Hill,63.96,190.51,106.59,174.63,471.74,Single-ply,SBD,M,
Boys,67.13,3,Colin Kittleson,Dallas Jesuit,61.6,129.27,68.04,124.74,322.05,Single-ply,SBD,M,
Boys,67.13,4,Cande Narvaez,Dallas Jesuit,60.96,104.33,61.23,104.33,269.89,Single-ply,SBD,M,
Boys,67.13,5,Alex Luong,Oakridge School,61.23,92.99,61.23,106.59,260.82,Single-ply,SBD,M,
Boys,67.13,6,Nick Campbell,Oakridge School,66.5,68.04,52.16,111.13,231.33,Single-ply,SBD,M,
Boys,74.84,1,Anthony Thomas,Cedar Hill,74.66,183.7,106.59,183.7,474,Single-ply,SBD,M,
Boys,74.84,2,Cavlan Jackson,Crowley,74.39,136.08,113.4,181.44,430.91,Single-ply,SBD,M,
Boys,74.84,3,Eliya Khajeie,Oakridge School,74.21,165.56,86.18,174.63,426.38,Single-ply,SBD,M,
Boys,74.84,4,Brian Rainey,Cedar Hill,68.49,176.9,79.38,167.83,424.11,Single-ply,SBD,M,
Boys,74.84,5,Weston Smith,Dallas Jesuit,67.59,142.88,81.65,129.27,353.8,Single-ply,SBD,M,
Boys,74.84,6,Lucas Short,Oakridge School,74.66,104.33,68.04,154.22,326.59,Single-ply,SBD,M,
Boys,74.84,7,Jack May,Oakridge School,73.94,102.06,70.31,151.95,324.32,Single-ply,SBD,M,
Boys,74.84,8,Josh Wilson,Oakridge School,67.86,104.33,61.23,115.67,281.23,Single-ply,SBD,M,
Boys,74.84,9,Devin Bueno,Crowley,74.39,142.88,,136.08,278.96,Single-ply,SD,M,
Boys,74.84,10,Jude Nicolaidis,Plano John Paul II,70.4,102.06,61.23,113.4,276.69,Single-ply,SBD,M,
Boys,82.1,1,Luke Sullivan,Dallas Jesuit,77.2,161.03,90.72,181.44,433.18,Single-ply,SBD,M,
Boys,82.1,2,Alpha Tyler,Crowley,76.66,136.08,92.99,138.35,367.41,Single-ply,SBD,M,
Boys,82.1,3,Kennedy McDowell,Plano John Paul II,82.01,95.25,63.5,115.67,274.42,Single-ply,SBD,M,
Boys,82.1,DQ,Ben Boldnd,Plano John Paul II,79.11,,83.91,136.08,,Single-ply,SBD,M,
Boys,89.81,1,David Ritter #1,Dallas Jesuit,87.27,170.1,95.25,192.78,458.13,Single-ply,SBD,M,
Boys,89.81,2,Gabriel DeConto,Dallas Jesuit,86,176.9,70.31,167.83,415.04,Single-ply,SBD,M,
Boys,89.81,3,David Tran,Oakridge School,87.63,129.27,61.23,154.22,344.73,Single-ply,SBD,M,
Boys,89.81,DQ,Jack Premo,Plano John Paul II,87.36,,97.52,133.81,,Single-ply,SBD,M,
Boys,99.79,1,Dailyn Fuller,Cedar Hill,92.17,204.12,131.54,188.24,523.9,Single-ply,SBD,M,
Boys,99.79,2,Jackson Daniel,Dallas Jesuit,92.26,204.12,95.25,206.38,505.76,Single-ply,SBD,M,
Boys,99.79,3,Adam Brandt,Oakridge School,99.52,151.95,68.04,156.49,376.48,Single-ply,SBD,M,
Boys,99.79,4,Gavin Romo,Oakridge School,96.89,136.08,63.5,145.15,344.73,Single-ply,SBD,M,
Boys,109.77,1,Matthew Aribasala,Cedar Hill,107.14,238.14,142.88,238.14,619.15,Single-ply,SBD,M,
Boys,109.77,2,Asa Suggs,Cedar Hill,100.97,229.06,111.13,185.97,526.17,Single-ply,SBD,M,
Boys,109.77,3,Sky Moon,Plano John Paul II,109.59,133.81,92.99,172.37,399.16,Single-ply,SBD,M,
Boys,109.77,4,Johnathan Porter,Crowley,104.69,124.74,79.38,124.74,328.85,Single-ply,SBD,M,
Boys,109.77,DQ,Max Mazur,Plano John Paul II,103.15,197.31,,204.12,,Single-ply,SBD,M,
Boys,124.74,1,Leon Young,Cedar Hill,113.9,272.16,167.83,258.55,698.53,Single-ply,SBD,M,
Boys,124.74,2,Trinton Jones,Crowley,122.02,208.65,127.01,204.12,539.77,Single-ply,SBD,M,
Boys,124.74,3,Caden Kitler,Plano John Paul II,118.75,163.29,113.4,176.9,453.59,Single-ply,SBD,M,
Boys,124.74,4,Blake Johnson,Plano John Paul II,123.47,151.95,88.45,161.03,401.43,Single-ply,SBD,M,
Boys,124.74,5,Tim McKenna,Plano John Paul II,112.4,70.31,63.5,106.59,240.4,Single-ply,SBD,M,
Boys,124.74,6,Grayson Petnovish,Plano John Paul II,109.95,70.31,61.23,104.33,235.87,Single-ply,SBD,M,
Boys,124.74,DQ,Dylan Bueno,Crowley,114.21,188.24,120.2,190.51,,Single-ply,SBD,M,
Boys,124.74+,1,Marc Johnson,Crowley,181.35,310.71,197.31,251.74,759.77,Single-ply,SBD,M,
Boys,124.74+,2,Nick Ingram,Crowley,132.45,124.74,95.25,,219.99,Single-ply,SB,M,
Boys,124.74+,DQ,Chris Jones #24,Crowley,134.26,,,,,Single-ply,SBD,M,
