Division,WeightClassKg,Place,Name,Team,BodyweightKg,Best3SquatKg,Best3BenchKg,Best3DeadliftKg,TotalKg,Equipment,Event,Sex,BirthDate
Boys,51.71,1,Kooper Carson,Comal Davenport,49.53,56.7,24.95,83.91,165.56,Single-ply,SBD,M,
Boys,55.79,1,Ethan Brown,Bandera,55.79,167.83,88.45,174.63,430.91,Single-ply,SBD,M,
Boys,55.79,2,Rj Fernandez,San Antonio Holy Cross,55.7,156.49,104.33,156.49,417.3,Single-ply,SBD,M,
Boys,55.79,3,Diego Mendoza,Devine,52.89,120.2,61.23,120.2,301.64,Single-ply,SBD,M,
Boys,55.79,4,Chance Clifford,Yoakum,53.52,115.67,58.97,104.33,278.96,Single-ply,SBD,M,
Boys,55.79,5,Xavier Starjak,Comal Davenport,54.79,102.06,61.23,111.13,274.42,Single-ply,SBD,M,
Boys,55.79,DQ,Justin Abbott,Comal Canyon Lake,55.79,122.47,83.91,124.74,,Single-ply,SBD,M,
Boys,59.87,1,Victor Schaefer,Devine,57.92,129.27,77.11,142.88,349.27,Single-ply,SBD,M,
Boys,59.87,DQ,Thomas Dorman,Comal Canyon Lake,59.38,158.76,92.99,172.37,,Single-ply,SBD,M,
Boys,67.13,1,Eric Hernandez,Devine,67.13,222.26,113.4,222.26,557.92,Single-ply,SBD,M,
Boys,67.13,2,Micheal Aguilar,San Antonio East Central,66.86,210.92,113.4,204.12,528.44,Single-ply,SBD,M,
Boys,67.13,3,Jayson Figueroa,San Antonio East Central,66.86,185.97,99.79,154.22,439.98,Single-ply,SBD,M,
Boys,67.13,4,Seth DeLeon,Devine,65.41,167.83,104.33,163.29,435.45,Single-ply,SBD,M,
Boys,67.13,5,Francisco Huerta,Yoakum,65.5,154.22,74.84,172.37,401.43,Single-ply,SBD,M,
Boys,67.13,6,David VanHorn,Comal Davenport,63.05,124.74,74.84,147.42,347,Single-ply,SBD,M,
Boys,67.13,DQ,Justin Rozier,Devine,67.04,136.08,,,,Single-ply,SBD,M,
Boys,74.84,1,Luke Fanno,Jourdanton,73.16,192.78,117.93,208.65,519.36,Single-ply,SBD,M,
Boys,74.84,2,Christian Luensmann,San Antonio East Central,71.3,201.85,111.13,188.24,501.22,Single-ply,SBD,M,
Boys,74.84,3,Michael Correa,San Antonio East Central,74.3,199.58,111.13,190.51,501.22,Single-ply,SBD,M,
Boys,74.84,4,Jordan Castillo,Jourdanton,73.35,192.78,106.59,183.7,483.08,Single-ply,SBD,M,
Boys,74.84,5,Lule Barnett,Bandera,71.8,170.1,106.59,163.29,439.98,Single-ply,SBD,M,
Boys,74.84,6,Sean McLendon,Comal Davenport,71.99,142.88,83.91,183.7,410.5,Single-ply,SBD,M,
Boys,74.84,7,Ray Torres,San Antonio East Central,74.43,138.35,90.72,158.76,387.82,Single-ply,SBD,M,
Boys,74.84,8,Judge Erickson,Comal Davenport,74.03,147.42,70.31,145.15,362.87,Single-ply,SBD,M,
Boys,74.84,DQ,Wyatt Bates,Comal Canyon Lake,71.76,167.83,111.13,163.29,,Single-ply,SBD,M,
Boys,82.1,1,Zachery Martinez,Devine,80.74,213.19,140.61,190.51,544.31,Single-ply,SBD,M,
Boys,82.1,2,Eduardo Garcia #8,San Antonio East Central,80.74,192.78,127.01,206.38,526.17,Single-ply,SBD,M,
Boys,82.1,3,Kalvin Solis,San Antonio East Central,75.39,183.7,90.72,201.85,476.27,Single-ply,SBD,M,
Boys,82.1,4,Jacob Guajardo,Devine,80.88,185.97,117.93,158.76,462.66,Single-ply,SBD,M,
Boys,82.1,5,Jo Antony Mendoza,Jourdanton,81.83,170.1,102.06,183.7,455.86,Single-ply,SBD,M,
Boys,82.1,6,Nathaniel Arias,Jourdanton,81.24,151.95,95.25,183.7,430.91,Single-ply,SBD,M,
Boys,82.1,7,Danny Guillen,Devine,80.01,165.56,83.91,179.17,428.64,Single-ply,SBD,M,
Boys,82.1,8,Diego Valdez,Jourdanton,81.96,142.88,83.91,183.7,410.5,Single-ply,SBD,M,
Boys,82.1,9,Donavon Kirby,Comal Davenport,78.61,136.08,68.04,127.01,331.12,Single-ply,SBD,M,
Boys,89.81,1,Rafael Estala,Devine,83.46,185.97,102.06,195.04,483.08,Single-ply,SBD,M,
Boys,89.81,2,Xavier Tijerina,Jourdanton,89.81,170.1,97.52,192.78,460.4,Single-ply,SBD,M,
Boys,89.81,3,Zahir Livingston,Comal Davenport,83.32,163.29,79.38,163.29,405.97,Single-ply,SBD,M,
Boys,89.81,4,Curtis Steinle,Jourdanton,84.91,86.18,61.23,147.42,294.84,Single-ply,SBD,M,
Boys,89.81,5,Zachary Staley,Jourdanton,84.41,131.54,56.7,86.18,274.42,Single-ply,SBD,M,
Boys,99.79,1,Issac Paredes,Jourdanton,98.16,258.55,149.69,265.35,673.58,Single-ply,SBD,M,
Boys,99.79,2,Juan Lerma,Jourdanton,99.56,229.06,183.7,210.92,623.69,Single-ply,SBD,M,
Boys,99.79,3,Nate Trinidad,San Antonio Holy Cross,99.02,226.8,154.22,233.6,614.62,Single-ply,SBD,M,
Boys,99.79,4,Mauricio Pecina,Yoakum,99.79,240.4,124.74,215.46,580.6,Single-ply,SBD,M,
Boys,99.79,5,Caleb Son,Bandera,99.34,206.38,131.54,206.38,544.31,Single-ply,SBD,M,
Boys,99.79,6,Johnny Lascano,Devine,90.72,208.65,127.01,181.44,517.1,Single-ply,SBD,M,
Boys,99.79,7,Miguel Buenrostro,Yoakum,93.26,192.78,88.45,210.92,492.15,Single-ply,SBD,M,
Boys,99.79,8,Donald Parks,Jourdanton,93.21,201.85,83.91,176.9,462.66,Single-ply,SBD,M,
Boys,99.79,9,Chandler Moore,Bandera,94.53,179.17,108.86,149.69,437.72,Single-ply,SBD,M,
Boys,99.79,DQ,Travis Pehl,San Antonio East Central,97.93,244.94,161.03,,,Single-ply,SBD,M,
Boys,109.77,1,Adan Rodriguez,Comal Davenport,104.42,206.38,136.08,201.85,544.31,Single-ply,SBD,M,
Boys,109.77,2,Angelo Ybarra,Comal Davenport,107.82,190.51,99.79,201.85,492.15,Single-ply,SBD,M,
Boys,109.77,3,Mathew Mariscal,Yoakum,106.32,183.7,92.99,170.1,446.79,Single-ply,SBD,M,
Boys,109.77,4,Anthony Rodriguez,Comal Davenport,102.87,165.56,106.59,161.03,433.18,Single-ply,SBD,M,
Boys,109.77,5,Christopher Bray,Jourdanton,101.74,147.42,86.18,183.7,417.3,Single-ply,SBD,M,
Boys,124.74,1,Michael Pinones,San Antonio East Central,122.56,254.01,145.15,235.87,635.03,Single-ply,SBD,M,
Boys,124.74,2,Freddy Martinez,Jourdanton,117.16,142.88,111.13,190.51,444.52,Single-ply,SBD,M,
Boys,124.74,DQ,Tyler Atencio,Comal Canyon Lake,112.13,222.26,127.01,217.72,,Single-ply,SBD,M,
Boys,124.74,DQ,Rudy Rodriguez,Devine,119.48,,,,,Single-ply,SBD,M,
Boys,139.71,1,Tyler Martinez,Jourdanton,133.86,142.88,88.45,165.56,396.89,Single-ply,SBD,M,
Boys,139.71+,1,Kirk Revis,San Antonio Holy Cross,143.56,249.48,174.63,213.19,637.3,Single-ply,SBD,M,
Boys,139.71+,2,Alex Llanas,Yoakum,162.07,229.06,115.67,163.29,508.02,Single-ply,SBD,M,
