Division,WeightClassKg,Place,Name,Team,BodyweightKg,Best3SquatKg,Best3BenchKg,Best3DeadliftKg,TotalKg,Equipment,Event,Sex
Boys,51.71,1,Taskin Amin,Midland Lee,50.8,129.27,68.04,145.15,342.46,Single-ply,SBD,M
Boys,51.71,2,Gene Williams,Slaton,45.36,113.4,52.16,113.4,278.96,Single-ply,SBD,M
Boys,51.71,3,Joseph Campos,Midland,49.44,111.13,47.63,111.13,269.89,Single-ply,SBD,M
Boys,51.71,4,Rafael Rodriguez,Levelland,49.44,68.04,63.5,90.72,222.26,Single-ply,SBD,M
Boys,51.71,DQ,Zach Martin,Midland Greenwood,48.08,102.06,,113.4,,Single-ply,SBD,M
Boys,51.71,DQ,Wesley Payton,Lamesa,48.53,90.72,56.7,97.52,,Single-ply,SBD,M
Boys,51.71,DQ,Marshall Chapell,Seminole,48.99,136.08,83.91,136.08,,Single-ply,SBD,M
Boys,55.79,1,Evan Valenzuela,Midland,53.52,149.69,81.65,163.29,394.63,Single-ply,SBD,M
Boys,55.79,2,Rocky Currie,Wellman-Union,55.34,138.35,88.45,167.83,394.63,Single-ply,SBD,M
Boys,55.79,3,Michael Suniga,Midland Lee,52.62,113.4,61.23,136.08,310.71,Single-ply,SBD,M
Boys,55.79,4,Johnathon Courville,Andrews,55.34,95.25,70.31,113.4,278.96,Single-ply,SBD,M
Boys,55.79,5,Josh Martinez,Midland Greenwood,54.88,102.06,61.23,113.4,276.69,Single-ply,SBD,M
Boys,55.79,6,Ernest Villanueva,Fort Stockton,55.79,108.86,54.43,113.4,276.69,Single-ply,SBD,M
Boys,55.79,DQ,Israel Celaya,Fort Stockton,52.62,,45.36,95.25,,Single-ply,SBD,M
Boys,55.79,DQ,Martin Hernandez #3,Andrews,55.34,,79.38,133.81,,Single-ply,SBD,M
Boys,59.87,1,Miles Ochsner,Midland Lee,58.06,172.37,95.25,181.44,449.06,Single-ply,SBD,M
Boys,59.87,2,Karlonte Jackson,Anton,59.87,158.76,68.04,158.76,385.55,Single-ply,SBD,M
Boys,59.87,3,Guillermo Cazares,Slaton,59.87,136.08,79.38,154.22,369.68,Single-ply,SBD,M
Boys,59.87,4,Trey Cave,Midland Greenwood,58.06,129.27,74.84,149.69,353.8,Single-ply,SBD,M
Boys,59.87,5,Pablo Hinojosa,Lamesa,56.7,131.54,65.77,140.61,337.93,Single-ply,SBD,M
Boys,59.87,6,Marcus Renteria,Lamesa,57.61,115.67,81.65,127.01,324.32,Single-ply,SBD,M
Boys,59.87,DQ,Avan Feyry,Fort Stockton,56.7,,45.36,102.06,,Single-ply,SBD,M
Boys,59.87,DQ,DeQuante Jackson,Anton,58.51,,68.04,158.76,,Single-ply,SBD,M
Boys,59.87,DQ,Dallas Bowden,Monahans,58.51,120.2,,129.27,,Single-ply,SBD,M
Boys,59.87,DQ,Ryan Coon,Seminole,59.87,,86.18,120.2,,Single-ply,SBD,M
Boys,59.87,DQ,Coe Kubicek,Seminole,59.87,,95.25,140.61,,Single-ply,SBD,M
Boys,59.87,DQ,Nic Miranontes,Odessa,56.7,,58.97,90.72,,Single-ply,SBD,M
Boys,67.13,1,Brice Burgess,Midland Greenwood,64.86,176.9,108.86,181.44,467.2,Single-ply,SBD,M
Boys,67.13,2,Genaro Camargo,Slaton,66.68,154.22,108.86,190.51,453.59,Single-ply,SBD,M
Boys,67.13,3,Rafael Robles,Andrews,66.68,156.49,102.06,179.17,437.72,Single-ply,SBD,M
Boys,67.13,4,Federico Juarez,Andrews,61.23,158.76,99.79,170.1,428.64,Single-ply,SBD,M
Boys,67.13,5,Josh Foster,Midland Lee,65.32,158.76,83.91,181.44,424.11,Single-ply,SBD,M
Boys,67.13,6,Cesar Chavez,Midland,67.13,156.49,83.91,179.17,419.57,Single-ply,SBD,M
Boys,67.13,7,Larry Polanco,Andrews,65.77,151.95,90.72,170.1,412.77,Single-ply,SBD,M
Boys,67.13,8,Juan Esquivel,Slaton,66.22,142.88,79.38,188.24,410.5,Single-ply,SBD,M
Boys,67.13,9,Matt Gonzales,Fort Stockton,64.41,154.22,81.65,165.56,401.43,Single-ply,SBD,M
Boys,67.13,10,Shane Trogden,Odessa Permian,66.68,149.69,86.18,163.29,399.16,Single-ply,SBD,M
Boys,67.13,11,Kristian Guajardo,Lamesa,64.86,138.35,88.45,170.1,396.89,Single-ply,SBD,M
Boys,67.13,12,Edward Lambreras,Fort Stockton,61.23,122.47,83.91,142.88,349.27,Single-ply,SBD,M
Boys,67.13,13,Bryce Bender,Midland,65.32,120.2,68.04,147.42,335.66,Single-ply,SBD,M
Boys,67.13,DQ,Robert Clanton,Midland Greenwood,66.68,,79.38,142.88,,Single-ply,SBD,M
Boys,67.13,DQ,Austin Hall,Odessa Permian,63.96,,86.18,124.74,,Single-ply,SBD,M
Boys,67.13,DQ,Alex Garcia #3,Odessa,67.13,,83.91,174.63,,Single-ply,SBD,M
Boys,74.84,1,Mark Kollar,Midland Lee,73.94,199.58,120.2,204.12,523.9,Single-ply,SBD,M
Boys,74.84,2,Blaze Wooten,Midland,73.03,179.17,102.06,188.24,469.47,Single-ply,SBD,M
Boys,74.84,3,Adam Gante,Slaton,69.85,158.76,108.86,197.31,464.93,Single-ply,SBD,M
Boys,74.84,4,Jg Crutcher,Wellman-Union,72.57,156.49,117.93,188.24,462.66,Single-ply,SBD,M
Boys,74.84,5,Ozzy Zuniga,Odessa Permian,74.39,174.63,104.33,176.9,455.86,Single-ply,SBD,M
Boys,74.84,6,Josh Tarin,Odessa Permian,74.39,167.83,108.86,170.1,446.79,Single-ply,SBD,M
Boys,74.84,7,Bubba Boyett,Monahans,73.03,163.29,99.79,172.37,435.45,Single-ply,SBD,M
Boys,74.84,8,Jesus Ramirez,Midland,72.57,165.56,102.06,165.56,433.18,Single-ply,SBD,M
Boys,74.84,9,Christian Gonzales,Monahans,74.84,181.44,86.18,158.76,426.38,Single-ply,SBD,M
Boys,74.84,10,Victor Flores,Monahans,73.03,149.69,108.86,163.29,421.84,Single-ply,SBD,M
Boys,74.84,11,Adan Martinez,Odessa,74.84,172.37,88.45,161.03,421.84,Single-ply,SBD,M
Boys,74.84,12,Jj Casarez,Levelland,69.4,124.74,108.86,145.15,378.75,Single-ply,SBD,M
Boys,74.84,13,Garrett Rosson,Seagraves,72.12,131.54,88.45,136.08,356.07,Single-ply,SBD,M
Boys,74.84,14,Jt Aldridge,Midland Greenwood,69.85,124.74,77.11,151.95,353.8,Single-ply,SBD,M
Boys,74.84,15,Jury Moeller,Anton,70.76,102.06,77.11,154.22,333.39,Single-ply,SBD,M
Boys,74.84,16,Ricky Harcrow,Midland Greenwood,68.95,122.47,65.77,136.08,324.32,Single-ply,SBD,M
Boys,74.84,17,Jesse Marinelarena,Odessa,70.31,113.4,68.04,133.81,315.25,Single-ply,SBD,M
Boys,74.84,DQ,Dylan Pool,Midland Greenwood,67.59,136.08,,136.08,,Single-ply,SBD,M
Boys,82.1,1,Cole Barton #3,Midland Greenwood,77.11,204.12,142.88,215.46,562.45,Single-ply,SBD,M
Boys,82.1,2,Efrain Vasquez,Midland,81.19,206.38,120.2,208.65,535.24,Single-ply,SBD,M
Boys,82.1,3,Josh Reyes,Odessa,77.11,190.51,115.67,190.51,496.68,Single-ply,SBD,M
Boys,82.1,4,Ronnie Foshee,Slaton,79.38,188.24,99.79,208.65,496.68,Single-ply,SBD,M
Boys,82.1,5,Richie Gonzales,Odessa Permian,78.02,174.63,117.93,181.44,474,Single-ply,SBD,M
Boys,82.1,6,Luis Juarez,Midland,76.66,176.9,99.79,192.78,469.47,Single-ply,SBD,M
Boys,82.1,7,Jesus Castillo,Fort Stockton,79.83,181.44,83.91,204.12,469.47,Single-ply,SBD,M
Boys,82.1,8,Jacob Cabos,Odessa Permian,78.47,192.78,83.91,185.97,462.66,Single-ply,SBD,M
Boys,82.1,9,Craig Wesson,Odessa Permian,79.83,151.95,102.06,208.65,462.66,Single-ply,SBD,M
Boys,82.1,10,Ignacio Jimenez,Lamesa,78.93,161.03,104.33,183.7,449.06,Single-ply,SBD,M
Boys,82.1,11,Dusty Ortiz,Lamesa,76.66,158.76,104.33,183.7,446.79,Single-ply,SBD,M
Boys,82.1,12,Tyler Claunch,Midland Greenwood,78.93,158.76,108.86,172.37,439.98,Single-ply,SBD,M
Boys,82.1,13,Eddie Garcia,Odessa,82.1,176.9,106.59,154.22,437.72,Single-ply,SBD,M
Boys,82.1,14,Mark Marquez,Midland Lee,76.66,158.76,88.45,170.1,417.3,Single-ply,SBD,M
Boys,82.1,15,Efren Gonzales,Odessa,79.83,136.08,111.13,138.35,385.55,Single-ply,SBD,M
Boys,82.1,16,Hector Ontivros,Fort Stockton,78.93,113.4,83.91,145.15,342.46,Single-ply,SBD,M
Boys,82.1,17,Alfonso Rubio,Anton,75.75,120.2,72.57,136.08,328.85,Single-ply,SBD,M
Boys,82.1,18,Leon Thompson,Monahans,79.38,113.4,74.84,131.54,319.78,Single-ply,SBD,M
Boys,89.81,1,Abner Godoy,Midland,88.9,233.6,142.88,226.8,603.28,Single-ply,SBD,M
Boys,89.81,2,Rodney Johnson,Odessa Permian,89.36,222.26,111.13,210.92,544.31,Single-ply,SBD,M
Boys,89.81,3,Hunter Henzler,Slaton,82.55,215.46,99.79,219.99,535.24,Single-ply,SBD,M
Boys,89.81,4,Marquise Clater,Midland,84.37,210.92,117.93,199.58,528.44,Single-ply,SBD,M
Boys,89.81,5,Richie Allen,Wellman-Union,84.37,190.51,111.13,210.92,512.56,Single-ply,SBD,M
Boys,89.81,6,Josh Blancas,Midland Lee,87.09,172.37,117.93,185.97,476.27,Single-ply,SBD,M
Boys,89.81,7,Roddy Landeros,Midland Greenwood,89.36,181.44,111.13,170.1,462.66,Single-ply,SBD,M
Boys,89.81,8,Mill Gipson,Odessa Permian,85.73,167.83,102.06,183.7,453.59,Single-ply,SBD,M
Boys,89.81,9,Dillon Caylor,Midland Lee,87.54,172.37,83.91,174.63,430.91,Single-ply,SBD,M
Boys,89.81,10,Cameron Yazdani,Midland Lee,86.64,156.49,79.38,179.17,415.04,Single-ply,SBD,M
Boys,89.81,11,Shane Smith,Levelland,84.37,158.76,90.72,163.29,412.77,Single-ply,SBD,M
Boys,89.81,12,Matt Parker,Midland Greenwood,87.09,142.88,92.99,151.95,387.82,Single-ply,SBD,M
Boys,89.81,13,Evan Card,Fort Stockton,88.9,147.42,81.65,158.76,387.82,Single-ply,SBD,M
Boys,89.81,14,Raven Shaw,Midland Greenwood,83.91,136.08,90.72,154.22,381.02,Single-ply,SBD,M
Boys,89.81,15,Garrett Ford,Monahans,86.18,127.01,90.72,145.15,362.87,Single-ply,SBD,M
Boys,89.81,DQ,Preston Laney,Midland,85.73,176.9,,,,Single-ply,SBD,M
Boys,89.81,DQ,Kare Isaacks,Levelland,82.55,172.37,113.4,190.51,,Single-ply,SBD,M
Boys,99.79,1,Daniel Allen,Seminole,99.79,285.76,158.76,229.06,673.58,Single-ply,SBD,M
Boys,99.79,2,Shaquille Johnson,Odessa Permian,97.07,244.94,131.54,208.65,585.13,Single-ply,SBD,M
Boys,99.79,3,Ron Holmes,Odessa Permian,95.25,229.06,113.4,231.33,573.79,Single-ply,SBD,M
Boys,99.79,4,Danny Dillman,Midland,94.35,206.38,124.74,222.26,553.38,Single-ply,SBD,M
Boys,99.79,5,Ibraham Carrasco,Andrews,97.52,215.46,122.47,208.65,546.58,Single-ply,SBD,M
Boys,99.79,6,Levi Salinas,Slaton,96.16,199.58,122.47,213.19,535.24,Single-ply,SBD,M
Boys,99.79,7,Trey Spangler,Odessa Permian,96.16,179.17,131.54,222.26,532.97,Single-ply,SBD,M
Boys,99.79,8,Rudy Lopez,Midland Lee,91.63,199.58,113.4,217.72,530.7,Single-ply,SBD,M
Boys,99.79,9,Tommy Morris,Odessa Permian,98.43,183.7,113.4,226.8,523.9,Single-ply,SBD,M
Boys,99.79,10,Paden Cornett,Seagraves,90.26,195.04,127.01,183.7,505.76,Single-ply,SBD,M
Boys,99.79,11,Caleb Weaverling,Midland Greenwood,93.89,222.26,108.86,174.63,505.76,Single-ply,SBD,M
Boys,99.79,12,Joe Tony Duran,Lamesa,93.44,170.1,131.54,197.31,498.95,Single-ply,SBD,M
Boys,99.79,13,Lionel Sanchez,Midland,99.79,174.63,92.99,174.63,442.25,Single-ply,SBD,M
Boys,99.79,14,Ryan Bagley #1,Andrews,96.62,165.56,90.72,174.63,430.91,Single-ply,SBD,M
Boys,99.79,15,Jesse Barrios,Fort Stockton,92.53,147.42,97.52,181.44,426.38,Single-ply,SBD,M
Boys,109.77,16,Steven Galvan,Seminole,100.02,170.1,88.45,154.22,412.77,Single-ply,SBD,M
Boys,99.79,17,Aaron Moore,Levelland,90.72,149.69,95.25,154.22,399.16,Single-ply,SBD,M
Boys,99.79,18,Chance Arriaga,Fort Stockton,99.34,136.08,83.91,158.76,378.75,Single-ply,SBD,M
Boys,99.79,19,Eric Jacquez,Odessa,94.8,115.67,113.4,145.15,374.21,Single-ply,SBD,M
Boys,99.79,DQ,Mario Fanco,Odessa,99.79,,,,,Single-ply,SBD,M
Boys,99.79,DQ,Keith Kalka,Fort Stockton,99.79,,,,,Single-ply,SBD,M
Boys,109.77,1,Henry Hoang,Midland,105.23,272.16,156.49,247.21,675.85,Single-ply,SBD,M
Boys,109.77,2,Patrick Martinez,Slaton,109.32,226.8,142.88,238.14,607.81,Single-ply,SBD,M
Boys,109.77,3,Jose Flores #6,Seminole,107.5,224.53,145.15,224.53,594.21,Single-ply,SBD,M
Boys,109.77,4,Damon Rose,Odessa Permian,107.05,215.46,142.88,226.8,585.13,Single-ply,SBD,M
Boys,109.77,5,Jesse Baeza,Odessa Permian,107.95,204.12,129.27,233.6,566.99,Single-ply,SBD,M
Boys,109.77,6,Jerry Nino,Levelland,104.33,222.26,138.35,204.12,564.72,Single-ply,SBD,M
Boys,109.77,7,Anthony Ford,Monahans,107.05,201.85,149.69,206.38,557.92,Single-ply,SBD,M
Boys,109.77,8,Michael Motley,Midland Lee,107.05,208.65,117.93,226.8,553.38,Single-ply,SBD,M
Boys,109.77,9,Stephen Joiner,Midland Lee,100.7,190.51,117.93,226.8,535.24,Single-ply,SBD,M
Boys,109.77,10,Shaq Walters,Midland Greenwood,102.51,192.78,102.06,204.12,498.95,Single-ply,SBD,M
Boys,109.77,11,Colt Snell,Midland Greenwood,107.05,192.78,127.01,170.1,489.88,Single-ply,SBD,M
Boys,109.77,12,Jordan Falcon,Fort Stockton,107.95,195.04,113.4,179.17,487.61,Single-ply,SBD,M
Boys,109.77,13,Sergio Vidales,Levelland,100.24,185.97,124.74,172.37,483.08,Single-ply,SBD,M
Boys,109.77,14,Emiliano Renteria,Lamesa,106.14,165.56,104.33,192.78,462.66,Single-ply,SBD,M
Boys,109.77,15,Michael Moralez,Midland Lee,107.95,188.24,97.52,163.29,449.06,Single-ply,SBD,M
Boys,109.77,16,Mario Franco,Odessa,103.42,151.95,106.59,156.49,415.04,Single-ply,SBD,M
Boys,109.77,DQ,Shawn Tawney,Odessa,107.95,,,,,Single-ply,SBD,M
Boys,124.74,1,Irvin Sanchez,Andrews,119.29,288.03,161.03,226.8,675.85,Single-ply,SBD,M
Boys,124.74,2,Ty Coker,Midland Greenwood,122.02,283.5,165.56,226.8,675.85,Single-ply,SBD,M
Boys,124.74,3,Brandon Govan,Midland Lee,120.66,240.4,136.08,254.01,630.49,Single-ply,SBD,M
Boys,124.74,4,Matt Ornelas,Monahans,113.85,254.01,136.08,217.72,607.81,Single-ply,SBD,M
Boys,124.74,5,Camron McDaniel,Slaton,116.12,208.65,142.88,231.33,582.87,Single-ply,SBD,M
Boys,124.74,6,Cody Erickson,Odessa Permian,122.92,222.26,113.4,204.12,539.77,Single-ply,SBD,M
Boys,124.74,7,Alex Jaramillo,Andrews,110.68,215.46,133.81,183.7,532.97,Single-ply,SBD,M
Boys,124.74,8,Tanner Thomason,Plains,119.75,204.12,99.79,226.8,530.7,Single-ply,SBD,M
Boys,124.74,9,Andrew Rawling,Monahans,116.57,213.19,97.52,181.44,492.15,Single-ply,SBD,M
Boys,124.74,10,Santos Rodriguez,Lamesa,113.85,167.83,117.93,181.44,467.2,Single-ply,SBD,M
Boys,124.74,11,Derek Washington,Levelland,116.57,185.97,113.4,158.76,458.13,Single-ply,SBD,M
Boys,124.74,12,Cullen Carruth,Andrews,115.67,172.37,95.25,181.44,449.06,Single-ply,SBD,M
Boys,124.74,13,Gunner Burklow,Lamesa,111.13,170.1,97.52,170.1,437.72,Single-ply,SBD,M
Boys,124.74,14,Steven Manahan,Levelland,120.2,172.37,97.52,154.22,424.11,Single-ply,SBD,M
Boys,124.74,15,Micheal Nguyen,Midland Greenwood,115.67,163.29,95.25,161.03,419.57,Single-ply,SBD,M
Boys,124.74,16,Jon Giffin,Midland Greenwood,118.84,142.88,102.06,151.95,396.89,Single-ply,SBD,M
Boys,124.74,17,Lee Beggs,Midland Greenwood,115.21,151.95,95.25,138.35,385.55,Single-ply,SBD,M
Boys,124.74,DQ,Rico Martin,Midland Lee,124.74,,,,,Single-ply,SBD,M
Boys,124.74,DQ,Matt Gonzales,Odessa,117.93,,,,,Single-ply,SBD,M
Boys,124.74,DQ,Joey Maldanado,Anton,113.4,204.12,,,,Single-ply,SBD,M
Boys,124.74,DQ,Curtis Hubert,Andrews,113.85,,,,,Single-ply,SBD,M
Boys,124.74,DQ,Tyler Tatum,Midland,115.67,215.46,,,,Single-ply,SBD,M
Boys,124.74,DQ,Avery Rodriguez #4,Odessa Permian,117.93,222.26,,,,Single-ply,SBD,M
Boys,124.74+,1,Daniel Viasana,Midland Lee,142.43,226.8,167.83,235.87,630.49,Single-ply,SBD,M
Boys,124.74+,2,Aaron Voss,Odessa Permian,133.36,249.48,142.88,233.6,625.96,Single-ply,SBD,M
Boys,124.74+,3,Hippo Brito,Fort Stockton,137.89,272.16,124.74,201.85,598.74,Single-ply,SBD,M
Boys,124.74+,4,Guillermo Juarez,Fort Stockton,131.09,215.46,129.27,204.12,548.85,Single-ply,SBD,M
Boys,124.74+,5,Jesse Garza,Midland Lee,128.37,219.99,120.2,195.04,535.24,Single-ply,SBD,M
Boys,124.74+,6,James Penman,Andrews,157.4,242.67,92.99,156.49,492.15,Single-ply,SBD,M
Boys,124.74+,7,Jarod Mosley,Midland,136.08,142.88,111.13,183.7,437.72,Single-ply,SBD,M
Boys,124.74+,8,Miguel Barrientes,Midland Greenwood,127.46,149.69,88.45,136.08,374.21,Single-ply,SBD,M
Boys,124.74+,9,Ross Phipps,Monahans,127.01,136.08,70.31,140.61,347,Single-ply,SBD,M
Boys,124.74+,DQ,Malachi Nichols,Midland,132.45,,,,,Single-ply,SBD,M
