Division,WeightClassKg,Place,Name,Team,BodyweightKg,Best3SquatKg,Best3BenchKg,Best3DeadliftKg,TotalKg,Equipment,Event,Sex,BirthDate
Boys,55.79,1,Hayden Sechelski,Anderson-Shiro,53.07,108.86,70.31,131.54,310.71,Single-ply,SBD,M,
Boys,67.13,1,Gerardo Olguin,Anderson-Shiro,62.69,138.35,70.31,147.42,356.07,Single-ply,SBD,M,
Boys,67.13,2,Landon Jarvis,Anderson-Shiro,63.5,111.13,68.04,142.88,322.05,Single-ply,SBD,M,
Boys,74.84,1,Travis Anderson,Anderson-Shiro,74.3,149.69,77.11,174.63,401.43,Single-ply,SBD,M,
Boys,74.84,2,Tucker Backhus,Anderson-Shiro,72.21,142.88,77.11,158.76,378.75,Single-ply,SBD,M,
Boys,74.84,3,Noah Daniels,Anderson-Shiro,74.57,138.35,81.65,147.42,367.41,Single-ply,SBD,M,
Boys,74.84,4,Christopher Hickmon,Navasota,74.03,115.67,70.31,147.42,333.39,Single-ply,SBD,M,
Boys,74.84,5,Marcos Espinoza,Anderson-Shiro,69.31,129.27,52.16,124.74,306.17,Single-ply,SBD,M,
Boys,82.1,1,Jarvis Haynes,Anderson-Shiro,81.65,206.38,120.2,226.8,553.38,Single-ply,SBD,M,
Boys,82.1,2,Christopher Tejeda,Navasota,77.47,142.88,74.84,170.1,387.82,Single-ply,SBD,M,
Boys,82.1,3,Nick Castaneda,Navasota,75.93,147.42,70.31,149.69,367.41,Single-ply,SBD,M,
Boys,89.81,1,Jaylen Myles,Navasota,85.73,206.38,115.67,188.24,510.29,Single-ply,SBD,M,
Boys,89.81,2,Duncan Benton,Anderson-Shiro,86.36,206.38,115.67,174.63,496.68,Single-ply,SBD,M,
Boys,89.81,3,Chance Risner,Navasota,89.72,124.74,92.99,147.42,365.14,Single-ply,SBD,M,
Boys,89.81,4,William Bagley,Anderson-Shiro,82.64,129.27,77.11,147.42,353.8,Single-ply,SBD,M,
Boys,99.79,1,Jose Molina,Normangee,99.7,215.46,129.27,192.78,537.51,Single-ply,SBD,M,
Boys,99.79,2,Nathan Villegas,Anderson-Shiro,94.35,138.35,72.57,129.27,340.19,Single-ply,SBD,M,
Boys,99.79,3,Connor Seigle,Anderson-Shiro,91.53,111.13,70.31,129.27,310.71,Single-ply,SBD,M,
Boys,99.79,4,Xavier Haynes,Navasota,93.71,83.91,54.43,161.03,299.37,Single-ply,SBD,M,
Boys,109.77,1,Braylon Cornish,Normangee,101.15,219.99,111.13,195.04,526.17,Single-ply,SBD,M,
Boys,109.77,2,Eduardo Perez,Navasota,109.04,192.78,115.67,161.03,469.47,Single-ply,SBD,M,
Boys,109.77,3,Sheldon Rayford,Navasota,107.23,170.1,79.38,176.9,426.38,Single-ply,SBD,M,
Boys,109.77,4,Mathew Sosa,Navasota,108.68,142.88,68.04,161.03,371.95,Single-ply,SBD,M,
Boys,109.77,5,Andres Tobias,Navasota,100.97,129.27,83.91,151.95,365.14,Single-ply,SBD,M,
Boys,124.74,1,Jose Lopez,Navasota,124.19,210.92,102.06,219.99,532.97,Single-ply,SBD,M,
Boys,124.74,2,Braden Adair,Anderson-Shiro,114.12,183.7,106.59,204.12,494.42,Single-ply,SBD,M,
Boys,139.71,1,Arturo Hernandez,Anderson-Shiro,127.19,97.52,70.31,124.74,292.57,Single-ply,SBD,M,
