Division,WeightClassKg,Place,Name,Team,BodyweightKg,Best3SquatKg,Best3BenchKg,Best3DeadliftKg,TotalKg,Equipment,Event,Sex,BirthDate
Girls,47.85,1,Angelica Aranda,Eldorado,45.4,83.91,43.09,92.99,219.99,Single-ply,SBD,F,
Girls,47.85,2,Jasmine Castro,Eldorado,45.4,56.7,27.22,70.31,154.22,Single-ply,SBD,F,
Girls,51.94,1,Jasmine Altamarino,Center Point,49.49,83.91,40.82,68.04,192.78,Single-ply,SBD,F,
Girls,56.02,1,Karina Longoria,Center Point,54.52,120.2,63.5,106.59,290.3,Single-ply,SBD,F,
Girls,56.02,2,Alejandra Alegria,Eldorado,55.88,117.93,56.7,108.86,283.5,Single-ply,SBD,F,
Girls,56.02,3,Chloe Williams,Center Point,55.52,120.2,58.97,102.06,281.23,Single-ply,SBD,F,
Girls,60.1,1,Alyssa Marlowe,Center Point,58.01,142.88,79.38,142.88,365.14,Single-ply,SBD,F,
Girls,60.1,2,Cesi Ramirez,Center Point,59.01,127.01,58.97,122.47,308.44,Single-ply,SBD,F,
Girls,60.1,3,Baylee Plumley,Junction,59.92,113.4,63.5,115.67,292.57,Single-ply,SBD,F,
Girls,60.1,4,Heidi Estrada,Eldorado,58.2,90.72,47.63,92.99,231.33,Single-ply,SBD,F,
Girls,60.1,5,Mitzy Fernandez,Eldorado,59.6,70.31,43.09,92.99,206.38,Single-ply,SBD,F,
Girls,67.36,1,Nayeli Barrera,Rocksprings,60.19,127.01,70.31,115.67,312.98,Single-ply,SBD,F,
Girls,67.36,2,Sadie Duran,Center Point,61.42,113.4,54.43,108.86,276.69,Single-ply,SBD,F,
Girls,75.07,1,Kiarra Telles,Junction,70.58,124.74,88.45,131.54,344.73,Single-ply,SBD,F,
Girls,75.07,2,Alejandra Villanueva,Junction,74.12,120.2,65.77,131.54,317.51,Single-ply,SBD,F,
Girls,75.07,3,Clarissa Olvera,Center Point,71.99,102.06,58.97,111.13,272.16,Single-ply,SBD,F,
Girls,82.33,1,Suzie Rangel,Rocksprings,75.21,129.27,63.5,113.4,306.17,Single-ply,SBD,F,
Girls,90.04,1,Teresa Valadez,Center Point,87.91,158.76,77.11,142.88,378.75,Single-ply,SBD,F,
Girls,90.04,2,Mady Steele,Center Point,89.9,140.61,83.91,124.74,349.27,Single-ply,SBD,F,
Girls,100.02,1,Rebecca Ruiz,Rocksprings,95.62,138.35,77.11,127.01,342.46,Single-ply,SBD,F,
Girls,100.02,2,Vivica Munoz,Rocksprings,97.3,104.33,56.7,115.67,276.69,Single-ply,SBD,F,
Girls,117.71,1,Chasity Holt,Center Point,109.91,183.7,104.33,142.88,430.91,Single-ply,SBD,F,
Girls,117.71,2,Trinity Meduna,Rocksprings,104.6,167.83,97.52,149.69,415.04,Single-ply,SBD,F,
Girls,117.71,3,Jacelyn Venegas,Rocksprings,100.52,104.33,56.7,115.67,276.69,Single-ply,SBD,F,
