Place,WeightClassKg,Sex,Division,Name,CyrillicName,BirthDate,BodyweightKg,Best3SquatKg,Best3BenchKg,Best3DeadliftKg,TotalKg,Event,Equipment
1,59,M,Open,Edgar Dolgiy,Едгар Долгий,1996-06-06,58.9,197.5,135,210,542.5,SBD,Single-ply
2,59,M,Open,Oleksandr Agadzhanyai,Олександр Агаджаняи,1979-06-03,58.73,197.5,122.5,182.5,502.5,SBD,Single-ply
3,59,M,Open,Vladislav Gerasimov,Владислав Герасимов,1995-07-29,58.89,195,112.5,180,487.5,SBD,Single-ply
DQ,59,M,Open,Rostislav Kimishchuk,Ростислав Кіміщук,1999-07-30,58.75,-185,140,185,,SBD,Single-ply
1,66,M,Open,Vasil Oliynik,Василь Олійник,1994-01-15,65.11,255,147.5,227.5,630,SBD,Single-ply
2,66,M,Open,Vasil Mitsa,Василь Мица,1989-12-09,65.22,210,155,240,605,SBD,Single-ply
3,66,M,Open,Volodimir Titenkov,Володимир Тітенков,1983-10-13,64.15,215,160,190,565,SBD,Single-ply
1,74,M,Open,Vitaliy Kolomiets,Віталій Коломієць,1992-11-19,73.97,300,177.5,300,777.5,SBD,Single-ply
2,74,M,Open,Yuriy Goncharenko,Юрій Гончаренко,1990-12-28,73.12,275,172.5,255,702.5,SBD,Single-ply
3,74,M,Open,Ivan Iikolchenko,Іван Иікольченко,1995-06-28,73.92,280,160,255,695,SBD,Single-ply
4,74,M,Open,Igor Timoftey,Ігор Тімофтей,1986-10-03,73.9,252.5,170,252.5,675,SBD,Single-ply
5,74,M,Open,Andriy Stepznov,Андрій Стєпзнов,1992-02-08,73.66,255,155,245,655,SBD,Single-ply
1,83,M,Open,Andriy Naniev,Андрій Наньєв,1984-12-03,82.7,342.5,262.5,297.5,902.5,SBD,Single-ply
2,83,M,Open,Mykola Barannik,Микола Бараннік,1989-10-30,81.3,347.5,247.5,292.5,887.5,SBD,Single-ply
3,83,M,Open,Kostiantyn Musiienko,Костянтин Мусієнко,1997-08-11,82.44,300,292.5,290,882.5,SBD,Single-ply
4,83,M,Open,Maksim Samoylov,Максим Самойлов,1994-06-21,82.38,330,232.5,277.5,840,SBD,Single-ply
5,83,M,Open,Ivan Korol,Іван Король,1993-06-17,82.9,342.5,225,272.5,840,SBD,Single-ply
6,83,M,Open,Vladislav Borisenko,Владислав Борисенко,1993-10-14,82.64,280,195,285,760,SBD,Single-ply
7,83,M,Open,Andriy Moe,Андрій Моє,1993-06-04,82.41,270,200,270,740,SBD,Single-ply
8,83,M,Open,Sergiy Shustur,Сергій Шустур,1989-10-30,82.89,245,162.5,280,687.5,SBD,Single-ply
9,83,M,Open,Oleksandr Shatrav,Олександр Шатрав,1991-05-15,80.36,235,165,240,640,SBD,Single-ply
1,93,M,Open,Volodymyr Rysiev,Володимир Рисєв,1982-03-30,87.87,350,267.5,330,947.5,SBD,Single-ply
2,93,M,Open,Sergiy Krasiy,Сергій Красій,1992-08-12,91.1,350,222.5,290,862.5,SBD,Single-ply
3,93,M,Open,Evgeniy Beliy,Євгеній Белий,1989-09-11,92.36,320,212.5,300,832.5,SBD,Single-ply
4,93,M,Open,Volodymyr Dubovoy,Володимир Дубовой,1990-02-04,90.85,330,205,265,800,SBD,Single-ply
5,93,M,Open,Ivan Odarenko,Іван Одаренко,1992-05-09,91,290,222.5,230,742.5,SBD,Single-ply
6,93,M,Open,Andriy Ploskiy,Андрій Плоский,1989-01-04,92.45,270,190,260,720,SBD,Single-ply
NS,93,M,Open,Artem Lisitsin,Артем Лісіцин,1992-05-19,,,,,,SBD,Single-ply
DQ,93,M,Open,Artem Nzmteleev,Артем Нзмтелеев,1992-04-25,92.56,330,-242.5,220,,SBD,Single-ply
1,105,M,Open,Sergii Bilyi,Сергій Білий,1990-02-27,103.48,425,310,360,1095,SBD,Single-ply
2,105,M,Open,Oleksandr Rubets,Олександр Рубець,1996-05-11,100.79,425,295,352.5,1072.5,SBD,Single-ply
3,105,M,Open,Viktor Leskovets,Віктор Лесковець,1990-05-15,103.96,410,325,300,1035,SBD,Single-ply
4,105,M,Open,Andriy Smolin,Андрій Смолін,1995-11-18,102.27,290,215,300,805,SBD,Single-ply
DQ,105,M,Open,Bogdan Migovk,Богдан Міговк,1989-06-16,103.63,350,220,-317.5,,SBD,Single-ply
1,120,M,Open,Dmitro Pavlenko,Дмитро Павленко,1992-11-04,108.9,390,255,330,975,SBD,Single-ply
2,120,M,Open,Volodimir Kravets,Володимир Кравець,1996-07-17,119.91,290,200,290,780,SBD,Single-ply
3,120,M,Open,Igor Ivanchenko,Ігор Іванченко,1989-03-24,106.4,300,200,260,760,SBD,Single-ply
NS,120,M,Open,Oleksiy Bychkov,Олексій Бичков,1985-10-19,,,,,,SBD,Single-ply
NS,120,M,Open,Dmitro Semenenko,Дмитро Семененко,1988-11-03,,,,,,SBD,Single-ply
1,120+,M,Open,Volodymyr Svistunov,Володимир Свістунов,1987-08-15,165.2,430,350,330,1110,SBD,Single-ply
2,120+,M,Open,Mykhaylo Tys,Михайло Тис,1991-07-29,143.56,357.5,227.5,282.5,867.5,SBD,Single-ply
3,120+,M,Open,Denis Berezhnik,Денис Бережник,1988-08-11,124.32,287.5,240,270,797.5,SBD,Single-ply
1,47,F,Open,Zina Demyak,Зіна Демяк,1997-06-13,46.63,132.5,82.5,130,345,SBD,Single-ply
2,47,F,Open,Katerina Osipova,Катерина Осіпова,1994-11-30,45.65,90,60,107.5,257.5,SBD,Single-ply
1,52,F,Open,Kateryna Klymenko,Катерина Клименко,1985-07-17,51.73,177.5,117.5,172.5,467.5,SBD,Single-ply
2,52,F,Open,Tetyana Shlopko,Тетяна Шлопко,1996-03-13,50.7,187.5,110,162.5,460,SBD,Single-ply
3,52,F,Open,Anastasiya Derev'yanka,Анастасія Дерев'янка,1987-02-09,48.51,175,100,172.5,447.5,SBD,Single-ply
4,52,F,Open,Dar'ya Garmata,Дар'я Гармата,1983-07-01,51.62,135,82.5,140,357.5,SBD,Single-ply
5,52,F,Open,Tetyana Pashuk,Тетяна Пашук,1984-06-15,51.69,135,80,127.5,342.5,SBD,Single-ply
1,57,F,Open,Oksana Gronovim,Оксана Гроновим,1954-01-01,55.52,160,95,172.5,427.5,SBD,Single-ply
2,57,F,Open,Larysa Osychka,Лариса Осичка,1986-01-22,56.68,167.5,85,170,422.5,SBD,Single-ply
3,57,F,Open,Viktoriya Matveeva,Вікторія Матвєєва,1992-01-29,56.48,135,65,127.5,327.5,SBD,Single-ply
1,63,F,Open,Lyudmila Bichok,Людмила Бичок,1990-09-26,62.4,165,117.5,155,437.5,SBD,Single-ply
2,63,F,Open,Elizaveta Skorik,Єлизавета Скорик,1993-11-10,62.94,157.5,77.5,140,375,SBD,Single-ply
1,72,F,Open,Antonina Marchenko,Антоніна Марченко,1989-01-24,71.63,245,170,195,610,SBD,Single-ply
2,72,F,Open,Anastasiya Veynz,Анастасія Вейнз,1992-01-21,68.61,152.5,97.5,152.5,402.5,SBD,Single-ply
3,72,F,Open,Marina Kovalova,Марина Ковальова,1993-08-18,70.68,160,82.5,155,397.5,SBD,Single-ply
1,84,F,Open,Yevheniia Tishakova,Євгенія Тишакова,1989-12-23,81.66,255,140,215,610,SBD,Single-ply
2,84,F,Open,Valentina Zagoruyko,Валентина Загоруйко,1992-07-24,83.65,225,122.5,190,537.5,SBD,Single-ply
3,84,F,Open,Nataliya Galka,Наталія Галка,1991-04-04,75.73,180,70,150,400,SBD,Single-ply
1,84+,F,Open,Inna Orobets,Інна Оробець,1971-02-15,105.44,215,165,190,570,SBD,Single-ply
2,84+,F,Open,Vira Govtava,Віра Говтава,1977-10-12,99.17,205,132.5,180,517.5,SBD,Single-ply
3,84+,F,Open,Tetyana Litvinyuk,Тетяна Литвинюк,1986-11-17,95.5,200,135,170,505,SBD,Single-ply
1,93,M,Masters 1,Eduard Bezbozhniy,Едуард Безбожній,1975-01-24,91.25,235,167.5,212.5,615,SBD,Single-ply
1,120,M,Masters 1,Petro Olar,Петро Олар,1977-11-28,105.59,340,230,275,845,SBD,Single-ply
NS,120,M,Masters 1,Mikola Dopilka,Микола Допілка,1977-12-18,,,,,,SBD,Single-ply
1,83,M,Masters 2,Sergiy Zaytsev,Сергій Зайцев,1968-10-18,80.74,232.5,175.5,205,613,SBD,Single-ply
2,83,M,Masters 2,Viktor Bushmanov,Виктор Бушманов,1961-03-13,82.24,230,150,175,555,SBD,Single-ply
1,93,M,Masters 2,Mikhaylo Andrunevchin,Михайло Андруневчин,1965-11-11,92.44,220,165,210,595,SBD,Single-ply
1,105,M,Masters 2,Andriy Bozhik,Андрій Божик,1962-02-03,96.54,80,112.5,130,322.5,SBD,Single-ply
1,105,M,Masters 4,Yaroslav Chala,Ярослав Чала,1948-07-20,97.34,150,152.5,180,482.5,SBD,Single-ply
1,59,M,Juniors,Edgar Dolgiy,Едгар Долгий,1996-06-06,59,200,130,220,550,SBD,Single-ply
2,59,M,Juniors,Vladislav Gerasimov,Владислав Герасимов,1995-07-29,58.65,200,115,180,495,SBD,Single-ply
1,66,M,Juniors,Yan Kotlubey,Ян Котлубей,1999-11-07,65.99,190,120,200,510,SBD,Single-ply
1,74,M,Juniors,Vladislav Chornyi,Владислав Чорний,1997-05-12,72.32,330.5,170,287.5,788,SBD,Single-ply
2,74,M,Juniors,Volodymyr Galkin,Володимир Галкін,1995-03-03,72.98,287.5,175,297.5,760,SBD,Single-ply
3,74,M,Juniors,Mikita Sukhorutchenko,Микита Сухорутченко,1995-05-17,73.24,302.5,190,262.5,755,SBD,Single-ply
4,74,M,Juniors,Ruslan Ruzimuradov,Руслан Рузімурадов,1998-05-26,73.48,290,220.5,235,745.5,SBD,Single-ply
5,74,M,Juniors,Dmitro Bordyug,Дмитро Бордюг,1996-08-12,72.97,277.5,182.5,230,690,SBD,Single-ply
6,74,M,Juniors,Vladislav Ustimenko,Владислав Устименко,1998-03-26,73.1,250,155,272.5,677.5,SBD,Single-ply
7,74,M,Juniors,Dem'yan Kutsan,Дем'ян Куцан,1995-01-23,72.31,200,130,240,570,SBD,Single-ply
DQ,74,M,Juniors,Nazar Ilchishin,Назар Ільчишин,1998-07-01,72.49,-220,125,210,,SBD,Single-ply
DQ,74,M,Juniors,Ostap Ripka,Остап Ріпка,1997-02-16,73.7,240,-130,,,SBD,Single-ply
1,83,M,Juniors,Viktor Gladkiy,Віктор Гладкий,1998-01-01,82.33,295,215,300,810,SBD,Single-ply
2,83,M,Juniors,Andriy Bilik,Андрій Білик,1998-12-13,82.9,307.5,215,287.5,810,SBD,Single-ply
3,83,M,Juniors,Artem Ribalka,Артем Рибалка,1996-05-05,81.18,305,200,235,740,SBD,Single-ply
DQ,83,M,Juniors,Maksim Khordikov,Максим Хордіков,1998-12-05,79.93,-220,-150,-220,,SBD,Single-ply
1,93,M,Juniors,Bogdan Kostov,Богдан Костов,1998-01-01,92.45,295,220,305,820,SBD,Single-ply
2,93,M,Juniors,Dmitro Lenko,Дмитро Ленько,1998-08-26,89.6,240,160,260,660,SBD,Single-ply
3,93,M,Juniors,Anton Glukhanyuk,Антон Глуханюк,1996-04-09,89.1,255,132.5,252.5,640,SBD,Single-ply
4,93,M,Juniors,Andriy Timoshenko,Андрій Тимошенко,1998-12-14,85.83,245,127.5,260,632.5,SBD,Single-ply
NS,93,M,Juniors,Mikola Pashkovskiy,Микола Пашковський,1996-12-20,,,,,,SBD,Single-ply
1,105,M,Juniors,Danylo Kovalov,Данило Ковальов,1996-01-24,103.75,355,270,310,935,SBD,Single-ply
2,105,M,Juniors,Vasil Gerts,Василь Герц,1996-07-13,100.08,290,185,245,720,SBD,Single-ply
1,120,M,Juniors,Oleksandr Titarenko,Олександр Титаренко,1995-07-04,119.39,400.5,270.5,305,976,SBD,Single-ply
NS,120,M,Juniors,Vladislav Muravlov,Владислав Муравльов,1997-02-28,,,,,,SBD,Single-ply
1,120+,M,Juniors,Andrii Shevchenko,Андрій Шевченко,1995-09-09,136.3,375,275,310,960,SBD,Single-ply
2,120+,M,Juniors,Volodimir Kravets,Володимир Кравець,1996-07-17,124.35,310,190,230,730,SBD,Single-ply
1,53,M,Sub-Juniors,Kostyantin Kolevatov,Костянтин Колеватов,2003-04-11,52,115,67.5,125,307.5,SBD,Single-ply
1,59,M,Sub-Juniors,Bogdan Fstel,Богдан Фстель,2000-10-01,58.75,140,115,160,415,SBD,Single-ply
2,59,M,Sub-Juniors,Dmitro Manko,Дмитро Манько,2001-04-20,59,155,87.5,165,407.5,SBD,Single-ply
3,59,M,Sub-Juniors,Andriy Gensorskiy,Андрій Генсьорський,2001-12-11,56.95,132.5,87.5,162.5,382.5,SBD,Single-ply
4,59,M,Sub-Juniors,Anton Cherepanya,Антон Черепаня,2002-05-07,57.25,120,70,160,350,SBD,Single-ply
1,66,M,Sub-Juniors,Dmitro Kovbasyuk,Дмитро Ковбасюк,2000-11-10,65.22,185,115,220,520,SBD,Single-ply
2,66,M,Sub-Juniors,Illya Kuchma,Ілля Кучма,2000-06-17,65,180,110,172.5,462.5,SBD,Single-ply
3,66,M,Sub-Juniors,Vasil Nechay,Василь Нечай,2004-01-12,63.9,130,90,140,360,SBD,Single-ply
NS,66,M,Sub-Juniors,Evgeniy Golban,Євгеній Голбан,2004-01-25,,,,,,SBD,Single-ply
DQ,66,M,Sub-Juniors,Sergiy Kulyak,Сергій Куляк,2000-04-19,65.59,-170,127.5,182.5,,SBD,Single-ply
1,74,M,Sub-Juniors,Illya Efremov,Ілля Єфремов,2000-08-17,72.5,205,130,200,535,SBD,Single-ply
2,74,M,Sub-Juniors,Mikita Zaytsev,Микита Зайцев,2001-09-12,73.1,200,107.5,177.5,485,SBD,Single-ply
3,74,M,Sub-Juniors,Mar'yan Turchin,Мар'ян Турчин,2002-03-25,71.7,140,85,145,370,SBD,Single-ply
1,83,M,Sub-Juniors,Andriy Gnatyuk,Андрій Гнатюк,2000-12-11,80.95,252.5,135,235,622.5,SBD,Single-ply
2,83,M,Sub-Juniors,Artem Kostyuk,Артем Костюк,2001-04-06,80.95,240,140,215,595,SBD,Single-ply
3,83,M,Sub-Juniors,Ivan Rud,Іван Рудь,2000-10-05,82.4,247.5,135,185,567.5,SBD,Single-ply
1,93,M,Sub-Juniors,Oleksandr Posenko,Олександр Посенко,2001-10-15,86.8,215,150,215,580,SBD,Single-ply
2,93,M,Sub-Juniors,Vladislav Fents,Владислав Фенц,2002-01-17,83.2,180,120,200,500,SBD,Single-ply
1,105,M,Sub-Juniors,Roman Slepets,Роман Слєпець,2001-05-15,93.6,192.5,115,215,522.5,SBD,Single-ply
1,120,M,Sub-Juniors,Dmitro Goliney,Дмитро Голіней,2001-11-06,109.2,270,160,220,650,SBD,Single-ply
1,120+,M,Sub-Juniors,Viktor Golinei,Віктор Голіней,2000-02-26,130.2,360,270,300,930,SBD,Single-ply
1,43,F,Juniors,Dariya Brazhnik,Дарія Бражник,1997-04-28,42.54,125,65.5,110,300.5,SBD,Single-ply
2,43,F,Juniors,Ivanna Ivanyuk,Іванна Іванюк,1999-01-10,42.34,85,50,82.5,217.5,SBD,Single-ply
1,52,F,Juniors,Anastasiya Nakonechna,Анастасія Наконечна,1995-05-02,51.36,145,85,160.5,390.5,SBD,Single-ply
2,52,F,Juniors,Viktoriya Gurak,Вікторія Гурак,1998-07-28,51.79,150,90,140,380,SBD,Single-ply
3,52,F,Juniors,Margarita Korotkevich,Маргарита Короткевич,1996-03-21,51.08,127.5,67.5,115,310,SBD,Single-ply
1,57,F,Juniors,Nataliya Gargunovska,Наталія Гаргуновська,1998-04-25,56.77,205.5,105,171.5,482,SBD,Single-ply
2,57,F,Juniors,Yuliya Chikalina,Юлія Чикаліна,1998-02-16,55.92,157.5,112.5,180,450,SBD,Single-ply
3,57,F,Juniors,Ganna Bezhevets,Ганна Бежевець,1995-03-23,56.22,160,87.5,147.5,395,SBD,Single-ply
4,57,F,Juniors,Laura Golubenko,Лаура Голубенко,1997-09-11,55.68,140,55,145,340,SBD,Single-ply
1,63,F,Juniors,Mariya Shenderchuk,Марія Шендерчук,1998-03-05,62.56,185,100,170,455,SBD,Single-ply
2,63,F,Juniors,Ganna Dekermendzhi,Ганна Декерменджи,1999-12-22,58.54,167.5,95,145,407.5,SBD,Single-ply
3,63,F,Juniors,Yuliya Osiїk,Юлія Осіїк,1998-04-22,60.99,172.5,85,145,402.5,SBD,Single-ply
1,72,F,Juniors,Katerina Pinionzh,Катерина Пініонж,1998-09-14,71.46,160,100,160,420,SBD,Single-ply
1,84,F,Juniors,Katerina Pustovitova,Катерина Пустовітова,1995-03-28,75.93,120,77.5,125,322.5,SBD,Single-ply
1,43,F,Sub-Juniors,Mariia Polianska,Марія Полянська,2003-09-18,42.3,92.5,47.5,105.5,245.5,SBD,Single-ply
1,47,F,Sub-Juniors,Miroslava Melnikova,Мирослава Мельнікова,2002-11-01,46.79,120,55,107.5,282.5,SBD,Single-ply
2,47,F,Sub-Juniors,Irina Alokhina,Ірина Альохіна,2000-04-01,45.89,105,50,95,250,SBD,Single-ply
3,47,F,Sub-Juniors,Viktoriya Markiv,Вікторія Марків,2002-08-23,46.62,90,62.5,85,237.5,SBD,Single-ply
1,52,F,Sub-Juniors,Karina Prikhodko,Карина Приходько,2001-10-11,51.45,110,80,90,280,SBD,Single-ply
2,52,F,Sub-Juniors,Sofiya Bzdir,Софія Бздир,2003-07-03,50.84,97.5,55,102.5,255,SBD,Single-ply
NS,52,F,Sub-Juniors,Dar'ya Shestel,Дар'я Шестель,2004-06-25,,,,,,SBD,Single-ply
NS,52,F,Sub-Juniors,Khristina Kovtalo,Христина Ковтало,2003-01-08,,,,,,SBD,Single-ply
1,57,F,Sub-Juniors,Anastasiya Antonyuk,Анастасія Антонюк,2002-06-22,55.57,173,95,150.5,418.5,SBD,Single-ply
2,57,F,Sub-Juniors,Angelina Kiyakh,Ангеліна Киях,2002-09-03,56.1,140,77.5,137.5,355,SBD,Single-ply
3,57,F,Sub-Juniors,Olena Bukkina,Олена Буккіна,2001-11-09,56.56,145,70,140,355,SBD,Single-ply
4,57,F,Sub-Juniors,Mariya Bilous,Марія Білоус,2000-11-22,55.5,120,70,120,310,SBD,Single-ply
5,57,F,Sub-Juniors,Anzhelika Rozsolova,Анжеліка Розсолова,2002-06-08,55.71,120,65,120,305,SBD,Single-ply
6,57,F,Sub-Juniors,Irina Kvas,Ірина Квас,2003-12-25,56.91,110,47.5,127.5,285,SBD,Single-ply
1,63,F,Sub-Juniors,Katerina Tkachuk,Катерина Ткачук,2000-03-13,60.23,170,115,152.5,437.5,SBD,Single-ply
2,63,F,Sub-Juniors,Anna Savchenko,Анна Савченко,2000-10-09,62.31,172.5,87.5,137.5,397.5,SBD,Single-ply
3,63,F,Sub-Juniors,Anita Kolesnik,Аніта Колесник,2003-01-04,59.55,147.5,60,137.5,345,SBD,Single-ply
4,63,F,Sub-Juniors,Anna Rakhuba,Анна Рахуба,2000-11-28,59.42,155,70,117.5,342.5,SBD,Single-ply
5,63,F,Sub-Juniors,Mariya Kozir,Марія Козир,2004-07-12,60.43,55,30,67.5,152.5,SBD,Single-ply
1,72,F,Sub-Juniors,Ruslana Krasnova,Руслана Краснова,2000-04-13,68.73,200.5,115,171,486.5,SBD,Single-ply
2,72,F,Sub-Juniors,Daria Rusanenko,Даря Русаненко,2001-04-06,65.27,200,100,170.5,470.5,SBD,Single-ply
3,72,F,Sub-Juniors,Amina Meleshko,Аміна Мелешко,2004-10-11,65.91,57.5,32.5,70,160,SBD,Single-ply
1,84,F,Sub-Juniors,Olesya Goliyad,Олеся Голіяд,2001-08-09,74.92,140,80,140,360,SBD,Single-ply
2,84,F,Sub-Juniors,Katerina Paraskevich,Катерина Параскевич,2001-11-09,72.23,130,92.5,122.5,345,SBD,Single-ply
