Division,WeightClassKg,Place,Name,Team,BodyweightKg,Best3SquatKg,Best3BenchKg,Best3DeadliftKg,TotalKg,Equipment,Event,Sex
Boys,55.79,1,Timothy Ortiz,Odessa,51.89,124.74,74.84,142.88,342.46,Single-ply,SBD,M
Boys,51.71,2,Ignacio Romero,Plainview,45.45,122.47,54.43,106.59,283.5,Single-ply,SBD,M
Boys,55.79,3,Dylan Logan,Abilene Cooper,51.8,108.86,49.9,106.59,265.35,Single-ply,SBD,M
Boys,51.71,4,Austin Perkins,Abilene Cooper,47.9,104.33,52.16,106.59,263.08,Single-ply,SBD,M
Boys,51.71,5,Tucker Craig,Midland,47.99,102.06,56.7,102.06,260.82,Single-ply,SBD,M
Boys,51.71,6,Matthew Rodriguez,Amarillo Caprock,51.17,79.38,49.9,102.06,231.33,Single-ply,SBD,M
Boys,51.71,7,Antonio Barron,San Angelo Lake View,48.44,81.65,38.56,95.25,215.46,Single-ply,SBD,M
Boys,51.71,8,Daniel Denton,Wolfforth Frenship,44.45,77.11,45.36,86.18,208.65,Single-ply,SBD,M
Boys,51.71,9,Fox Talamantes,Abilene,42.37,81.65,40.82,83.91,206.38,Single-ply,SBD,M
Boys,51.71,10,Marco Sandate,San Angelo Lake View,50.8,90.72,68.04,36.29,195.04,Single-ply,SBD,M
Boys,55.79,1,Anthony Washington,Plainview,55.61,149.69,81.65,174.63,405.97,Single-ply,SBD,M
Boys,55.79,2,Jonathon Rodriguez,Abilene Cooper,55.34,145.15,79.38,154.22,378.75,Single-ply,SBD,M
Boys,55.79,3,Derek Adame,Plainview,55.43,147.42,79.38,140.61,367.41,Single-ply,SBD,M
Boys,55.79,4,Elijah Zambrano,Plainview,55.43,138.35,79.38,149.69,367.41,Single-ply,SBD,M
Boys,55.79,5,Diago Lara,Midland,54.88,129.27,90.72,145.15,365.14,Single-ply,SBD,M
Boys,55.79,6,Andrew Flores,Abilene,55.79,138.35,74.84,145.15,358.34,Single-ply,SBD,M
Boys,55.79,7,Matthew Gallegos,Plainview,55.16,131.54,68.04,138.35,337.93,Single-ply,SBD,M
Boys,55.79,8,JaQuanye Lyons,Midland Lee,52.62,131.54,68.04,131.54,331.12,Single-ply,SBD,M
Boys,55.79,9,Aaron Rivera,San Angelo Lake View,55.7,120.2,79.38,129.27,328.85,Single-ply,SBD,M
Boys,55.79,10,Davin Luna,Plainview,55.52,117.93,61.23,133.81,312.98,Single-ply,SBD,M
Boys,59.87,1,Zane Ponder,Plainview,58.69,181.44,88.45,158.76,428.64,Single-ply,SBD,M
Boys,59.87,2,Danny Gallardo,Plainview,59.24,161.03,79.38,170.1,410.5,Single-ply,SBD,M
Boys,59.87,3,Brandon Lee,San Angelo Lake View,59.51,158.76,72.57,163.29,394.63,Single-ply,SBD,M
Boys,59.87,4,Kobe Young,Wolfforth Frenship,58.24,129.27,74.84,142.88,347,Single-ply,SBD,M
Boys,59.87,5,Albert Nieto,Amarillo Caprock,59.24,129.27,81.65,136.08,347,Single-ply,SBD,M
Boys,59.87,6,Jacob Cantu,Abilene Cooper,58.88,104.33,65.77,115.67,285.76,Single-ply,SBD,M
Boys,59.87,DQ,Dalton Jenkins,Plainview,59.42,,,,,Single-ply,SBD,M
Boys,67.13,1,Ivan Arroyo,Odessa,63.96,199.58,136.08,215.46,551.11,Single-ply,SBD,M
Boys,67.13,2,Josh Binder,Midland,66.13,170.1,111.13,199.58,480.81,Single-ply,SBD,M
Boys,74.84,3,Robert Sauceda,San Angelo Central,67.22,181.44,108.86,190.51,480.81,Single-ply,SBD,M
Boys,67.13,4,Jeremy Reyes,Odessa,61.6,172.37,97.52,195.04,464.93,Single-ply,SBD,M
Boys,67.13,5,Efren Morales,San Angelo Central,62.78,165.56,97.52,163.29,426.38,Single-ply,SBD,M
Boys,67.13,6,Zack Rosas,Plainview,66.41,161.03,97.52,163.29,421.84,Single-ply,SBD,M
Boys,67.13,7,Jonathan Schwartzenberg,Canyon Randall,62.51,145.15,97.52,172.37,415.04,Single-ply,SBD,M
Boys,74.84,8,Elijah Revilla,Abilene Cooper,67.22,158.76,106.59,149.69,415.04,Single-ply,SBD,M
Boys,67.13,9,Joseph Alcala,San Angelo Lake View,65.32,129.27,102.06,174.63,405.97,Single-ply,SBD,M
Boys,67.13,10,Carson Williams,Plainview,66.32,167.83,92.99,145.15,405.97,Single-ply,SBD,M
Boys,67.13,DQ,Zach Gil,Abilene Cooper,65.59,136.08,97.52,133.81,,Single-ply,SBD,M
Boys,67.13,DQ,Tristan Bollinger,Midland,63.78,136.08,102.06,161.03,,Single-ply,SBD,M
Boys,74.84,1,Angel Moreno,San Angelo Lake View,74.57,249.48,158.76,213.19,621.42,Single-ply,SBD,M
Boys,74.84,2,Holt Eads,Midland,73.94,195.04,133.81,226.8,555.65,Single-ply,SBD,M
Boys,74.84,3,Jacob Hines,Abilene,73.12,213.19,106.59,213.19,532.97,Single-ply,SBD,M
Boys,82.1,4,Cp Aguilera,San Angelo Lake View,75.07,206.38,111.13,208.65,526.17,Single-ply,SBD,M
Boys,74.84,5,Daniel Lockhart #1,Midland,72.85,183.7,104.33,210.92,498.95,Single-ply,SBD,M
Boys,74.84,6,Steven Vallejo,Plainview,72.57,195.04,83.91,215.46,494.42,Single-ply,SBD,M
Boys,74.84,7,Cameron Hurd,Midland,73.84,174.63,92.99,217.72,485.34,Single-ply,SBD,M
Boys,74.84,8,Alex De La Rosa,Abilene Cooper,74.21,174.63,124.74,174.63,474,Single-ply,SBD,M
Boys,74.84,9,Cody Lewis,Abilene,71.49,147.42,106.59,172.37,426.38,Single-ply,SBD,M
Boys,74.84,NS,Mark Robles,Abilene Cooper,,,,,,Single-ply,SBD,M
Boys,82.1,1,Domingo Saucedo,Plainview,81.74,242.67,167.83,224.53,635.03,Single-ply,SBD,M
Boys,82.1,2,Caleb Hudson,San Angelo Lake View,78.2,231.33,117.93,231.33,580.6,Single-ply,SBD,M
Boys,82.1,3,DruMarcus Austin,Midland Lee,80.2,204.12,120.2,222.26,546.58,Single-ply,SBD,M
Boys,82.1,4,Sal Salinas,Midland,79.02,188.24,124.74,210.92,523.9,Single-ply,SBD,M
Boys,82.1,5,Daniel Salazar,Abilene,82.1,206.38,122.47,195.04,523.9,Single-ply,SBD,M
Boys,82.1,6,Nicky Hoang,Midland,76.29,185.97,108.86,226.8,521.63,Single-ply,SBD,M
Boys,82.1,7,Blake Narrell,Odessa Permian,79.65,174.63,117.93,188.24,480.81,Single-ply,SBD,M
Boys,82.1,8,Turner Phillips,Midland,79.56,176.9,106.59,192.78,476.27,Single-ply,SBD,M
Boys,89.81,DQ,Tyler Gil,Abilene Cooper,82.19,174.63,131.54,,,Single-ply,SBD,M
Boys,82.1,DQ,Bailey Settle,Plainview,80.47,215.46,124.74,,,Single-ply,SBD,M
Boys,89.81,1,Coleton Whitlock,Midland,89.27,249.48,147.42,254.01,650.91,Single-ply,SBD,M
Boys,89.81,2,Dayton Dennard,Odessa,85.73,215.46,138.35,235.87,589.67,Single-ply,SBD,M
Boys,89.81,3,Trenton Jones,Plainview,87.54,226.8,145.15,213.19,585.13,Single-ply,SBD,M
Boys,89.81,4,William Coleman,Abilene Cooper,89.27,226.8,120.2,199.58,546.58,Single-ply,SBD,M
Boys,89.81,5,Emilio Solis,Midland,87.82,188.24,149.69,188.24,526.17,Single-ply,SBD,M
Boys,89.81,6,Patrick Lee,Canyon Randall,89.27,185.97,108.86,213.19,508.02,Single-ply,SBD,M
Boys,89.81,7,Greg Garcia,Odessa,87.36,172.37,113.4,204.12,489.88,Single-ply,SBD,M
Boys,89.81,8,Adin Mizer,Canyon Randall,88.18,172.37,113.4,204.12,489.88,Single-ply,SBD,M
Boys,89.81,DQ,Paul Lowe,Abilene Cooper,89.18,188.24,120.2,147.42,,Single-ply,SBD,M
Boys,89.81,DQ,Arturo Hinojos,Midland,84.82,156.49,104.33,190.51,,Single-ply,SBD,M
Boys,89.81,NS,Blas Guerro,San Angelo Central,,,,,,Single-ply,SBD,M
Boys,89.81,DQ,Quenton Valentine,Plainview,88.72,,,,,Single-ply,SBD,M
Boys,89.81,DQ,Chris Carlin,Abilene,88.72,183.7,,,,Single-ply,SBD,M
Boys,99.79,1,Dannyk Ramos,Midland,96.34,263.08,142.88,226.8,632.76,Single-ply,SBD,M
Boys,99.79,2,Reagan Cooke,Abilene,95.98,254.01,149.69,217.72,621.42,Single-ply,SBD,M
Boys,99.79,3,Aron Quezada,San Angelo Lake View,98.34,235.87,136.08,226.8,598.74,Single-ply,SBD,M
Boys,99.79,4,Gio Galindo,San Angelo Lake View,98.43,208.65,149.69,233.6,591.94,Single-ply,SBD,M
Boys,99.79,5,Javier Valdes,Midland,97.43,231.33,138.35,217.72,587.4,Single-ply,SBD,M
Boys,99.79,6,Brendan Voss,Plainview,91.63,222.26,127.01,229.06,578.33,Single-ply,SBD,M
Boys,99.79,7,Dillon Springer,Midland,98.7,208.65,149.69,213.19,571.53,Single-ply,SBD,M
Boys,99.79,8,Damian Guevara,Abilene,96.07,217.72,147.42,188.24,553.38,Single-ply,SBD,M
Boys,99.79,9,Kyler Shy,Abilene Cooper,98.61,181.44,158.76,,340.19,Single-ply,SB,M
Boys,99.79,DQ,Noah Hernandez,Odessa,92.26,195.04,113.4,199.58,,Single-ply,SBD,M
Boys,99.79,DQ,Manuel Ramirez,Odessa,93.35,201.85,131.54,192.78,,Single-ply,SBD,M
Boys,99.79,DQ,Michael Coy,Odessa Permian,95.53,226.8,120.2,181.44,,Single-ply,SBD,M
Boys,99.79,NS,Quinn Harrell,Abilene Cooper,,,,,,Single-ply,SB,M
Boys,99.79,DQ,Cooper Meurer,Midland,99.79,215.46,129.27,,,Single-ply,SB,M
Boys,109.77,1,Moises Garcia,Plainview,108.32,272.16,145.15,260.82,678.12,Single-ply,SBD,M
Boys,109.77,2,Miguel Espinoza,Abilene,105.87,263.08,165.56,238.14,666.78,Single-ply,SBD,M
Boys,109.77,3,Zechariah Lerma,Odessa,104.42,260.82,149.69,235.87,646.37,Single-ply,SBD,M
Boys,109.77,4,Nate Newton,San Angelo Central,107.23,256.28,136.08,219.99,612.35,Single-ply,SBD,M
Boys,109.77,5,Matthew Cardenas,Wolfforth Frenship,105.05,235.87,145.15,226.8,607.81,Single-ply,SBD,M
Boys,109.77,6,David Brown #14,Abilene,104.96,208.65,156.49,215.46,580.6,Single-ply,SBD,M
Boys,109.77,7,Josh Hunter,Abilene,102.33,226.8,120.2,226.8,573.79,Single-ply,SBD,M
Boys,109.77,8,Tailor Hunt,San Angelo Central,101.97,235.87,127.01,206.38,569.26,Single-ply,SBD,M
Boys,109.77,9,Justin Sanchez,Midland,103.33,217.72,127.01,206.38,551.11,Single-ply,SBD,M
Boys,109.77,DQ,Byron Hutson,Odessa,101.51,219.99,120.2,204.12,,Single-ply,SBD,M
Boys,109.77,DQ,Edgar Contreras,Odessa,100.97,208.65,122.47,213.19,,Single-ply,SBD,M
Boys,109.77,DQ,Dawson Worgull,Abilene,107.86,204.12,113.4,195.04,,Single-ply,SBD,M
Boys,109.77,DQ,Devon Miller,Midland,108.05,272.16,145.15,,,Single-ply,SBD,M
Boys,124.74,1,Erik Mendez,Plainview,115.03,283.5,151.95,272.16,707.6,Single-ply,SBD,M
Boys,124.74,2,Jacob Granado,Midland,120.56,294.84,151.95,238.14,684.92,Single-ply,SBD,M
Boys,124.74,3,Jesus Olivares,Odessa Permian,118.66,265.35,140.61,258.55,664.51,Single-ply,SBD,M
Boys,124.74,4,Daren Hernandez,San Angelo Central,117.48,240.4,145.15,226.8,612.35,Single-ply,SBD,M
Boys,124.74,5,Brock Thetford,Abilene,116.21,251.74,147.42,206.38,605.55,Single-ply,SBD,M
Boys,124.74,6,Ruben Magallan,San Angelo Lake View,118.66,226.8,136.08,231.33,594.21,Single-ply,SBD,M
Boys,124.74,7,Darren Jones,Abilene Cooper,111.04,249.48,129.27,213.19,591.94,Single-ply,SBD,M
Boys,124.74,8,Marquise Nelson,Wolfforth Frenship,123.2,226.8,120.2,204.12,551.11,Single-ply,SBD,M
Boys,124.74,9,Jesus Adame,Odessa,112.76,217.72,117.93,208.65,544.31,Single-ply,SBD,M
Boys,124.74,DQ,McKenzie Lawson,Odessa Permian,120.93,213.19,106.59,195.04,,Single-ply,SBD,M
Boys,124.74,DQ,Tony Silva,Abilene,116.66,231.33,124.74,195.04,,Single-ply,SBD,M
Boys,124.74,DQ,Slayde Anderson,Abilene,111.77,183.7,111.13,,,Single-ply,SBD,M
Boys,124.74,DQ,Marcus Smith,Amarillo Caprock,122.74,199.58,154.22,,,Single-ply,SBD,M
Boys,124.74+,1,Riley Owens,Abilene Cooper,144.24,281.23,167.83,249.48,698.53,Single-ply,SBD,M
Boys,124.74+,2,Dj Schlather,San Angelo Lake View,132.36,274.42,165.56,249.48,689.46,Single-ply,SBD,M
Boys,124.74+,3,Pablo Gutierrez #2,Odessa,132.63,292.57,156.49,240.4,689.46,Single-ply,SBD,M
Boys,124.74+,4,Jesus Verastegui,Abilene,147.51,272.16,136.08,222.26,630.49,Single-ply,SBD,M
Boys,124.74+,5,Aaron Leyva,Odessa,125.46,256.28,142.88,219.99,619.15,Single-ply,SBD,M
Boys,124.74+,6,O'Shay Scott,Midland,129.82,240.4,142.88,235.87,619.15,Single-ply,SBD,M
Boys,124.74+,7,CJ Carrillo,Midland,138.98,226.8,156.49,226.8,610.08,Single-ply,SBD,M
Boys,124.74+,8,Jacob Molina,Midland Lee,158.58,235.87,127.01,238.14,601.01,Single-ply,SBD,M
Boys,124.74+,9,Vincent Mendoza,Wolfforth Frenship,126.55,254.01,120.2,222.26,596.47,Single-ply,SBD,M
Boys,124.74+,10,Hunter Hawkins,Abilene Cooper,128.19,226.8,124.74,181.44,532.97,Single-ply,SBD,M
Boys,124.74+,DQ,Arnaldo Gjocaj,Abilene Cooper,127.91,204.12,92.99,181.44,,Single-ply,SBD,M
Boys,124.74+,DQ,Patrick Hernandez,Midland Lee,144.06,192.78,97.52,140.61,,Single-ply,SBD,M
