Division,WeightClassKg,Place,Name,Team,BodyweightKg,Best3SquatKg,Best3BenchKg,Best3DeadliftKg,TotalKg,Equipment,Event,Sex,BirthDate
Boys,51.71,1,Nathan Rendon,Levelland,51.07,90.72,65.77,117.93,274.42,Single-ply,SBD,M,
Boys,55.79,1,Rj Lopez,Levelland,51.89,108.86,77.11,117.93,303.91,Single-ply,SBD,M,
Boys,55.79,2,Michael Bautista,Friona,54.25,106.59,65.77,122.47,294.84,Single-ply,SBD,M,
Boys,55.79,3,Ceasar Amaya,Bovina,54.7,102.06,70.31,117.93,290.3,Single-ply,SBD,M,
Boys,55.79,4,Jovany Salazar,Bovina,55.52,88.45,54.43,111.13,254.01,Single-ply,SBD,M,
Boys,55.79,5,Aiden Trevino,Lamesa,55.43,79.38,38.56,102.06,219.99,Single-ply,SBD,M,
Boys,55.79,DQ,Miguel López,Bovina,55.16,,,,,Single-ply,SBD,M,
Boys,55.79,DQ,Patricio Garcia,Brownfield,55.16,111.13,,,,Single-ply,SBD,M,
Boys,59.87,1,Giovanny Ponce,Friona,58.69,149.69,88.45,147.42,385.55,Single-ply,SBD,M,
Boys,59.87,2,Erick Cruz,Lubbock Roosevelt,58.33,133.81,81.65,147.42,362.87,Single-ply,SBD,M,
Boys,59.87,3,Mario Bautista,Friona,59.33,117.93,92.99,136.08,347,Single-ply,SBD,M,
Boys,59.87,4,Aiden Russell,Lubbock Roosevelt,56.43,108.86,70.31,122.47,301.64,Single-ply,SBD,M,
Boys,59.87,5,Gael Garcia,Friona,58.42,117.93,65.77,117.93,301.64,Single-ply,SBD,M,
Boys,59.87,6,Ethan Martinez,Wolfforth Frenship,55.88,102.06,65.77,122.47,290.3,Single-ply,SBD,M,
Boys,59.87,7,Jermaine Stotts,Wolfforth Frenship,59.51,88.45,61.23,136.08,285.76,Single-ply,SBD,M,
Boys,59.87,8,Leeland Lira,Brownfield,55.97,111.13,58.97,104.33,274.42,Single-ply,SBD,M,
Boys,59.87,9,Izaic Gonzales,Lamesa,59.42,83.91,47.63,99.79,231.33,Single-ply,SBD,M,
Boys,59.87,DQ,Ryan Gamez,Brownfield,58.6,122.47,72.57,,,Single-ply,SBD,M,
Boys,67.13,1,Xuan Garcia,Friona,66.5,129.27,77.11,147.42,353.8,Single-ply,SBD,M,
Boys,67.13,2,Josh Gonzales #3,Brownfield,67.04,124.74,65.77,142.88,333.39,Single-ply,SBD,M,
Boys,67.13,3,David Hagood,Lubbock Roosevelt,62.23,115.67,77.11,108.86,301.64,Single-ply,SBD,M,
Boys,67.13,4,Austin Ellis,Levelland,66.13,104.33,70.31,120.2,294.84,Single-ply,SBD,M,
Boys,67.13,5,Jeremiah Garses,Lubbock Roosevelt,60.15,102.06,70.31,120.2,292.57,Single-ply,SBD,M,
Boys,67.13,6,Braden Conn,Brownfield,63.23,88.45,54.43,102.06,244.94,Single-ply,SBD,M,
Boys,74.84,1,Christian Smith,Levelland,74.39,136.08,104.33,181.44,421.84,Single-ply,SBD,M,
Boys,74.84,2,Aaron Salinas,Friona,71.67,158.76,81.65,174.63,415.04,Single-ply,SBD,M,
Boys,74.84,3,Jagger Lopez,Levelland,67.59,147.42,108.86,154.22,410.5,Single-ply,SBD,M,
Boys,74.84,4,Anthony Trevino,Lamesa,68.22,154.22,77.11,179.17,410.5,Single-ply,SBD,M,
Boys,74.84,5,Rogelio Garza,Brownfield,74.8,154.22,88.45,163.29,405.97,Single-ply,SBD,M,
Boys,74.84,6,Pancho Garza,Brownfield,74.12,149.69,92.99,154.22,396.89,Single-ply,SBD,M,
Boys,74.84,7,Tyler Valdez,Levelland,67.31,124.74,81.65,154.22,360.61,Single-ply,SBD,M,
Boys,74.84,8,Eusubio Garcia,Brownfield,74.39,104.33,63.5,124.74,292.57,Single-ply,SBD,M,
Boys,74.84,9,Matthew Landin,Wolfforth Frenship,67.31,106.59,43.09,133.81,283.5,Single-ply,SBD,M,
Boys,74.84,10,Jayden Johns,Wolfforth Frenship,71.85,92.99,68.04,113.4,274.42,Single-ply,SBD,M,
Boys,82.1,1,Alex Trevino,Lubbock Roosevelt,81.19,206.38,108.86,238.14,553.38,Single-ply,SBD,M,
Boys,82.1,2,Austin Sisson,Brownfield,81.69,156.49,104.33,179.17,439.98,Single-ply,SBD,M,
Boys,82.1,3,Matthew Dimas,Friona,79.2,149.69,90.72,165.56,405.97,Single-ply,SBD,M,
Boys,82.1,4,Marcos Ogeda,Lamesa,75.57,145.15,79.38,167.83,392.36,Single-ply,SBD,M,
Boys,82.1,5,Angel Camero,Levelland,75.75,117.93,88.45,136.08,342.46,Single-ply,SBD,M,
Boys,82.1,6,Novy Vela,Wolfforth Frenship,77.84,124.74,79.38,129.27,333.39,Single-ply,SBD,M,
Boys,89.81,1,Jj Diaz,Lubbock Roosevelt,89.72,233.6,151.95,233.6,619.15,Single-ply,SBD,M,
Boys,89.81,2,Jerimiah Washington,Wolfforth Frenship,89.27,199.58,104.33,233.6,537.51,Single-ply,SBD,M,
Boys,89.81,3,Lloyd Eustace,Lubbock Roosevelt,84.46,188.24,102.06,199.58,489.88,Single-ply,SBD,M,
Boys,89.81,4,Darian DeLaRosa,Bovina,83.73,142.88,97.52,163.29,403.7,Single-ply,SBD,M,
Boys,89.81,5,Dominic Hernandez,Lubbock Roosevelt,85.18,163.29,83.91,151.95,399.16,Single-ply,SBD,M,
Boys,89.81,6,Zakeri Gonzales,Brownfield,89.72,124.74,92.99,156.49,374.21,Single-ply,SBD,M,
Boys,89.81,7,Kenneth Vielmann,Friona,84.64,131.54,68.04,147.42,347,Single-ply,SBD,M,
Boys,89.81,8,Ethan Villarreal,Lamesa,84.64,122.47,74.84,147.42,344.73,Single-ply,SBD,M,
Boys,89.81,9,Yandel DeLeon,Bovina,87.82,111.13,70.31,158.76,340.19,Single-ply,SBD,M,
Boys,89.81,10,Luke Brooker,Whiteface,83.91,113.4,90.72,131.54,335.66,Single-ply,SBD,M,
Boys,89.81,11,Johnathan Cavarrubias,Wolfforth Frenship,82.37,83.91,56.7,140.61,281.23,Single-ply,SBD,M,
Boys,99.79,1,Misael Castaneda,Whiteface,97.89,231.33,158.76,222.26,612.35,Single-ply,SBD,M,
Boys,99.79,2,Thomas Sanchez,Lubbock Roosevelt,98.88,183.7,111.13,192.78,487.61,Single-ply,SBD,M,
Boys,99.79,3,Nicholas Lira,Brownfield,98.61,149.69,108.86,188.24,446.79,Single-ply,SBD,M,
Boys,99.79,4,Landon Noey,Lubbock Roosevelt,96.71,156.49,97.52,167.83,421.84,Single-ply,SBD,M,
Boys,99.79,5,Michael Pell,Lubbock Roosevelt,95.35,142.88,92.99,167.83,403.7,Single-ply,SBD,M,
Boys,99.79,6,Nick Caffey,Lubbock Roosevelt,93.98,142.88,83.91,170.1,396.89,Single-ply,SBD,M,
Boys,99.79,7,Zayden Morin,Brownfield,98.16,142.88,92.99,147.42,383.29,Single-ply,SBD,M,
Boys,99.79,8,Aiden Herrera,Wolfforth Frenship,97.43,133.81,97.52,142.88,374.21,Single-ply,SBD,M,
Boys,99.79,9,Sergio Salazar,Friona,95.53,154.22,68.04,131.54,353.8,Single-ply,SBD,M,
Boys,109.77,1,Kesean Dever,Brownfield,109.13,199.58,122.47,199.58,521.63,Single-ply,SBD,M,
Boys,109.77,2,Aaron Rodriguez,Friona,107.95,185.97,102.06,158.76,446.79,Single-ply,SBD,M,
Boys,109.77,3,Frank Perez,Friona,107.59,163.29,90.72,149.69,403.7,Single-ply,SBD,M,
Boys,109.77,4,Chase Pickering,Levelland,102.69,72.57,56.7,97.52,226.8,Single-ply,SBD,M,
Boys,139.71,1,Charles Aynes,Lamesa,125.28,235.87,111.13,206.38,553.38,Single-ply,SBD,M,
Boys,139.71,2,Fernando Mendez,Brownfield,124.92,181.44,117.93,183.7,483.08,Single-ply,SBD,M,
Boys,139.71,3,Blaize Whitaker,Wolfforth Frenship,125.74,145.15,115.67,183.7,444.52,Single-ply,SBD,M,
Boys,139.71,4,John Rodriguez,Levelland,138.71,165.56,113.4,158.76,437.72,Single-ply,SBD,M,
Boys,139.71+,DQ,Sean Castillo,Brownfield,213.19,,,,,Single-ply,SBD,M,
Boys,,NS,Eduardo Juarez,Friona,,,,,,Single-ply,SBD,M,
Boys,,NS,Gabe Abarca,Friona,,,,,,Single-ply,SBD,M,
Boys,,NS,Anthony Abarca,Friona,,,,,,Single-ply,SBD,M,
Boys,,NS,Jarrett White,Friona,,,,,,Single-ply,SBD,M,
Boys,,NS,Tony Rodriguez #4,Friona,,,,,,Single-ply,SBD,M,
Boys,,NS,Isaac Olmos,Friona,,,,,,Single-ply,SBD,M,
Boys,,NS,Spencer Stokes,Friona,,,,,,Single-ply,SBD,M,
Boys,,NS,Nathan Guevarra,Bovina,,,,,,Single-ply,SBD,M,
Boys,,NS,Rolando Rodarte,Bovina,,,,,,Single-ply,SBD,M,
Boys,,NS,Jose Guera,Bovina,,,,,,Single-ply,SBD,M,
Boys,,NS,Raylon Allison,Lamesa,,,,,,Single-ply,SBD,M,
Boys,,NS,Johnathan Iglesias,Lamesa,,,,,,Single-ply,SBD,M,
Boys,,NS,Salvador Garcia,Lamesa,,,,,,Single-ply,SBD,M,
Boys,,NS,Evan Sepeda,Lamesa,,,,,,Single-ply,SBD,M,
Boys,,NS,Josiah Zapata,Lamesa,,,,,,Single-ply,SBD,M,
