Place,Sex,Name,CyrillicName,BodyweightKg,Squat1Kg,Squat2Kg,Squat3Kg,Best3SquatKg,Squat4Kg,Bench1Kg,Bench2Kg,Bench3Kg,Best3BenchKg,Bench4Kg,Deadlift1Kg,Deadlift2Kg,Deadlift3Kg,Best3DeadliftKg,Deadlift4Kg,TotalKg,WeightClassKg,Event,Equipment,Tested,Division,Age,BirthDate
1,F,Viktoriya Petrushkina,Виктория Петрушкина,50.4,62.5,65,67.5,67.5,,45,47.5,-50,47.5,,75,80,-85,80,,195,52,SBD,Raw,Yes,Teen 13-15,14,2006-04-26
1,F,Marina Kutepova,Марина Кутепова,67,105,-110,-110,105,,70,75,-77.5,75,,130,140,-145,140,,320,67.5,SBD,Raw,Yes,Masters 40-44,42,1979-01-12
1,F,Nataliya Bashkatova,Наталия Башкатова,82.3,-115,117.5,122.5,122.5,,60,-62.5,-62.5,60,,130,140,-145,140,,322.5,82.5,SBD,Raw,Yes,Masters 45-49,48,1973-02-05
1,M,Danila Sokolov,Данила Соколов,67.5,135,140,-145,140,,70,75,-80,75,,130,135,140,140,,355,67.5,SBD,Raw,Yes,Teen 13-15,14,2007-03-08
1,M,Egor Kuznetsov,Егор Кузнецов,75,155,160,165,165,,120,125,,125,,242.5,250,,250,,540,75,SBD,Raw,Yes,Teen 16-17,17,2003-11-17
1,M,Egor Kuznetsov,Егор Кузнецов,75,155,160,165,165,,120,125,,125,,242.5,250,,250,,540,75,SBD,Raw,Yes,Open,17,2003-11-17
1,M,Igor Pashkov,Игорь Пашков,86.1,200,210,215,215,,140,145,150,150,,250,260,265,265,,630,90,SBD,Raw,Yes,Open,34,1986-06-10
2,M,Andrey Matveev,Андрей Матвеев,83.9,200,207.5,212.5,212.5,,140,145,-150,145,,220,230,-240,230,,587.5,90,SBD,Raw,Yes,Open,34,1986-05-09
3,M,Vladislav Cherepanov,Владислав Черепанов,84,140,150,160,160,,120,125,130,130,,200,210,220,220,,510,90,SBD,Raw,Yes,Open,24,1996-06-13
1,M,Gleb Silantev,Глеб Силантьев,109.7,220,232.5,237.5,237.5,,160,165,170,170,,247.5,255,262.5,262.5,,670,110,SBD,Raw,Yes,Open,24,1996-05-03
1,F,Marina Kutepova,Марина Кутепова,67,,,,,,70,75,-77.5,75,,130,140,-145,140,,215,67.5,BD,Raw,Yes,Masters 40-44,42,1979-01-12
1,M,Nikita Zorin,Никита Зорин,63.1,,,,,,55,-60,60,60,-62.5,80,90,100,100,,160,67.5,BD,Raw,Yes,Youth,12,2008-09-21
1,M,Mikhail Komkin,Михаил Комкин,98.9,,,,,,120,-130,-130,120,,190,200,-210,200,,320,100,BD,Raw,Yes,Open,33,1987-11-12
1,F,Vera Salakhova,Вера Салахова,55.5,95,-105,105,105,,,,,,,,,,,,105,56,S,Raw,Yes,Masters 40-44,40,1980-12-24
1,M,Aleksey Korchagin,Алексей Корчагин,82.5,-155,-155,155,155,,,,,,,,,,,,155,82.5,S,Raw,Yes,Masters 40-44,44,1976-10-03
1,F,Viktoriya Petrushkina,Виктория Петрушкина,50.4,,,,,,45,47.5,-50,47.5,,,,,,,47.5,52,B,Raw,Yes,Teen 13-15,14,2006-04-26
1,F,Marina Kutepova,Марина Кутепова,67,,,,,,70,75,-77.5,75,,,,,,,75,67.5,B,Raw,Yes,Masters 40-44,42,1979-01-12
1,M,Aleksandr Makoldin,Александр Маколдин,73.6,,,,,,120,125,-127.5,125,,,,,,,125,75,B,Raw,Yes,Open,30,1990-05-28
1,M,Aleksandr Kapustin,Александр Капустин,85.7,,,,,,110,120,-125,120,,,,,,,120,90,B,Raw,Yes,Teen 16-17,17,2003-08-30
1,M,Vladimir Shlyapnikov,Владимир Шляпников,90,,,,,,160,-167.5,-167.5,160,,,,,,,160,90,B,Raw,Yes,Open,39,1981-07-24
2,M,Sergey Ilin,Сергей Ильин,87.4,,,,,,122.5,132.5,140,140,,,,,,,140,90,B,Raw,Yes,Open,38,1982-11-24
3,M,Ivan Korolev,Иван Королев,87.4,,,,,,125,132.5,137.5,137.5,,,,,,,137.5,90,B,Raw,Yes,Open,25,1995-08-07
1,M,Mikhail Medvedev,Михаил Медведев,89.5,,,,,,132.5,-140,-140,132.5,,,,,,,132.5,90,B,Raw,Yes,Masters 40-44,44,1976-08-08
1,M,Tigran Sarkisyan,Тигран Саркисян,98.9,,,,,,160,167.5,170,170,,,,,,,170,100,B,Raw,Yes,Open,35,1986-02-25
1,M,Ruslan Dyomin,Руслан Дёмин,98.9,,,,,,152.5,162.5,-165,162.5,,,,,,,162.5,100,B,Raw,Yes,Masters 45-49,47,1973-10-29
1,M,Igor Stasyuk,Игорь Стасюк,109.8,,,,,,210,217.5,222.5,222.5,,,,,,,222.5,110,B,Raw,Yes,Open,38,1983-01-09
2,M,Maksim Grankin,Максим Гранкин,105.5,,,,,,130,135,-140,135,,,,,,,135,110,B,Raw,Yes,Open,30,1990-06-18
1,M,Vyacheslav Smirnov,Вячеслав Смирнов,124.4,,,,,,165,167.5,170,170,,,,,,,170,125,B,Raw,Yes,Open,48,1973-02-04
1,M,Vladimir Rodin,Владимир Родин,60.6,,,,,,80,85,,85,,,,,,,85,67.5,B,Raw,No,Masters 50-54,51,1969-07-05
1,M,Kirill Eryomin,Кирилл Ерёмин,74.6,,,,,,70,-75,75,75,,,,,,,75,75,B,Raw,No,Teen 13-15,15,2005-06-02
1,M,Denis Sokov,Денис Соков,79,,,,,,180,-185,185,185,,,,,,,185,82.5,B,Raw,No,Open,35,1985-12-06
1,M,Dmitriy Tarasov,Дмитрий Тарасов,89,,,,,,140,147.5,155,155,,,,,,,155,90,B,Raw,No,Open,31,1989-08-21
1,M,Maksim Kurganskiy,Максим Курганский,107.5,,,,,,135,142.5,-150,142.5,,,,,,,142.5,110,B,Raw,No,Open,35,1986-01-14
1,M,Arseniy Suchkov,Арсений Сучков,140,,,,,,200,210,-220,210,,,,,,,210,140,B,Raw,No,Juniors 20-23,22,1999-03-16
1,M,Vladimir Shlyapnikov,Владимир Шляпников,90,,,,,,200,215,230,230,,,,,,,230,90,B,Unlimited,Yes,Open,39,1981-07-24
1,M,Aleksey Sergeev,Алексей Сергеев,77.4,,,,,,180,-190,-200,180,,,,,,,180,82.5,B,Unlimited,No,Open,40,1981-04-19
1,M,Dmitriy Tarasov,Дмитрий Тарасов,89,,,,,,220,-230,-230,220,,,,,,,220,90,B,Unlimited,No,Open,31,1989-08-21
1,M,Roman Semenov,Роман Семенов,96.8,,,,,,275,-287.5,287.5,287.5,,,,,,,287.5,100,B,Unlimited,No,Open,41,1979-11-12
1,M,Sergey Averkin,Сергей Аверкин,108.3,,,,,,240,-255,-255,240,,,,,,,240,110,B,Unlimited,No,Open,44,1976-08-04
2,M,Dmitriy Bykov,Дмитрий Быков,104.9,,,,,,-200,-200,200,200,,,,,,,200,110,B,Unlimited,No,Open,33,1987-09-17
1,M,Nikolay Emelyanov #1,Николай Емельянов,118.4,,,,,,300,315,330,330,,,,,,,330,125,B,Unlimited,No,Open,41,1979-08-30
1,M,Andrey Volkov,Андрей Волков,149.7,,,,,,-300,300,-335,300,,,,,,,300,140+,B,Unlimited,No,Open,28,1992-05-28
1,F,Aleksandra Kusakina,Александра Кусакина,58.9,,,,,,,,,,,-110,110,115,115,-120,115,60,D,Raw,Yes,Open,27,1993-07-02
1,F,Marina Kutepova,Марина Кутепова,67,,,,,,,,,,,130,140,-145,140,,140,67.5,D,Raw,Yes,Masters 40-44,42,1979-01-12
1,M,Vadim Baranov,Вадим Баранов,66.2,,,,,,,,,,,150,170,180,180,,180,67.5,D,Raw,Yes,Teen 16-17,17,2003-10-17
1,M,Nikolay Bezuglov,Николай Безуглов,92.9,,,,,,,,,,,230,250,270,270,,270,100,D,Raw,Yes,Open,36,1985-01-10
2,M,Dmitriy Kukushkin,Дмитрий Кукушкин,96.1,,,,,,,,,,,240,250,255,255,,255,100,D,Raw,Yes,Open,33,1987-06-24
3,M,Sergey Tikhomirov,Сергей Тихомиров,94.5,,,,,,,,,,,150,160,-175,160,,160,100,D,Raw,Yes,Open,26,1994-09-08
