Division,WeightClassKg,Place,Name,Team,BodyweightKg,Best3SquatKg,Best3BenchKg,Best3DeadliftKg,TotalKg,Equipment,Event,Sex
Boys,51.71,1,Tuti Garcia,Los Fresnos,51.48,174.63,92.99,188.24,455.86,Single-ply,SBD,M
Boys,55.79,2,David Garcia,Pharr Valley View,51.89,158.76,99.79,188.24,446.79,Single-ply,SBD,M
Boys,51.71,3,Randy Trevino,Gregory-Portland,50.89,165.56,88.45,181.44,435.45,Single-ply,SBD,M
Boys,51.71,4,Hector Villegas,Roma,50.71,161.03,92.99,174.63,428.64,Single-ply,SBD,M
Boys,55.79,5,Albert de la Rosa,San Benito,51.89,156.49,90.72,174.63,421.84,Single-ply,SBD,M
Boys,51.71,6,LA Gonzalez,Alice,51.12,165.56,83.91,161.03,410.5,Single-ply,SBD,M
Boys,51.71,7,Brooks Guzman,Weslaco East,50.8,149.69,81.65,172.37,403.7,Single-ply,SBD,M
Boys,55.79,8,Mac Moo,Port Lavaca Calhoun,51.85,145.15,86.18,136.08,367.41,Single-ply,SBD,M
Boys,51.71,9,Nikalas Rosell,Laredo Alexander,50.17,140.61,81.65,124.74,347,Single-ply,SBD,M
Boys,51.71,DQ,Carlos Jiminez,PSJA,51.62,136.08,81.65,,,Single-ply,SBD,M
Boys,51.71,DQ,Rolando Gonzalez,PSJA Southwest,51.66,,,,,Single-ply,SBD,M
Boys,51.71,DQ,Victor Pedraza,PSJA Southwest,51.71,,,,,Single-ply,SBD,M
Boys,55.79,1,John Ramirez,Victoria West,55.11,161.03,108.86,197.31,467.2,Single-ply,SBD,M
Boys,55.79,2,Raul Mota,San Benito,55.38,163.29,108.86,195.04,467.2,Single-ply,SBD,M
Boys,59.87,3,Juan Rivera,Los Fresnos,55.97,158.76,122.47,185.97,467.2,Single-ply,SBD,M
Boys,55.79,4,Angel Flores #2,Weslaco East,55.07,163.29,95.25,188.24,446.79,Single-ply,SBD,M
Boys,59.87,5,Eliazar Duenes,Edcouch-Elsa,55.97,151.95,99.79,195.04,446.79,Single-ply,SBD,M
Boys,55.79,6,Isaac Castillo,Laredo Cigarroa,54.84,181.44,83.91,167.83,433.18,Single-ply,SBD,M
Boys,59.87,7,Aaron Martinez,Corpus Christi Calallen,55.84,145.15,99.79,167.83,412.77,Single-ply,SBD,M
Boys,55.79,DQ,Cesar Esquivel,Laredo Cigarroa,55.43,,,,,Single-ply,SBD,M
Boys,55.79,DQ,Eric Oliva,Laredo United South,55.61,,,,,Single-ply,SBD,M
Boys,55.79,DQ,Elijah Gonzales,San Antonio East Central,54.39,,,,,Single-ply,SBD,M
Boys,67.13,1,Jacob de la Paz,Corpus Christi Calallen,60.06,210.92,99.79,210.92,521.63,Single-ply,SBD,M
Boys,59.87,2,Juan Chapa,San Antonio Southside,58.15,192.78,124.74,181.44,498.95,Single-ply,SBD,M
Boys,67.13,3,Victor Acosta,Pharr Valley View,60.06,195.04,124.74,179.17,498.95,Single-ply,SBD,M
Boys,67.13,4,Jesus Garcia #1,Mission,60.06,188.24,92.99,185.97,467.2,Single-ply,SBD,M
Boys,59.87,5,Louis Vasquez,Los Fresnos,58.06,165.56,102.06,197.31,464.93,Single-ply,SBD,M
Boys,59.87,6,Harry Avellan-Averruz,Corpus Christi Tuloso-Midway,59.74,185.97,108.86,170.1,464.93,Single-ply,SBD,M
Boys,59.87,DQ,Jarrett Buford,Port Lavaca Calhoun,59.42,201.85,,,,Single-ply,SBD,M
Boys,59.87,DQ,Mauro Garcia,Port Lavaca Calhoun,59.78,,,,,Single-ply,SBD,M
Boys,67.13,DQ,Eric Gaona,PSJA Memorial,59.96,188.24,,,,Single-ply,SBD,M
Boys,74.84,1,Elvis Benitez,San Antonio East Central,67.22,222.26,145.15,222.26,589.67,Single-ply,SBD,M
Boys,67.13,2,Jade Haney,Port Lavaca Calhoun,66,215.46,124.74,238.14,578.33,Single-ply,SBD,M
Boys,67.13,3,Jonathan Pena,Laredo United South,65.32,219.99,136.08,219.99,576.06,Single-ply,SBD,M
Boys,67.13,4,Nathan Ruiz,San Antonio East Central,65.77,192.78,142.88,231.33,566.99,Single-ply,SBD,M
Boys,67.13,5,Modesto Martinez,Victoria West,65.95,226.8,113.4,213.19,553.38,Single-ply,SBD,M
Boys,67.13,6,Samuel Navarro,Beeville Jones,65.54,222.26,122.47,206.38,551.11,Single-ply,SBD,M
Boys,67.13,7,Damian Cisneros,Gregory-Portland,65.73,204.12,117.93,222.26,544.31,Single-ply,SBD,M
Boys,67.13,8,Marek Caleb,Victoria West,67.09,204.12,113.4,210.92,528.44,Single-ply,SBD,M
Boys,67.13,9,Toby Torres,San Benito,65.14,185.97,115.67,208.65,510.29,Single-ply,SBD,M
Boys,74.84,DQ,Carlos Grimaldo,Brownsville Hanna,67.31,,,,,Single-ply,SBD,M
Boys,74.84,1,Josh Moreno,Comal Canyon,74.21,249.48,165.56,226.8,641.83,Single-ply,SBD,M
Boys,74.84,2,Christopher Godoy,Brownsville Rivera,72.98,235.87,136.08,260.82,632.76,Single-ply,SBD,M
Boys,74.84,3,James Bain,Corpus Christi Tuloso-Midway,73.75,244.94,133.81,254.01,632.76,Single-ply,SBD,M
Boys,82.1,4,Jared Garcia,Corpus Christi Calallen,74.89,217.72,142.88,249.48,610.08,Single-ply,SBD,M
Boys,74.84,5,Tristan Pelitire,Beeville Jones,74.39,222.26,163.29,217.72,603.28,Single-ply,SBD,M
Boys,74.84,DQ,Miguel Salazar,Corpus Christi Tuloso-Midway,72.57,,,,,Single-ply,SBD,M
Boys,74.84,DQ,Christian Salazar,Corpus Christi Tuloso-Midway,72.3,219.99,138.35,,,Single-ply,SBD,M
Boys,74.84,DQ,Bucky Barrera,Edcouch-Elsa,73.53,,,,,Single-ply,SBD,M
Boys,74.84,DQ,Felix Tidaro,Weslaco,73.48,,,,,Single-ply,SBD,M
Boys,74.84,DQ,Bryan Sanchez,Weslaco East,74.12,,,,,Single-ply,SBD,M
Boys,74.84,DQ,Miguel Mariscal,Edcouch-Elsa,74.57,226.8,156.49,,,Single-ply,SBD,M
Boys,82.1,1,Ben Navarrez,Edcouch-Elsa,82.1,278.96,158.76,285.76,723.48,Single-ply,SBD,M
Boys,82.1,2,Raynard Taylor,Comal Canyon,81.01,258.55,163.29,254.01,675.85,Single-ply,SBD,M
Boys,82.1,3,Javi Cruz,Los Fresnos,79.74,235.87,129.27,263.08,628.23,Single-ply,SBD,M
Boys,82.1,4,Diego Garcia,Edcouch-Elsa,79.56,249.48,131.54,231.33,612.35,Single-ply,SBD,M
Boys,82.1,5,Sergio Zuniga,San Antonio Southside,81.65,251.74,138.35,222.26,612.35,Single-ply,SBD,M
Boys,82.1,6,Ram Mendoza,Weslaco East,79.74,233.6,142.88,213.19,589.67,Single-ply,SBD,M
Boys,82.1,7,Miguel Herrera,Donna,79.79,244.94,145.15,195.04,585.13,Single-ply,SBD,M
Boys,82.1,8,Isaac Mendoza,San Antonio East Central,80.97,219.99,138.35,226.8,585.13,Single-ply,SBD,M
Boys,82.1,DQ,Victor Ramos,Laredo United South,81.1,235.87,,,,Single-ply,SBD,M
Boys,82.1,DQ,Roger Tapia,Brownsville Veterans Memorial,81.47,215.46,,,,Single-ply,SBD,M
Boys,89.81,1,Arnulfo Marin,Pharr Valley View,87.86,285.76,158.76,254.01,698.53,Single-ply,SBD,M
Boys,89.81,2,Agustin Morales,Weslaco East,89.09,251.74,145.15,244.94,641.83,Single-ply,SBD,M
Boys,89.81,3,Robert Trevino,Edcouch-Elsa,89.13,272.16,124.74,244.94,641.83,Single-ply,SBD,M
Boys,89.81,4,Jacob Flores,Beeville Jones,88.63,256.28,154.22,226.8,637.3,Single-ply,SBD,M
Boys,89.81,5,Aaron Zapata,Los Fresnos,88.45,244.94,129.27,235.87,610.08,Single-ply,SBD,M
Boys,89.81,6,Noe Gonzalez,Laredo United South,89.22,231.33,136.08,242.67,610.08,Single-ply,SBD,M
Boys,89.81,7,JJ Barrientes,Brownsville Hanna,86.27,254.01,145.15,204.12,603.28,Single-ply,SBD,M
Boys,89.81,DQ,Warren Oaks,Alice,86.27,,,,,Single-ply,SBD,M
Boys,89.81,DQ,Jonathan Vela,Roma,89.09,233.6,,,,Single-ply,SBD,M
Boys,89.81,DQ,Matt Ritch,San Antonio East Central,88.86,290.3,176.9,244.94,,Single-ply,SBD,M
Boys,99.79,1,Blade Bronstad,Corpus Christi Calallen,97.75,288.03,151.95,265.35,705.34,Single-ply,SBD,M
Boys,99.79,2,Jacob Alaniz,Brownsville Veterans Memorial,98.47,272.16,165.56,258.55,696.26,Single-ply,SBD,M
Boys,99.79,3,Matthew Dickson,Corpus Christi Tuloso-Midway,93.35,258.55,165.56,260.82,684.92,Single-ply,SBD,M
Boys,99.79,4,John Rivera,Alice,99.52,276.69,172.37,233.6,682.66,Single-ply,SBD,M
Boys,99.79,5,Marco Banda,Laredo Nixon,95.3,265.35,176.9,238.14,680.39,Single-ply,SBD,M
Boys,99.79,6,Trevor Luckemeyer,Comal Canyon,94.26,265.35,138.35,254.01,657.71,Single-ply,SBD,M
Boys,99.79,7,Jose Flores #2,Laredo Cigarroa,97.84,249.48,161.03,247.21,657.71,Single-ply,SBD,M
Boys,99.79,8,Faustino Saldana,PSJA Southwest,97.34,281.23,147.42,215.46,644.1,Single-ply,SBD,M
Boys,99.79,DQ,Joshua Garza,San Antonio East Central,97.43,231.33,185.97,,,Single-ply,SBD,M
Boys,99.79,DQ,Angel Mercado,Donna,98.93,,,,,Single-ply,SBD,M
Boys,109.77,1,Jeremy Chamberlain,San Antonio East Central,108.14,303.91,195.04,299.37,798.32,Single-ply,SBD,M
Boys,109.77,2,Dakota Cootsy,Corpus Christi Calallen,107.95,324.32,185.97,285.76,796.05,Single-ply,SBD,M
Boys,109.77,3,Andres Arvizu,Alice,107.09,285.76,165.56,263.08,714.41,Single-ply,SBD,M
Boys,109.77,4,Max Flores,Laredo Alexander,108.41,281.23,172.37,254.01,707.6,Single-ply,SBD,M
Boys,109.77,5,Kevin Trevino,PSJA North,105.87,263.08,163.29,258.55,684.92,Single-ply,SBD,M
Boys,109.77,6,Caesar Soto,San Antonio East Central,106.5,294.84,170.1,217.72,682.66,Single-ply,SBD,M
Boys,109.77,7,Matt Ramirez,Victoria West,108.5,272.16,158.76,233.6,664.51,Single-ply,SBD,M
Boys,109.77,DQ,German Lopez,Weslaco East,108.86,,,,,Single-ply,SBD,M
Boys,109.77,DQ,Josh Mohandas,Mission Sharyland,108.32,249.48,161.03,,,Single-ply,SBD,M
Boys,124.74,1,Alex Briseno,Brownsville Rivera,121.52,322.05,204.12,274.42,800.59,Single-ply,SBD,M
Boys,124.74,2,Josue Garzoria,Los Fresnos,120.61,274.42,190.51,265.35,730.28,Single-ply,SBD,M
Boys,124.74,3,Gabriel Rodriguez,Edcouch-Elsa,121.38,317.51,192.78,219.99,730.28,Single-ply,SBD,M
Boys,124.74,4,Keith Mora,Mission Sharyland,121.88,312.98,170.1,226.8,709.87,Single-ply,SBD,M
Boys,124.74,5,Jesse Guzman,Brownsville Veterans Memorial,115.71,299.37,161.03,242.67,703.07,Single-ply,SBD,M
Boys,124.74,6,D'Antre Smith,Seguin,123.92,281.23,161.03,242.67,684.92,Single-ply,SBD,M
Boys,124.74,7,Carlos Sanchez,Laredo United South,123.74,283.5,142.88,249.48,675.85,Single-ply,SBD,M
Boys,124.74,8,Gustavo Diaz,Laredo Alexander,119.2,285.76,176.9,204.12,666.78,Single-ply,SBD,M
Boys,124.74,9,Jose Juarez #5,Weslaco,116.44,263.08,158.76,242.67,664.51,Single-ply,SBD,M
Boys,124.74,DQ,Daniel De Leon,San Antonio East Central,112.35,292.57,142.88,,,Single-ply,SBD,M
Boys,124.74+,1,Rudy Flores,Laredo United South,141.79,356.07,226.8,299.37,882.24,Single-ply,SBD,M
Boys,124.74+,2,Jose Limon,Los Fresnos,153.4,335.66,165.56,274.42,775.64,Single-ply,SBD,M
Boys,124.74+,3,Sergio Morales,Weslaco East,148.78,274.42,185.97,288.03,748.43,Single-ply,SBD,M
Boys,124.74+,4,Alec Gonzalez,San Antonio East Central,134.76,283.5,183.7,258.55,725.75,Single-ply,SBD,M
Boys,124.74+,5,Erik Ortega,Rio Grande City,143.15,315.25,156.49,254.01,725.75,Single-ply,SBD,M
Boys,124.74+,6,Charest Inman,Castroville Medina Valley,151.55,288.03,197.31,240.4,725.75,Single-ply,SBD,M
Boys,124.74+,7,Joseph Peña #1,San Antonio Holy Cross,147.15,333.39,165.56,210.92,709.87,Single-ply,SBD,M
Boys,124.74+,DQ,Bobby Limon,Port Lavaca Calhoun,145.83,285.76,201.85,,,Single-ply,SBD,M
Boys,124.74+,DQ,Rick Hinojosa,Mercedes,134.44,276.69,192.78,,,Single-ply,SBD,M
Boys,124.74+,DQ,Drew Kirkpatrick,Uvalde,139.21,,,,,Single-ply,SBD,M
