Sex,Equipment,Name,Age,Division,BodyweightKg,WeightClassKg,Squat1Kg,Squat2Kg,Squat3Kg,Squat4Kg,Best3SquatKg,Bench1Kg,Bench2Kg,Bench3Kg,Bench4Kg,Best3BenchKg,Deadlift1Kg,Deadlift2Kg,Deadlift3Kg,Deadlift4Kg,Best3DeadliftKg,TotalKg,Place,Event,Country
M,Wraps,Aaron Moody,30,M_OCR_WPC,,,,,,,,,,,,,,,,,,,NS,SBD,UK
M,Single-ply,Abdelrahman Gaber Sayed,32,M_OES_WPC,,,,,,,,,,,,,,,,,,,NS,SBD,Egypt
M,Wraps,Abdelrahman Gaber Sayed,32,M_OCR_WPC,,,,,,,,,,,,,,,,,,,NS,SBD,Egypt
M,Multi-ply,Adam Zevchik,24,M_OEM_WPC,74.4,75,280,-325,-325,,280,60,195,-212.5,,195,182.5,272.5,-282.5,,272.5,747.5,1,SBD,USA
M,Raw,Adrian Zwaan,81,M_MR_9_WPC,84,90,,,,,,,,,,,135,145,,,145,145,1,D,Australia
M,Wraps,Adrian Zwaan,81,M_MCR_9_WPC,84.7,90,85,90.5,95,,95,65,70,-75,,70,140,150,,,150,315,1,SBD,Australia
M,Raw,Adrians Upenieks,16,M_TR_2_WPC,113.7,125,190,200,217.5,-225,217.5,120,125,130,-135,130,240,250,255,,255,602.5,1,SBD,Latvia
M,Wraps,Ahmed Abdalla,32,M_OCR_WPC,,,,,,,,,,,,,,,,,,,NS,SBD,Egypt
M,Raw,Ahmed Adawi Faragalla Mahmoud,39,M_OR_WPC,82.2,82.5,220,230,237.5,,237.5,185,190,-195,,190,235,245,255,,255,682.5,1,SBD,Egypt
M,Single-ply,Ahmed Mohamed Abdalla,32,M_OES_WPC,,,,,,,,,,,,,,,,,,,NS,SBD,Egypt
M,Wraps,Aiden Pattison,19,M_TCR_3_WPC,,,,,,,,,,,,,,,,,,,NS,SBD,UK
M,Wraps,Aki Tiainen,,M_MCR_2_WPC,,,,,,,,,,,,,,,,,,,NS,SBD,Finland
M,Raw,Aldis Eglītis,58,M_MR_4_WPC,80.4,82.5,130,135,142.5,,142.5,100,105,-107.5,,105,160,170,180,,180,427.5,1,SBD,Latvia
M,Raw,Aleksander Zaitsev,39,M_OR_WPC,119,125,-300,300,320,,320,200,210,220,,220,300,320,330,,330,870,2,SBD,Russia
M,Raw,Aleksandr Antropov,50,M_MR_3_WPC,74.3,75,,,,,,160,167.5,172.5,,172.5,,,,,,172.5,1,B,Russia
M,Raw,Aleksandr Burlakov,,M_MR_6_WPC,,,,,,,,,,,,,,,,,,,NS,B,Russia
M,Raw,Aleksandr Talerov,36,M_OR_WPC,81.6,82.5,225,240,-247.5,,240,137.5,142.5,-145,,142.5,245,260,270,,270,652.5,2,SBD,Russia
M,Raw,Aleksei Ermakov,46,M_MR_2_WPC,138,140,,,,,,170,185,200,,200,,,,,,200,1,B,Russia
M,Wraps,Aleksey Ermakov,46,M_MCR_2_WPC,136.4,140,230,260,280,,280,180,192.5,-202.5,,192.5,230,260,275,,275,747.5,1,SBD,Russia
M,Raw,Aleksi Hiissa,25,M_OR_WPC,99.4,100,,,,,,,,,,,245,-255,-257.5,,245,245,2,D,Finland
M,Raw,Alex Thompson-Carse,17,M_TR_2_WPC,90.9,100,175,-195,195,,195,105,112.5,117.5,,117.5,190,215,227.5,,227.5,540,1,SBD,UK
F,Raw,Alexandra Gorbacheva,15,F_TR_1_WPC,54.6,56,,,,,,45,-50,-50,,45,,,,,,45,1,B,Russia
M,Raw,Alexey Monin,48,M_MR_2_WPC,87.6,90,-145,145,150,,150,100,105,110,,110,175,185,200,,200,460,1,SBD,Russia
M,Raw,Altanbagana Sharavdorj,29,M_OR_WPC,99.8,100,220,235,245,,245,200,210,-215,,210,230,245,255,,255,710,2,SBD,Mongolia
M,Raw,Altanbagana Sharavdorj,29,M_OR_WPC,97.7,100,,,,,,200,-212.5,212.5,,212.5,,,,,,212.5,2,B,Mongolia
F,Raw,Amina Boulahna,28,F_OR_WPC,73.8,75,140,150,155,,155,90,95,100,,100,185,200,210,,210,465,1,SBD,Finland
F,Raw,Amina Boulahna,28,F_OR_WPC,74.5,75,,,,,,,,,,,185,200,-215.5,,200,200,1,D,Finland
F,Raw,Amina Boulahna,28,F_OR_WPC,74.5,75,,,,,,90,95,102.5,,102.5,,,,,,102.5,3,B,Finland
M,Wraps,Amir Mohamed Sayed Abdou,20,M_JCR_WPC,98.2,100,315,327.5,-335,,327.5,172.5,177.5,-180,,177.5,285,292.5,295,322.5,295,800,1,SBD,Egypt
M,Wraps,Amir Mohamed Sayed Abdou,20,M_OCR_WPC,98.2,100,315,327.5,-335,,327.5,172.5,177.5,-180,,177.5,285,292.5,295,,295,800,2,SBD,Egypt
M,Single-ply,Amir Mohamed Sayed Abdou,20,M_OES_WPC,,,,,,,,,,,,,,,,,,,NS,SBD,Egypt
F,Wraps,Amra Halilovic,26,F_OCR_WPC,80.5,82.5,130,140,155,,155,50,-60,65,,65,140,150,-160,,150,370,1,SBD,Finland
M,Raw,Andrei Kabantseff,42,M_MR_1_WPC,104.9,110,,,,,,145,165,175,,175,,,,,,175,2,B,Estonia
M,Single-ply,Andrei Kabantseff,42,M_MES_1_WPC,105,110,,,,,,180,187.5,200,,200,,,,,,200,2,B,Spain
M,Wraps,Andrzej Roszkowski,38,M_OCR_WPC,,,,,,,,,,,,,,,,,,,NS,SBD,UK
M,Raw,Andy Richon,19,M_TR_3_WPC,109.1,110,,,,,,,,,,,300,315.5,,,315.5,315.5,1,D,France
M,Wraps,Andy Richon,19,M_TCR_3_WPC,113,125,200,240,-260,,240,140,-155,-155,,140,-300,300,320.5,-325,320.5,700.5,1,SBD,France
F,Wraps,Angelica Anastasiou,28,F_OCR_WPC,65.7,67.5,110,-120,130,,130,65,72.5,-77.5,,72.5,130,140,-150,,140,342.5,2,SBD,Finland
F,Raw,Anna Khudayarov,31,F_OCR_WPC,90.1,90+,187.5,202.5,212.5,,212.5,125,135,142.5,,142.5,190,207.5,220,,220,575,1,SBD,Finland
F,Multi-ply,Anne Rajala,44,F_MEM_1_WPC,68.9,75,,,,,,110,-120,-122.5,,110,,,,,,110,1,B,Finland
M,Wraps,Antti Kousa,45,M_MCR_2_WPC,108.9,110,220,235,250,,250,110,115,-120,,115,200,215,225,,225,590,2,SBD,Finland
M,Multi-ply,Antti Kousa,,M_MEM_2_WPC,,,,,,,,,,,,,,,,,,,NS,D,Finland
M,Wraps,Antti Pimiä,,M_OCR_WPC,,,,,,,,,,,,,,,,,,,NS,SBD,Finland
M,Wraps,Antti Pirttijärvi,23,M_JCR_WPC,107,110,285,-300,300,,300,155,165,-172.5,,165,270,290,-295,,290,755,1,SBD,Finland
F,Single-ply,Anzhelika Varsovskaia,45,F_MES_2_WPC,57.8,60,,,,,,,,,,,90,-100,100,,100,100,1,D,Russia
M,Wraps,Ari Salmi,48,M_MCR_2_WPC,85.7,90,150,-160,160,,160,105,-115,-115,,105,160,170,-177.5,,170,435,3,SBD,Finland
M,Raw,Ariubaatar Sharavdorj,39,M_OR_WPC,92.3,100,,,,,,,,,,,240,255,257.5,,257.5,257.5,1,D,Mongolia
M,Raw,Ariunbaatar Sharavdorj,37,M_OR_WPC,89.9,90,205,215,222.5,,222.5,155,-160,-160,,155,250,,,,250,627.5,4,SBD,Mongolia
M,Raw,Arran Sullivan,29,M_OR_WPC,107.5,110,270,-282.5,-282.5,,270,175,-182.5,182.5,,182.5,270,285,-290,,285,737.5,3,SBD,UK
M,Raw,Arto Selkee,58,M_MR_4_WPC,73.9,75,,,,,,,,,,,175,187.5,195,,195,195,1,D,Finland
M,Raw,Arttu Karttunen,22,M_JR_WPC,99.1,100,,,,,,200,-212.5,215,,215,,,,,,215,1,B,Finland
M,Single-ply,Arttu Wahlström,33,M_OES_WPC,88.1,90,,,,,,230,240,-250,,240,,,,,,240,1,B,Finland
M,Raw,Asko Karu,27,M_OR_WPC,143.8,140+,,,,,,,,,,,390,-400,-405.5,,390,390,1,D,Estonia
M,Raw,Atte Akkanen,51,M_MR_3_WPC,86.1,90,,,,,,150,-152.5,152.5,,152.5,,,,,,152.5,1,B,Finland
M,Raw,Attila Gembiczki,32,M_OR_WPC,80.7,82.5,,,,,,197.5,205,-212.5,,205,,,,,,205,2,B,Hungary
F,Wraps,Aya Sowilam Abbas Sowilam,18,F_OCR_WPC,68.3,75,140,150,-160,,150,-75,75,-77.5,,75,125,132.5,140,,140,365,3,SBD,Egypt
F,Single-ply,Aya Sowilam Abbas Sowilam,18,F_OES_WPC,,,,,,,,,,,,,,,,,,,NS,SBD,Egypt
M,Wraps,Bassem Yousri Elsayed,33,M_OCR_WPC,,,,,,,,,,,,,,,,,,,NS,SBD,Egypt
M,Single-ply,Bassem Yousri Elsayed,33,M_OES_WPC,,,,,,,,,,,,,,,,,,,NS,SBD,Egypt
M,Raw,Ben Walsh,,M_OR_WPC,,,,,,,,,,,,,,,,,,,NS,B,Ireland
F,Wraps,Bénédicte LePanse,41,F_OCR_WPC,50.2,52,110,120,130,,130,60,65,-70,,65,110,120,130,,130,325,1,SBD,France
M,Raw,Benjamin Varvas,15,M_TR_1_WPC,59,60,110,120,130,,130,65,70,-75,,70,120,130,145,-160.5,145,345,1,SBD,Finland
M,Wraps,Bill Harnett,48,M_MCR_2_WPC,98.3,100,250,270,285,,285,130,140,-147.5,,140,255,270,282.5,,282.5,707.5,1,SBD,Australia
M,Raw,Billy Haavisto,54,M_MR_3_WPC,105.1,110,190,210,220,,220,160,170,-180,,170,-240,240,255,,255,645,1,SBD,Finland
M,Raw,Billy Haavisto,54,M_MR_3_WPC,106,110,,,,,,160,170,-175,,170,,,,,,170,2,B,Finland
F,Raw,Boel Hansson,51,F_MR_3_WPC,54.6,56,85,95,102.5,,102.5,50,-55,-55,,50,110,125,142.5,,142.5,295,1,SBD,Sweden
M,Raw,Boris Laishin,69,M_MR_6_WPC,,,,,,,,,,,,,,,,,,,NS,B,Israel
M,Raw,Bruno Ricardo Ruela Alves,30,M_OR_WPC,115.4,125,,,,,,230,-235,,,230,,,,,,230,2,B,Portugal
M,Single-ply,Burkhard Steffen,69,M_MES_6_WPC,70.2,75,,,,,,,,,,,120,130,140,,140,140,1,D,Germany
M,Multi-ply,Byrbotten Morten Andreassen,37,M_OEM_WPC,106.5,110,-375,-375,-375,,,,,,,,,,,,,,DQ,SBD,Norway
M,Single-ply,Callum Rollo,37,M_OES_WPC,89.9,90,-290,-290,-290,,,,,,,,,,,,,,DQ,SBD,UK
M,Single-ply,Callum Rollo,37,M_OES_WPC,95.4,100,,,,,,185,-205,-205,,185,,,,,,185,2,B,UK
F,Raw,Camille Fonteneau,25,F_OR_WPC,66.9,67.5,130,-140,-140,,130,67.5,-72.5,72.5,,72.5,135,150,-157.5,,150,352.5,4,SBD,France
M,Raw,Chakhar Tumurbaatar,45,M_MR_2_WPC,74.6,75,140,150,160,,160,150,-165,167.5,,167.5,190,-215,,,190,517.5,1,SBD,Mongolia
M,Wraps,Chakhar Tumurbaatar,45,M_MCR_2_WPC,,,,,,,,,,,,,,,,,,,NS,SBD,Mongolia
M,Wraps,Christopher Park,22,M_JCR_WPC,106.7,110,-230,230,-242.5,,230,-135,135,140,,140,275,290,300,,300,670,2,SBD,UK
M,Wraps,Cyril Diago,27,M_OCR_WPC,74.1,75,252.5,265,-272.5,,265,147.5,-155,-157.5,,147.5,250,260,-270.5,,260,672.5,1,SBD,France
M,Single-ply,Daljit Singh,40,M_MES_1_WPC,86.8,90,-260,260,-300,,260,130,140,-150,,140,225,235,245,-260.5,245,645,2,SBD,India
M,Wraps,Daniel Boros,14,M_TCR_1_WPC,61.5,67.5,-110,120,130,,130,47.5,52.5,-55,,52.5,130,140,-150,,140,322.5,1,SBD,Australia
M,Raw,Danil Bezdetnov,20,M_JR_WPC,107.7,110,275,285,-290,,285,180,187.5,192.5,,192.5,265,275,280,,280,757.5,2,SBD,Russia
M,Wraps,Darren Walker,50,M_MCR_3_WPC,96.1,100,215,230,237.5,,237.5,150,160,-170,,160,260,277.5,285,-290,285,682.5,1,SBD,UK
M,Raw,Darryl Burns,40,M_MR_1_WPC,99.3,100,175,190,,,190,130,-140,140,,140,272.5,-287.5,-287.5,,272.5,602.5,1,SBD,Canada
M,Raw,Darryl Triance,43,M_MR_1_WPC,89.3,90,205,-212.5,-212.5,,205,130,140,-145,,140,250,260,-267.5,,260,605,1,SBD,UK
M,Raw,Darryl Triance,43,M_OR_WPC,89.3,90,205,-212.5,-212.5,,205,130,140,-145,,140,250,260,-267.5,,260,605,5,SBD,UK
M,Raw,Dave Rade,49,M_MR_2_WPC,92,100,,,,,,,,,,,270,292.5,-300,,292.5,292.5,1,D,Switzerland
M,Wraps,Dave Rade,49,M_MCR_2_WPC,94.5,100,220,240,250,,250,145,152.5,-157.5,,152.5,200,,,,200,602.5,3,SBD,Switzerland
M,Wraps,David Aldworth,36,M_OCR_WPC,110,110,-270,-270,270,,270,185,200,,,200,300,305,-312.5,,305,775,4,SBD,UK
M,Single-ply,David Campos,25,M_OES_WPC,81.9,82.5,-260,-260,260,,260,150,160,-170,,160,240,260,-270,,260,680,2,SBD,France
M,Raw,David Chevron,41,M_OR_WPC,124.8,125,,,,,,,,,,,325,330,-335,,330,330,2,D,France
M,Wraps,David Chevron,41,M_MCR_1_WPC,124.8,125,240,250,260,,260,150,-160,,,150,300,-330,,,300,710,1,SBD,France
M,Wraps,David Cross,39,M_OCR_WPC,123.7,125,290,-300,300,,300,165,175,-180,,175,270,285,-300,,285,760,4,SBD,South Africa
M,Raw,David Gibson #2,53,M_MR_3_WPC_Disabled,83.2,90,,,,,,140,145,-150,,145,,,,,,145,1,B,UK
M,Raw,David Gibson #2,53,M_MR_3_WPC,83.2,90,,,,,,140,145,-150,,145,,,,,,145,2,B,UK
M,Single-ply,David Gibson #2,53,M_MES_3_WPC_Disabled,83.3,90,,,,,,155,165,-176.5,,165,,,,,,165,1,B,UK
M,Single-ply,David Gibson #2,53,M_OES_WPC_Disabled,83.3,90,,,,,,155,165,-176.5,,165,,,,,,165,1,B,UK
M,Raw,David Morris #1,49,M_MR_2_WPC,164.3,140+,,,,,,190,215,-220,,215,,,,,,215,1,B,UK
M,Raw,David Morris #1,49,M_MR_2_WPC,164.3,140+,,,,,,,,,,,285,-305,-315,,285,285,1,D,UK
M,Wraps,David Summers,58,M_MCR_4_WPC,88.9,90,192.5,212.5,-222.5,,212.5,145,155,-162.5,,155,182.5,192.5,-197.5,,192.5,560,2,SBD,USA
M,Raw,Dickie Spiroff,50,M_MR_3_WPC,106,110,,,,,,215,222.5,-225,,222.5,,,,,,222.5,1,B,USA
M,Raw,Didovik Sergii,41,M_OR_WPC,107.2,110,,,,,,205,215,225,,225,,,,,,225,2,B,Ukraine
M,Multi-ply,Didovik Sergii,41,M_MEM_1_WPC,107.5,110,,,,,,-300,300,310,,310,,,,,,310,2,B,Ukraine
M,Multi-ply,Didovik Sergii,41,M_OEM_WPC,107.5,110,,,,,,-300,300,-310,,300,,,,,,300,2,B,Ukraine
M,Raw,Didovik Serhiy,41,M_MR_1_WPC,105.4,110,,,,,,-200,200,210,,210,,,,,,210,1,B,Ukraine
M,Raw,Dmitri Reims,27,M_OR_WPC,80,82.5,,,,,,200,210,215,,215,,,,,,215,1,B,France
M,Single-ply,Dmitrii Bubyr,38,M_OES_WPC,103.4,110,,,,,,220,230,240,,240,,,,,,240,2,B,Russia
M,Raw,Dmitrii Kheruvimov,27,M_OR_WPC,82,82.5,150,155,160,,160,102.5,110,115,,115,210,220,225,,225,500,6,SBD,Russia
M,Raw,Dmitrii Petrov,33,M_OR_WPC,,,,,,,,,,,,,,,,,,,NS,B,Russia
M,Single-ply,Dmitry Gorbachev,49,M_MES_2_WPC,116.1,125,,,,,,305,315,325,,325,,,,,,325,1,B,Russia
M,Single-ply,Dmytro Hosman,26,M_OES_WPC,124,125,,,,,,250,257.5,262.5,,262.5,,,,,,262.5,1,B,Ukraine
M,Raw,Dominique Nussbaum,48,M_MR_2_WPC,99.7,100,,,,,,195,202.5,-210,,202.5,,,,,,202.5,2,B,France
M,Wraps,Don Coates,58,M_MCR_4_WPC,89.9,90,200,215,-225,,215,150,160,-170,,160,240,260,-270,,260,635,1,SBD,UK
M,Wraps,Dylan Rollo,15,M_TCR_1_WPC,121.9,125,-120,-120,120,,120,55,62.5,70,,70,145,155,165,,165,355,1,SBD,South Africa
M,Raw,Eduard Khanjyan,34,M_OR_WPC,110,110,302.5,,,,302.5,220,-230,,,220,320,352.5,,,352.5,875,1,SBD,Finland
M,Wraps,Eduard Khanjyan,34,M_OCR_WPC,115.6,125,360,,,,360,200,220,,,220,350,-370,,,350,930,1,SBD,Finland
M,Multi-ply,Eemeli Salomäki,32,M_OEM_WPC,74.5,75,,,,,,160,-170,-180,,160,,,,,,160,1,B,Finland
M,Wraps,Eetu Sieppi,24,M_OCR_WPC,89.8,90,310,-330,-330,,310,190,200,,,200,310,-330,-330,,310,820,1,SBD,Finland
M,Single-ply,Ekramy Shalaby Ahmed Shalaby,39,M_OES_WPC,,,,,,,,,,,,,,,,,,,NS,SBD,Egypt
M,Raw,Ekramy Shalaby Ahmed Shalaby,39,M_OR_WPC,73,75,200,-220,220,,220,160,170,-175,,170,220,240,-265,,240,630,2,SBD,Egypt
M,Raw,Eldar Mammadov,41,M_OR_WPC,,,,,,,,,,,,,,,,,,,NS,SBD,Azerbaijan
M,Multi-ply,Eldar Mammadov,41,M_MEM_1_WPC,100,100,,,,,,,,,,,260,280,-300,,280,280,1,D,Azerbaijan
M,Multi-ply,Eldar Mammadov,41,M_MEM_1_WPC,100,100,,,,,,235,245,250,,250,,,,,,250,2,B,Azerbaijan
F,Raw,Elena Bondarchuk,39,F_OR_WPC,59.4,60,122.5,130,-135,,130,75,80,85,,85,140,152.5,160,,160,375,1,SBD,Russia
F,Raw,Elina Kulmala,44,F_MR_1_WPC,85.6,90,,,,,,110,120,127.5,,127.5,,,,,,127.5,1,B,Finland
F,Raw,Elisa Laurila,33,F_OR_WPC,65.5,67.5,130,135,137.5,,137.5,80,-85,-85,,80,160,165,170,,170,387.5,3,SBD,Finland
F,Single-ply,Emma Ylitalo-James,49,F_MES_2_WPC,89.4,90,,,,,,220,-227.5,-227.5,,220,,,,,,220,1,B,UK
F,Single-ply,Emma Ylitalo-James,49,F_OES_WPC,89.4,90,,,,,,220,-227.5,-227.5,,220,,,,,,220,1,B,UK
M,Single-ply,Eric Bar,50,M_MES_3_WPC,121.1,125,,,,,,215,220,-222.5,,220,,,,,,220,1,B,France
M,Multi-ply,Eric Platel,48,M_MEM_2_WPC,108.4,110,,,,,,-285,-300,-300,,,,,,,,,DQ,B,France
M,Raw,Eric Scott,30,M_OR_WPC,109,110,,,,,,195,205,-210,,205,,,,,,205,3,B,USA
M,Raw,Ernest Ruzin,82,M_MR_9_WPC,61.7,67.5,110,117.5,125,,125,40,45,-50,,45,145,152.5,,,152.5,322.5,1,SBD,Israel
M,Raw,Ernest Ruzin,82,M_MR_9_WPC,,,,,,,,,,,,,,,,,,,NS,D,Israel
M,Wraps,Erno Mäkilä,33,M_OCR_WPC,81.8,82.5,222.5,-232.5,-232.5,,222.5,130,-142.5,142.5,,142.5,225,235,-242.5,,235,600,4,SBD,Finland
F,Raw,Etelvina Neves,33,F_OR_WPC,66.8,67.5,,,,,,,,,,,195,200,-206,,200,200,1,D,Portugal
F,Wraps,Eunice Miranda,43,F_MCR_1_WPC,78.3,82.5,195,215,-230,,215,125,132.5,-142.5,,132.5,195,215,-221,,215,562.5,1,SBD,Portugal
M,Raw,Evgeni Kaminski,28,M_OR_WPC,95.9,100,225,230,-235,,230,140,-145,-145,,140,260,-270,,,260,630,5,SBD,Russia
M,Raw,Evgenii Kaminskii,28,M_OR_WPC,,,,,,,,,,,,,,,,,,,NS,B,Russia
M,Single-ply,Fabrice Lapiccirella,44,M_MES_1_WPC,82.2,82.5,,,,,,160,-172.5,-172.5,,160,,,,,,160,1,B,France
M,Raw,Famil Maharramov,37,M_OR_WPC,,,,,,,,,,,,,,,,,,,NS,B,Azerbaijan
M,Multi-ply,Famil Maharramov,37,M_OEM_WPC,130.5,140,,,,,,210,,,,210,,,,,,210,1,B,Azerbaijan
M,Single-ply,Famil Maharramov,37,M_OES_WPC,132,140,,,,,,-230,230,-250,,230,,,,,,230,1,B,Azerbaijan
F,Raw,Fanny Boudon,18,F_TR_3_WPC,59.6,60,,,,,,,,,,,125,135,-145.5,,135,135,1,D,France
F,Raw,Fanny Boudon,18,F_TR_3_WPC,59.6,60,,,,,,60,67.5,-70,,67.5,,,,,,67.5,1,B,France
M,Raw,Ferdinand Boisrond,35,M_OR_WPC,88.3,90,,,,,,170,180,185,,185,,,,,,185,4,B,France
M,Raw,Ferenc Mata,18,M_TR_3_WPC,96.2,100,,,,,,160,167.5,170,,170,,,,,,170,1,B,Hungary
F,Raw,Filipa Vicente,35,F_OR_WPC,50.9,52,100,102.5,-105,,102.5,65,-67.5,67.5,,67.5,120,130,135,,135,305,1,SBD,Portugal
M,Wraps,Flávio Martins,27,M_OCR_WPC,115.3,125,260,275,-285,,275,185,195,200,,200,280,290,300,,300,775,3,SBD,Portugal
M,Raw,Florent Romain,27,M_OR_WPC,81.3,82.5,-190,190,-200,,190,145,150,-152.5,,150,235,245,-255,,245,585,4,SBD,France
M,Raw,Florent Romain,27,M_OR_WPC,82.4,82.5,,,,,,,,,,,230,-250,-250,,230,230,2,D,France
M,Raw,Florindo Fiqueiredo,45,M_OR_WPC,96.8,100,,,,,,230,237.5,242.5,,242.5,,,,,,242.5,1,B,Portugal
M,Single-ply,Foroni Antonio,45,M_MES_2_WPC,109.2,110,,,,,,,,,,,305,320,333,,333,333,1,D,Italy
F,Raw,Francesca Dennis,23,F_JR_WPC,81.6,82.5,,,,,,,,,,,150,-160,-167.5,,150,150,1,D,UK
F,Raw,Francesca Dennis,23,F_JR_WPC,81.6,82.5,,,,,,,,,,,,,,,,,DQ,B,UK
M,Raw,Franceschi Andrea,21,M_JR_WPC,119.8,125,,,,,,140,155,165,,165,,,,,,165,1,B,Italy
M,Raw,Franceschi Claudio,27,M_OR_WPC,129.3,140,240,260,270,,270,160,-170,175,,175,265,285,-300,,285,730,2,SBD,Italy
M,Raw,François Abelafoe,36,M_OR_WPC,122.8,125,,,,,,-235,235,240,,240,,,,,,240,1,B,France
M,Wraps,Francois Kruger,23,M_JCR_WPC,86.8,90,200,210,215,,215,130,135,-140,,135,200,210,215,,215,565,1,SBD,South Africa
F,Raw,Gabrielle Martin,23,F_JR_WPC,73.5,75,-115,-115,115,,115,75,-80,-80,,75,155,-162.5,,,155,345,1,SBD,France
M,Wraps,Gariq Johnson,23,M_JCR_WPC,122,125,-255,-255,-255,,,,,,,,,,,,,,DQ,SBD,UK
M,Wraps,Gariq Johnson,23,M_OCR_WPC,122,125,-255,-255,-255,,,,,,,,,,,,,,DQ,SBD,UK
M,Multi-ply,Garry Gameiro Barros,36,M_OEM_WPC,115.9,125,,,,,,-300,-300,-300,,,,,,,,,DQ,B,France
F,Wraps,Gemma Marks,36,F_OCR_WPC,94.8,90+,205,-225,-225,,205,110,115,117.5,,117.5,190,-210,210,,210,532.5,2,SBD,UK
M,Wraps,George Napper,46,M_MCR_2_WPC,118.3,125,180,,,,180,160,170,-182.5,,170,230,250,-260,,250,600,1,SBD,Australia
M,Raw,Georgijs Stolerovs,49,M_MR_2_WPC,73.2,75,,,,,,135,142.5,-150,,142.5,,,,,,142.5,2,B,Latvia
M,Raw,Georgijs Stolerovs,49,M_MR_2_WPC,,,,,,,,,,,,,,,,,,,NS,D,Latvia
M,Multi-ply,Gergő Vakarcs,24,M_OEM_WPC,104.5,110,,,,,,-280,-280,-300,,,,,,,,,DQ,B,Hungary
M,Raw,Gergő Vakarcs,23,M_JR_WPC,102.6,110,,,,,,205,212.5,215,,215,,,,,,215,1,B,Hungary
M,Single-ply,Graeme Quirke,40,M_MES_1_WPC,88.2,90,290,300,-307.5,,300,200,210,-215,,210,220,240,-242.5,,240,750,1,SBD,Ireland
M,Single-ply,Graeme Quirke,40,M_OES_WPC,88.2,90,290,300,-307.5,,300,200,210,-215,,210,220,240,-242.5,,240,750,1,SBD,Ireland
M,Single-ply,Greg Reymond Roux,41,M_MES_1_WPC,109.4,110,,,,,,225,-235,-235,,225,,,,,,225,1,B,France
M,Multi-ply,Gregg Damminga,57,M_MEM_4_WPC,,,,,,,,,,,,,,,,,,,NS,SBD,USA
M,Raw,Grigori Rubin,83,M_MR_9_WPC,,,,,,,,,,,,,,,,,,,NS,B,Israel
M,Multi-ply,Grigori Rubin,83,M_MEM_9_WPC,,,,,,,,,,,,,,,,,,,NS,B,Israel
M,Raw,Hannu Koskinen,38,M_OR_WPC,123.6,125,,,,,,230,-240,,,230,,,,,,230,3,B,Finland
M,Wraps,Hanrè Leibbrandt,14,M_TCR_1_WPC,96.9,100,147.5,155,-175,,155,75.5,87.5,95,,95,170,185,195,,195,445,1,SBD,South Africa
M,Wraps,Henri Vauto,33,M_OCR_WPC,81.2,82.5,225,235,-250,,235,140,147.5,152.5,,152.5,230,245,-260,,245,632.5,3,SBD,Finland
M,Wraps,Herbert Czeplinski,20,M_JCR_WPC,,,,,,,,,,,,,,,,,,,NS,SBD,Germany
M,Wraps,Hermanus Fourie,26,M_OCR_WPC,78.4,82.5,190,195,205,,205,-105,110,-117.5,,110,-190,200,215,,215,530,5,SBD,South Africa
M,Wraps,Ian Williams #1,26,M_OCR_WPC,87.6,90,235,245,260,,260,155,165,170,,170,240,255,265,,265,695,3,SBD,UK
M,Multi-ply,Igors Marudins,43,M_MEM_1_WPC,81.9,82.5,,,,,,-185,185,-200,,185,,,,,,185,1,B,Latvia
M,Multi-ply,Ilkka Lukkarinen,31,M_OEM_WPC,138.7,140,,,,,,-390,-390,-390,,,,,,,,,DQ,B,Finland
F,Wraps,Inara Kuisele,35,F_OCR_WPC,109.7,90+,155,175,-190,,175,80,87.5,-92.5,,87.5,175,190,202.5,,202.5,465,3,SBD,UK
M,Raw,Ion Parshikov,24,M_OR_WPC,123.6,125,240,250,-257.5,,250,150,160,165,,165,-245,245,-250,,245,660,7,SBD,Russia
F,Wraps,Isabel Sanz Agueda,21,F_JCR_WPC,73.5,75,-160,160,170,,170,60,-70,-70,,60,180,-202.5,-202.5,,180,410,1,SBD,Spain
F,Raw,Isabelle Rivera,16,F_TR_2_WPC,86.4,90,152.5,165,170,,170,72.5,80,-82.5,,80,157.5,170,180,,180,430,1,SBD,USA
M,Multi-ply,Ismo Sahlsten,56,M_MEM_4_WPC,124,125,,,,,,245,250,262.5,,262.5,,,,,,262.5,1,B,Finland
F,Raw,Iulia Golubtcova,30,F_OR_WPC,54.7,56,,,,,,45,50,52.5,,52.5,,,,,,52.5,2,B,Russia
F,Raw,Iuliia Zhuk,33,F_OR_WPC,46.8,48,72.5,77.5,80,,80,35,37.5,40,,40,92.5,100,105,,105,225,1,SBD,Russia
M,Raw,Ivan Koniakhin,45,M_MR_2_WPC,74.6,75,,,,,,137.5,145,150,,150,,,,,,150,1,B,Russia
M,Raw,Ivan Solntsev,45,M_MR_2_WPC,98.3,100,,,,,,192.5,202.5,207.5,,207.5,,,,,,207.5,1,B,Russia
M,Single-ply,Ivan Solntsev,45,M_MES_2_WPC,99.4,100,,,,,,250,265,270,,270,,,,,,270,1,B,Russia
M,Single-ply,Ivan Solntsev,45,M_OES_WPC,99.4,100,,,,,,250,265,270,,270,,,,,,270,1,B,Russia
F,Wraps,Jade Medhurst,17,F_TCR_2_WPC,67.9,75,100,105,-107.5,,105,60,65,-70,,65,145,155,-162.5,,155,325,1,SBD,UK
M,Wraps,James Matthews-Williams,28,M_OCR_WPC,96.9,100,290,-305,307.5,,307.5,175,180,185,,185,260,270,280,,280,772.5,4,SBD,UK
M,Raw,Jan Lindqvist,49,M_MR_2_WPC,82.3,82.5,,,,,,150,160,165,,165,,,,,,165,1,B,Finland
M,Wraps,Jan-Erik Maantila,34,M_OCR_WPC,115.5,125,275,295,305,,305,205,215,-220,,215,280,-300,,,280,800,2,SBD,Finland
F,Raw,Janet Smith,50,F_MR_3_WPC,73.4,75,-135,135,-143,,135,87.5,-90.5,,,87.5,175,183,-195,,183,405.5,1,SBD,Australia
M,Wraps,Jani Antikainen,30,M_OCR_WPC,88,90,150,162.5,-175,,162.5,85,90,-92.5,,90,160,-172.5,175,,175,427.5,6,SBD,Finland
M,Multi-ply,Jani Lantiainen,33,M_OEM_WPC,96.1,100,,,,,,,,,,,310,332.5,-352.5,,332.5,332.5,1,D,Finland
M,Raw,Jani Vaskelainen,44,M_MR_1_WPC,74.7,75,,,,,,115,122.5,127.5,,127.5,,,,,,127.5,1,B,Finland
M,Raw,Jani Vaskelainen,44,M_MR_1_WPC,74.7,75,,,,,,,,,,,210,217.5,222.5,225.5,222.5,222.5,1,D,Finland
M,Raw,Jani Vepsäläinen,44,M_OR_WPC,97.6,100,,,,,,165,175,180,,180,,,,,,180,4,B,Finland
M,Raw,Janne Seppälä,38,M_OR_WPC,98.9,100,200,215,-230,,215,175,180,185,,185,255,-265,275,,275,675,4,SBD,Finland
M,Raw,Jari Hämölä,61,M_MR_5_WPC,115.3,125,,,,,,130,140,152.5,,152.5,,,,,,152.5,2,B,Finland
M,Wraps,Jari-Pekka Suominen,47,M_MCR_2_WPC,98.7,100,-240,-250,250,,250,175,180,-185,,180,230,-240,,,230,660,2,SBD,Finland
M,Single-ply,Jason Boggan,30,M_OES_WPC,104.5,110,,,,,,,,,,,240,275,-292.5,,275,275,2,D,Ireland
M,Raw,Jasu Harlin,,M_OR_WPC,,,,,,,,,,,,,,,,,,,NS,D,Finland
M,Wraps,Jean Routalammi,51,M_MCR_3_WPC,87.9,90,190,205,215,,215,135,145,147.5,,147.5,230,242.5,-250,,242.5,605,1,SBD,Finland
M,Raw,Jean-Luc Leon,30,M_OR_WPC,120.5,125,225,237.5,242.5,,242.5,175,-185,-185,,175,282.5,,,,282.5,700,6,SBD,France
M,Raw,Jean-Luc Leon,30,M_OR_WPC,119.6,125,,,,,,,,,,,310,-325,-330,,310,310,3,D,France
M,Raw,Jere Marttila,57,M_MR_4_WPC,101.1,110,,,,,,100,110,120,,120,,,,,,120,1,B,Finland
M,Raw,Jere Marttila,57,M_MR_4_WPC,101.1,110,,,,,,,,,,,170,190,200,,200,200,1,D,Finland
M,Wraps,Jere Marttila,57,M_MCR_4_WPC,103.5,110,140,160,170,,170,110,120,125,,125,180,200,205,,205,500,2,SBD,Finland
M,Wraps,Jérémy Babin,29,M_OCR_WPC,82.2,82.5,240,-250,255,,255,145,152.5,-157.5,,152.5,-250,250,-267.5,,250,657.5,2,SBD,France
F,Raw,Jerna Rytkönen,35,F_OR_WPC,69.9,75,,,,,,,,,,,160,170,-180,,170,170,3,D,Finland
M,Raw,Jeron Roberson,37,M_OR_WPC,58.8,60,,,,,,-110,,110,,110,,,,,,110,1,B,USA
M,Raw,Jerry Aittakari,25,M_OR_WPC,102.3,110,,,,,,,,,,,280,300,-315,,300,300,2,D,Finland
M,Wraps,Jerry Phukuile,,M_OCR_WPC,,,,,,,,,,,,,,,,,,,NS,SBD,South Africa
M,Wraps,Jim Ambrose,68,M_MCR_6_WPC,73.9,75,150,160,165,,165,105,111,112.5,,112.5,200,216,-222.5,,216,493.5,1,SBD,Australia
M,Wraps,Joaquim Morais,61,M_MCR_5_WPC,108.6,110,195,207.5,,,207.5,145,152.5,155,,155,200,220,227.5,,227.5,590,1,SBD,Portugal
M,Raw,Jocelyn Achille,42,M_MR_1_WPC,106.9,110,,,,,,,,,,,270,-290,-290,,270,270,1,D,France
M,Wraps,Joe Vayda,48,M_MCR_2_WPC,,,,,,,,,,,,,,,,,,,NS,SBD,USA
M,Raw,Johan Frisk,28,M_OR_WPC,99.3,100,212.5,222.5,227.5,,227.5,170,175,182.5,,182.5,-265,270,275,,275,685,3,SBD,Finland
M,Wraps,Johan Steenkamp,49,M_MCR_2_WPC,89.2,90,240,-260,-260,,240,140,150,160,,160,250,270,286,,286,686,1,SBD,South Africa
M,Raw,Johann Champ,32,M_OR_WPC,72.9,75,175,185,192.5,,192.5,140,147.5,-150,,147.5,200,212.5,225,,225,565,4,SBD,France
F,Raw,Johanna Bies,47,F_MR_2_WPC,61.2,67.5,,,,,,-120.5,120.5,125,,125,,,,,,125,1,B,Finland
F,Raw,Johanna Bies,47,F_OR_WPC,63.7,67.5,,,,,,110,117.5,125,,125,,,,,,125,1,B,Finland
F,Raw,Johanna Rasmussen,33,F_OR_WPC,71.5,75,,,,,,,,,,,155,165,180,,180,180,2,D,Finland
F,Raw,Johanna Rasmussen,33,F_OR_WPC,71.5,75,,,,,,95,97.5,102.5,,102.5,,,,,,102.5,2,B,Finland
F,Wraps,Johanna Rasmussen,33,F_OCR_WPC,70.1,75,135,140,145,,145,-97.5,97.5,-100,,97.5,155,-162.5,175,,175,417.5,2,SBD,Finland
M,Raw,Jonathan Galimon,27,M_OR_WPC,,,,,,,,,,,,,,,,,,,NS,B,France
M,Raw,Joni Laiho,26,M_OR_WPC,73.7,75,160,175,190,,190,135,142.5,150,,150,210,225,232.5,,232.5,572.5,3,SBD,Finland
M,Multi-ply,Joni Nikkari,,M_OEM_WPC,,,,,,,,,,,,,,,,,,,NS,SBD,Finland
M,Raw,Joni Oravasaari,37,M_OR_WPC,81.7,82.5,,,,,,135,145,-150,,145,,,,,,145,5,B,Finland
M,Wraps,Jooel Vatanen,28,M_OCR_WPC,108.7,110,340,365,380,,380,160,180,195,,195,300,325,-340,,325,900,1,SBD,Finland
M,Wraps,Joona Leppäjärvi,24,M_OCR_WPC,99.8,100,310,-330,-330,,310,170,-180,-180,,170,100,,,,100,580,7,SBD,Finland
M,Wraps,Joona Leppäjärvi,,M_JCR_WPC,,,,,,,,,,,,,,,,,,,NS,SBD,Finland
M,Wraps,Jorma Mäkeläinen,43,M_MCR_1_WPC,97.9,100,215,227.5,232.5,,232.5,155,-160,-160,,155,217.5,227.5,-235,,227.5,615,3,SBD,Finland
M,Raw,Jorma Mononen,45,M_MR_2_WPC,84.7,90,,,,,,130,135,-137.5,,135,,,,,,135,3,B,Finland
M,Raw,Jorma Mononen,45,M_MR_2_WPC,84.7,90,,,,,,,,,,,170,180,200,,200,200,2,D,Finland
M,Wraps,Jorma Mononen,45,M_MCR_2_WPC,81.5,82.5,135,150,160,,160,130,135,137.5,140,137.5,170,180,202.5,,202.5,500,1,SBD,Finland
M,Wraps,Josef Bejgrowicz,67,M_MCR_6_WPC,82.2,82.5,-150,150,-172.5,,150,75,80,,,80,200,220,225,,225,455,1,SBD,Poland
M,Raw,Juha Ojanen,,M_MR_4_WPC,,,,,,,,,,,,,,,,,,,NS,B,Finland
M,Multi-ply,Juha Suomalainen,47,M_MEM_2_WPC,103,110,,,,,,-242.5,-242.5,245,,245,,,,,,245,1,B,Finland
M,Raw,Juha Tuomainen,36,M_OR_WPC,106.8,110,,,,,,230,240,247.5,,247.5,,,,,,247.5,1,B,Finland
M,Raw,Jukka Mertaniemi,40,M_MR_1_WPC,95.7,100,,,,,,,,,,,225,235,-265,,235,235,2,D,Finland
F,Wraps,Julia Mills,41,F_MCR_1_WPC,67.5,67.5,175,192.5,-200,,192.5,100,107.5,112.5,,112.5,200,212.5,,,212.5,517.5,1,SBD,UK
M,Raw,Jussi Kananen,35,M_OR_WPC,155.8,140+,,,,,,180,192.5,-200,,192.5,,,,,,192.5,3,B,Finland
M,Single-ply,Jussi Kananen,35,M_OES_WPC,155.9,140+,,,,,,225,-240,-242.5,,225,,,,,,225,1,B,Finland
M,Multi-ply,Jussi Tuomainen,,M_MEM_1_WPC,,,,,,,,,,,,,,,,,,,NS,B,Finland
M,Raw,Jussi Tuomela,33,M_OR_WPC,115.4,125,,,,,,,,,,,250,275,-302.5,,275,275,4,D,Finland
F,Raw,Juulia Peura,24,F_OR_WPC,56,56,-87.5,-87.5,87.5,,87.5,62.5,67.5,70,,70,120,125,-130,,125,282.5,2,SBD,Finland
M,Raw,Jyrki Marttala,42,M_MR_1_WPC,71.4,75,,,,,,,,,,,205,215,220,,220,220,2,D,Finland
M,Raw,Jyrki Varvas,40,M_MR_1_WPC,109.4,110,260,275,285,,285,180,-192.5,-192.5,,180,280,290,300,,300,765,1,SBD,Finland
M,Raw,Jyrki Varvas,40,M_OR_WPC,109.4,110,260,275,285,,285,180,-192.5,-192.5,,180,280,290,300,,300,765,2,SBD,Finland
M,Raw,Kalle Ryhtä,42,M_OR_WPC,53.5,56,,,,,,60,65,-67.5,,65,,,,,,65,1,B,Finland
M,Multi-ply,Kalle Ylitalo-James,36,M_OEM_WPC,137.7,140,,,,,,-405,-410,-420.5,,,,,,,,,DQ,B,Finland
M,Raw,Kalle-Ville Korhonen,64,M_MR_5_WPC,98.9,100,100,-110,110,,110,100,-110,110,,110,180,190,200,,200,420,1,SBD,Finland
M,Raw,Kamil Gafarov,35,M_OR_WPC,89.6,90,,,,,,200,-210,-220,,200,,,,,,200,2,B,Azerbaijan
M,Wraps,Kandolph Tucker,50,M_MCR_3_WPC,95.7,100,-160,160,-180,,160,160,-170,,,160,200,215,-230,,215,535,2,SBD,USA
F,Wraps,Kara Shaw,31,F_OCR_WPC,73.3,75,115,122.5,130,,130,67.5,70,75,,75,140,150,-160,,150,355,4,SBD,UK
M,Wraps,Kari Heimonen,57,M_MCR_4_WPC,88.8,90,172.5,187.5,-192.5,,187.5,105,112.5,117.5,,117.5,182.5,190,195,,195,500,3,SBD,Finland
F,Wraps,Kat Becker,36,F_OCR_WPC,88.1,90,220,-235,235,,235,100,110,115,,115,210,220,-227.5,,220,570,1,SBD,Australia
F,Wraps,Kate Brady,30,F_OCR_WPC,73.6,75,122.5,127.5,-132.5,,127.5,57.5,60,-62.5,,60,127.5,132.5,-137.5,,132.5,320,6,SBD,Ireland
M,Raw,Kauko Viitala,80,M_MR_9_WPC,79.7,82.5,,,,,,,,,,,145,153,160,,160,160,1,D,Finland
M,Wraps,Keenan Freer,20,M_JCR_WPC,80.5,82.5,255,-265,,,255,140,147.5,,,147.5,275,-290,-290,,275,677.5,1,SBD,UK
M,Raw,Kent Spires,48,M_MR_2_WPC,88.3,90,,,,,,227.5,-238,,,227.5,,,,,,227.5,1,B,USA
M,Raw,Kent Spires,48,M_OR_WPC,88.7,90,,,,,,-227.5,227.5,-230,,227.5,,,,,,227.5,1,B,USA
F,Raw,Kerry Jones,32,F_OR_WPC,76.7,82.5,145,155,157.5,,157.5,80,85,-90,,85,160,165,-170,,165,407.5,1,SBD,UK
M,Wraps,Kevin Conway,61,M_MCR_5_WPC,98.3,100,150,170,-190,,170,80,90,-100,,90,200,225,245.5,,245.5,505.5,1,SBD,Australia
M,Multi-ply,Kevin Maher,58,M_MEM_4_WPC,106.9,110,,,,,,200,-212.5,212.5,,212.5,,,,,,212.5,1,B,UK
M,Wraps,Khaled Sakr,54,M_MCR_3_WPC,,,,,,,,,,,,,,,,,,,NS,SBD,Egypt
M,Single-ply,Khaled Sakr,54,M_MES_3_WPC,,140+,,,,,,-230,230,-250,,230,,,,,,230,1,B,Egypt
M,Raw,Kimmo Intke,,M_MR_1_WPC,,,,,,,,,,,,,,,,,,,NS,B,Finland
M,Raw,Klaus Renfors,46,M_MR_2_WPC,89,90,,,,,,155,162.5,167.5,,167.5,,,,,,167.5,2,B,Finland
M,Raw,Klaus Renfors,46,M_MR_2_WPC,89,90,,,,,,,,,,,160,187.5,202.5,,202.5,202.5,1,D,Finland
M,Raw,Kole Carter,57,M_MR_4_WPC,165,140+,,,,,,235,242.5,-250.5,,242.5,,,,,,242.5,1,B,USA
M,Multi-ply,Kostiantyn Chernov,34,M_OEM_WPC,89.4,90,,,,,,250,265,-275,,265,,,,,,265,1,B,Ukraine
F,Raw,Krista Pellikka,32,F_OR_WPC,73.4,75,125,-135,-145,,125,107.5,-117.5,,,107.5,170,-180,,,170,402.5,2,SBD,Finland
F,Raw,Kristiina Lehtotie,45,F_MR_2_WPC,94.4,90+,90,105,-115,,105,72.5,-77.5,-77.5,,72.5,135,142.5,-150,,142.5,320,1,SBD,Finland
M,Wraps,Krzysztof Grześkowiak,,M_OCR_WPC,,,,,,,,,,,,,,,,,,,NS,SBD,Poland
M,Multi-ply,Kurt Beech,29,M_OEM_WPC,91,100,-300,-300,300,,300,180,-190,-190,,180,280,295,,,295,775,2,SBD,UK
M,Raw,Kurt Schoula,66,M_MR_6_WPC,,,,,,,,,,,,,,,,,,,NS,B,Germany
M,Raw,Ladislav Beňo,,M_MR_3_WPC,,,,,,,,,,,,,,,,,,,NS,B,Slovakia
F,Wraps,Lauren Silverton,23,F_JCR_WPC,85.9,90,145,162.5,-170,,162.5,70,75,-80,,75,145,162.5,-175,,162.5,400,1,SBD,Scotland
M,Raw,Lauri Härkä,36,M_OR_WPC,124,125,-240,-240,240,,240,210,-220,-225,,210,260,280,-292.5,,280,730,4,SBD,Finland
M,Raw,Lauri Kautiainen,29,M_OR_WPC,71.1,75,,,,,,,,,,,235,-255,-255,,235,235,1,D,Finland
F,Raw,Lauriina Malinen,46,F_MR_2_WPC,67.5,67.5,110,122.5,-127.5,,122.5,60,65,67.5,,67.5,120,130,145.5,,145.5,335.5,1,SBD,Finland
F,Wraps,Leena Stålstedt,51,F_MCR_3_WPC,77.9,82.5,115,-120,120,,120,75,85,-90,,85,120,130,-140,,130,335,1,SBD,Finland
M,Raw,Leif Ojala,52,M_MR_3_WPC,65.9,67.5,,,,,,125,-135,-135,,125,,,,,,125,1,B,Finland
M,Wraps,Leon Der Van Berg,55,M_MCR_4_WPC,88.1,90,150,-175,,,150,140,152.5,-160,,152.5,-160,170,-190,,170,472.5,4,SBD,South Africa
M,Wraps,Lewis King,24,M_OCR_WPC,140.1,140+,340,-347.5,,,340,190,200,207.5,,207.5,277.5,,,,277.5,825,1,SBD,UK
F,Raw,Liudmila Pavlova,43,F_MR_1_WPC,54.7,56,,,,,,,,,,,110,115,120,,120,120,1,D,Russia
F,Raw,Liudmila Pavlova,43,F_MR_1_WPC,54.7,56,,,,,,67.5,-70,-72.5,,67.5,,,,,,67.5,1,B,Russia
F,Wraps,Liudmila Pavlova,43,F_MCR_1_WPC,55.6,56,100,110,-120,,110,65,67.5,70,,70,115,117.5,120,,120,300,1,SBD,Russia
M,Raw,Lonnie Dickinson,50,M_MR_3_WPC,155.8,140+,,,,,,240,257.5,267.5,,267.5,,,,,,267.5,1,B,USA
M,Raw,Lonnie Dickinson,50,M_OR_WPC,155,140+,,,,,,240,257.5,262.5,,262.5,,,,,,262.5,1,B,USA
M,Raw,Lotfi Slimani,26,M_OR_WPC,89.2,90,,,,,,,,,,,-250,255,270,,270,270,4,D,France
M,Single-ply,Lothar Schulze,69,M_MES_6_WPC,82.7,90,,,,,,,,,,,150,160,175,,175,175,1,D,Germany
M,Wraps,Luciano Sipione,39,M_OCR_WPC,108.7,110,-237.5,237.5,-242.5,,237.5,155,162.5,-170,,162.5,225,235,-242.5,,235,635,5,SBD,Italy
M,Raw,Luis Simões,38,M_OR_WPC,87.3,90,,,,,,,,,,,255,267.5,275,,275,275,3,D,Portugal
M,Raw,Luis Simões,38,M_OR_WPC,87.3,90,,,,,,180,185,190,,190,,,,,,190,3,B,Portugal
M,Wraps,Luis Simões,38,M_OCR_WPC,87,90,-210,-210,-210,,,,,,,,,,,,,,DQ,SBD,Portugal
M,Single-ply,Mahmoud Ahmed Faragalla,39,M_OES_WPC,,,,,,,,,,,,,,,,,,,NS,SBD,Egypt
M,Wraps,Mahmoud Ahmed Faragalla,39,M_OCR_WPC,,,,,,,,,,,,,,,,,,,NS,SBD,Egypt
F,Raw,Maiju Hilander,61,F_MR_5_WPC,72.8,75,,,,,,,,,,,155,160,-165,,160,160,1,D,Finland
F,Wraps,Maiju Hilander,61,F_MCR_5_WPC,73.4,75,100,110,-115,,110,-55,55,60,,60,155,160,-162.5,,160,330,1,SBD,Finland
M,Wraps,Maikel Sadek Abdelmalak,36,M_OCR_WPC,,,,,,,,,,,,,,,,,,,NS,SBD,Egypt
M,Single-ply,Maikel Sadek Abdelmalak,36,M_OES_WPC,,,,,,,,,,,,,,,,,,,NS,SBD,Egypt
M,Raw,Makinson Fleurime,30,M_OR_WPC,,,,,,,,,,,,,,,,,,,NS,B,France
M,Raw,Maks Larionov,,M_JR_WPC,,,,,,,,,,,,,,,,,,,NS,B,Finland
M,Raw,Maks Larionov,24,M_OR_WPC,90,90,,,,,,175,180,185,,185,,,,,,185,5,B,Finland
M,Raw,Marc Michalon,41,M_MR_1_WPC,98.1,100,,,,,,,,,,,260,275,282,,282,282,1,D,France
M,Wraps,Marc Michelon,41,M_MCR_1_WPC,97.9,100,255,270,282.5,,282.5,155,165,-170,,165,265,275,-285,,275,722.5,1,SBD,France
M,Raw,Marco Gelmini,23,M_JR_WPC,80.9,82.5,207.5,-220,-225,,207.5,140,147.5,150,,150,235,245,-252.5,,245,602.5,1,SBD,Italy
M,Raw,Marcus Young,55,M_MR_4_WPC,82,82.5,,,,,,125,132.5,-137.5,,132.5,,,,,,132.5,1,B,Finland
M,Multi-ply,Marcus Young,55,M_MEM_4_WPC,81.1,82.5,,,,,,160,170,-177.5,,170,,,,,,170,1,B,Finland
M,Single-ply,Marcus Young,55,M_MES_4_WPC,81.1,82.5,,,,,,155,165,175,,175,,,,,,175,1,B,Finland
F,Raw,Margaux Valentin,19,F_TR_3_WPC,65.7,67.5,,,,,,,,,,,130,-147.5,-147.5,,130,130,1,D,France
F,Wraps,Margaux Valentin,19,F_TCR_3_WPC,67.2,67.5,80,102.5,116,,116,45,55,-60.5,,55,132.5,-150.5,-150.5,,132.5,303.5,2,SBD,France
F,Wraps,Mari Jäntti,22,F_JCR_WPC,79,82.5,115,-125,-125,,115,55,60,-65,,60,135,140,-150,,140,315,2,SBD,Finland
F,Raw,Mariia Mostovaia,33,F_OR_WPC,54.8,56,,,,,,65,-67.5,67.5,,67.5,,,,,,67.5,1,B,Russia
F,Raw,Marinee Nahkala,28,F_OR_WPC,51.3,52,90,95,-100,,95,-40,40,-45,,40,120,130,135,,135,270,2,SBD,Finland
M,Raw,Mark Esch,51,M_MR_3_WPC,132.5,140,,,,,,-145,-145,-145,,,,,,,,,DQ,B,South Africa
M,Raw,Marko Masalin,33,M_OR_WPC,81.2,82.5,-160,170,180,,180,135,145,-150,,145,220,235,-245,,235,560,5,SBD,Finland
M,Raw,Marko Vesalainen,,M_OR_WPC,,,,,,,,,,,,,,,,,,,NS,B,Finland
M,Raw,Markus Auvinen,44,M_MR_1_WPC,87.1,90,170,-180,-180,,170,130,-135,-135,,130,-220,220,-230,,220,520,2,SBD,Finland
M,Raw,Markus Koivuniemi,48,M_MR_2_WPC,98.1,100,,,,,,,,,,,260,280,-295,,280,280,2,D,Finland
M,Single-ply,Marouane Baoufi,32,M_OES_WPC,103.1,110,,,,,,,,,,,275,290,-300,,290,290,1,D,France
M,Raw,Matias Hyttinen,,M_JR_WPC,,,,,,,,,,,,,,,,,,,NS,B,Finland
M,Raw,Matias Hyttinen,,M_OR_WPC,,,,,,,,,,,,,,,,,,,NS,B,Finland
M,Raw,Matteo Bozza,26,M_OR_WPC,88.2,90,-235,240,-250,,240,155,162.5,-167.5,,162.5,275,295,305,,305,707.5,2,SBD,Italy
F,Raw,Mayane Michalon,17,F_TR_2_WPC,50.1,52,,,,,,,,,,,85,95,-100,,95,95,1,D,France
F,Raw,Mia Vepsäläinen,46,F_OR_WPC,88.3,90,,,,,,105,112.5,-117.5,,112.5,,,,,,112.5,1,B,Finland
M,Raw,Michael Goeck,51,M_MR_3_WPC,108,110,180,195,210,,210,120,135,-142.5,,135,200,220,,,220,565,2,SBD,Germany
M,Raw,Michael Schrott,47,M_MR_2_WPC,126.8,140,270,300,307.5,,307.5,180,190,200,,200,270,292.5,,,292.5,800,1,SBD,Germany
M,Raw,Michael Schrott,47,M_OR_WPC,126.8,140,270,300,307.5,,307.5,180,190,200,,200,270,292.5,,,292.5,800,1,SBD,Germany
M,Wraps,Michał Marciniak,28,M_OCR_WPC,99.3,100,300,-315,-315,,300,190,195,-200,,195,-280,280,-305,,280,775,3,SBD,Poland
M,Raw,Miguel Borba,44,M_MR_1_WPC,87.7,90,,,,,,180,185,-190,,185,,,,,,185,1,B,Portugal
M,Raw,Mihail Rapoport,20,M_JR_WPC,81.1,82.5,,,,,,155,160,162.5,,162.5,,,,,,162.5,1,B,Latvia
M,Single-ply,Mihails Rekaikins,43,M_MES_1_WPC,98.6,100,,,,,,210,220,-230,,220,,,,,,220,1,B,Latvia
M,Single-ply,Miikka Heikkinen,,M_MES_1_WPC,,,,,,,,,,,,,,,,,,,NS,D,Finland
M,Raw,Mika Haapalainen,40,M_MR_1_WPC,88.7,90,,,,,,-165,175,-190,,175,,,,,,175,2,B,Finland
M,Raw,Mikhail Grinko,41,M_MR_1_WPC,112.9,125,,,,,,,,,,,150,170,,,170,170,1,D,Russia
M,Multi-ply,Mikhail Grinko,41,M_MEM_1_WPC,111.2,125,,,,,,,,,,,170,200,,,200,200,1,D,Russia
M,Raw,Mikko Lompolo,,M_OR_WPC,,,,,,,,,,,,,,,,,,,NS,D,Finland
M,Wraps,Mikko Malinen,,M_OCR_WPC,,,,,,,,,,,,,,,,,,,NS,SBD,Finland
M,Wraps,Mina Ebeed,36,M_OCR_WPC,,,,,,,,,,,,,,,,,,,NS,SBD,Egypt
M,Single-ply,Mina Ebeed,31,M_OES_WPC,,,,,,,,,,,,,,,,,,,NS,D,Egypt
F,Raw,Minna Paler,,F_MR_3_WPC,,,,,,,,,,,,,,,,,,,NS,D,Finland
F,Raw,Minna Paler,,F_MR_3_WPC,,,,,,,,,,,,,,,,,,,NS,B,Finland
F,Raw,Mira Mustonen,49,F_MR_2_WPC,75,75,,,,,,,,,,,192.5,202.5,,,202.5,202.5,1,D,Finland
F,Raw,Mira Mustonen,49,F_MR_2_WPC,75,75,,,,,,102.5,-105,105,,105,,,,,,105,1,B,Finland
M,Multi-ply,Miroslav Čaba,26,M_OEM_WPC,90,90,,,,,,200,232.5,237.5,,237.5,,,,,,237.5,2,B,Slovakia
M,Wraps,Mohamed Ibrahim Aboukahla,25,M_OCR_WPC,,,,,,,,,,,,,,,,,,,NS,SBD,Egypt
M,Multi-ply,Mohamed Elivabawa Mansour Sakr Khaled,54,M_MEM_3_WPC,116.4,125,170,-180,-180,,170,120,-130,-130,,120,140,-160,-160,,140,430,1,SBD,Egypt
M,Single-ply,Mohamed Ibrahim Aboukahla,25,M_OES_WPC,,,,,,,,,,,,,,,,,,,NS,SBD,Egypt
M,Multi-ply,Mohamed Elivabawa Mansour Sakr Khaled,54,M_MEM_3_WPC,116.3,125,,,,,,,,,,,-150,150,-160,,150,150,1,D,Egypt
M,Wraps,Mohamed Yasser Menaissy,21,M_OCR_WPC,,,,,,,,,,,,,,,,,,,NS,SBD,Egypt
M,Single-ply,Mohamed Said Mohamed,47,M_MES_2_WPC,124.3,125,250,300,325,,325,130,160,-170,,160,225,290,-315,,290,775,1,SBD,Egypt
M,Single-ply,Mohamed Said Mohamed,47,M_OES_WPC,124.3,125,250,300,325,,325,130,160,-170,,160,225,290,-315,,290,775,1,SBD,Egypt
M,Single-ply,Mohamed Yasser Menaissy,21,M_OES_WPC,,,,,,,,,,,,,,,,,,,NS,SBD,Egypt
M,Wraps,Mohammed Said,24,M_OCR_WPC,89.3,90,-240,250,265,,265,130,-140,150,,150,250,270,-277.5,,270,685,4,SBD,Egypt
F,Wraps,Monica Hofvind,22,F_JCR_WPC,80.7,82.5,127.5,-135,-135,,127.5,62.5,-67.5,-67.5,,62.5,135,-145,-145,,135,325,1,SBD,UK
M,Single-ply,Mostafa Hesham Mohamed,26,M_OES_WPC,,,,,,,,,,,,,,,,,,,NS,SBD,Egypt
M,Wraps,Mostafa Hesham Mohamed,26,M_OCR_WPC,,,,,,,,,,,,,,,,,,,NS,SBD,Egypt
F,Raw,Nadezhda Vlasova,37,F_OR_WPC,71.5,75,,,,,,125,130,-135,,130,,,,,,130,1,B,Russia
M,Raw,Natale Giancarlo,37,M_OR_WPC,95.9,100,,,,,,,,,,,-270,,,,,,DQ,D,Italy
M,Raw,Natale Giancarlo,37,M_OR_WPC,95.9,100,,,,,,167.5,175,180,,180,,,,,,180,3,B,Italy
M,Raw,Nico Viljakainen,16,M_TR_2_WPC,96.5,100,,,,,,,,,,,-185,-195,-202.5,,,,DQ,D,Finland
M,Raw,Nico Viljakainen,16,M_TR_2_WPC,96.5,100,,,,,,-120,120,-127.5,,120,,,,,,120,1,B,Finland
F,Raw,Nicola Goodwill,38,F_OR_WPC,99.8,90+,,,,,,,,,,,210,221.5,230,,230,230,1,D,UK
F,Raw,Nicola Goodwill,38,F_OR_WPC,99.8,90+,,,,,,-120,120,-142.5,,120,,,,,,120,1,B,UK
M,Single-ply,Nicolaas Bester,41,M_MES_1_WPC,80.4,82.5,200,210,220,,220,150,160,170,,170,200,225,240,,240,630,1,SBD,South Africa
M,Raw,Nijat Huseynov,30,M_OR_WPC,89.6,90,,,,,,,,,,,255,270,282.5,,282.5,282.5,1,D,Azerbaijan
M,Multi-ply,Nijat Huseynov,30,M_OEM_WPC,89.5,90,,,,,,220,230,-235,,230,,,,,,230,3,B,Azerbaijan
M,Raw,Niko Andersson,,M_OR_WPC,,,,,,,,,,,,,,,,,,,NS,D,Finland
M,Raw,Nikolai Fesaniuk,35,M_OR_WPC,124.1,125,330,355,-370,,355,190,205,215,,215,-340,340,-365,,340,910,1,SBD,Russia
M,Wraps,Nikolai Matannanov,67,M_MCR_6_WPC,81.6,82.5,120,140,160,,160,55,60,65,,65,-120,130,150,,150,375,2,SBD,Russia
M,Multi-ply,Nikolas Tóth,21,M_JEM_WPC,122.3,125,,,,,,,,,,,350,370,380.5,-400,380.5,380.5,1,D,Slovakia
M,Multi-ply,Nikolas Tóth,21,M_OEM_WPC,122.3,125,,,,,,,,,,,350,370,380.5,-400,380.5,380.5,1,D,Slovakia
M,Raw,Nikolas Tóth,21,M_JR_WPC,,,,,,,,,,,,,,,,,,,NS,D,Slovakia
M,Raw,Nikolay Beloded,29,M_OR_WPC,105.1,110,,,,,,200,-205,-207.5,,200,,,,,,200,4,B,Russia
M,Single-ply,Noora Singh,40,M_MES_1_WPC,76.3,82.5,-190,190,,,190,90,95,,,95,190,200,-210,,200,485,2,SBD,India
M,Wraps,Nuno Nobre,42,M_MCR_1_WPC,88.2,90,190,210,235,,235,140,150,-160,,150,220,235,245,,245,630,1,SBD,Portugal
F,Raw,Olga Baklykova,55,F_MR_4_WPC,75,75,,,,,,,,,,,145,155,172.5,,172.5,172.5,1,D,Russia
F,Raw,Olga Baklykova,55,F_MR_4_WPC,75,75,,,,,,110,115,117.5,,117.5,,,,,,117.5,1,B,Russia
F,Wraps,Olga Baklykova,55,F_MCR_4_WPC,73.3,75,-140,150,155,,155,110,115,-120,,115,150,160,,,160,430,1,SBD,Russia
M,Raw,Omar Ciaburri,39,M_OR_WPC,111.9,125,,,,,,,,,,,300,320,330,,330,330,1,D,Italy
M,Raw,Oskari Koljonen,,M_OR_WPC,,,,,,,,,,,,,,,,,,,NS,B,Finland
M,Multi-ply,Oskari Lehtinen,30,M_OEM_WPC,99.6,100,-400,420,-435,,420,275,285,292.5,,292.5,300,330,-350,,330,1042.5,1,SBD,Finland
M,Raw,Otto Doering,15,M_TR_1_WPC,79.9,82.5,122.5,-132.5,132.5,,132.5,80,87.5,-95,,87.5,160,170,-180,,170,390,1,SBD,Finland
M,Wraps,Owen Dowley,14,M_TCR_1_WPC,85.5,90,135,147.5,-161,,147.5,85,-96,96,-102.5,96,-160,160,-165,,160,403.5,1,SBD,Australia
F,Raw,Päivi Kaarto,42,F_MR_1_WPC,95.5,90+,160,172.5,175,,175,117.5,122.5,127.5,,127.5,200,220,225,,225,527.5,1,SBD,Finland
F,Raw,Päivi Kaarto,42,F_OR_WPC,95.5,90+,160,172.5,175,,175,117.5,122.5,127.5,,127.5,200,220,225,,225,527.5,1,SBD,Finland
M,Multi-ply,Pasi Koukkula,48,M_MEM_2_WPC,87.7,90,180,,,,180,60,,,,60,180,,,,180,420,1,SBD,Finland
M,Multi-ply,Pasi Koukkula,48,M_MEM_2_WPC,88.1,90,,,,,,,,,,,260,286,-300,,286,286,1,D,Finland
M,Raw,Pasi Mehtälä,46,M_MR_2_WPC,122.4,125,,,,,,190,-200,,,190,,,,,,190,2,B,Finland
M,Raw,Pasi Pohjola,41,M_MR_1_WPC,73.1,75,,,,,,110,-120,-120,,110,,,,,,110,2,B,Finland
M,Raw,Patrice Huver,56,M_MR_4_WPC,88.3,90,,,,,,132.5,140,142.5,,142.5,,,,,,142.5,2,B,France
M,Single-ply,Paul Morgan,46,M_MES_2_WPC,107.4,110,,,,,,-262.5,-270,-272.5,,,,,,,,,DQ,B,UK
M,Single-ply,Paul Morgan,46,M_OES_WPC,107.4,110,,,,,,-262.5,-270,-272.5,,,,,,,,,DQ,B,UK
M,Wraps,Paulo Santos #1,31,M_OCR_WPC,99.3,100,290,-310,310,,310,195,205,-210,,205,315,330,-335,,330,845,1,SBD,Portugal
M,Wraps,Pawel Pawlak,26,M_OCR_WPC,138.4,140,260,280,-300,,280,170,180,190,,190,290,-310,-310,,290,760,1,SBD,Slovakia
M,Raw,Pekka Anttila,54,M_MR_3_WPC,81,82.5,,,,,,,,,,,160,180,192.5,,192.5,192.5,1,D,Finland
M,Wraps,Pekka Anttila,54,M_MCR_3_WPC,81.8,82.5,-150,150,-162.5,,150,85,90,,,90,170,180,192.5,,192.5,432.5,1,SBD,Finland
M,Single-ply,Pekka Korhonen,,M_MES_7_WPC,,,,,,,,,,,,,,,,,,,NS,B,Finland
M,Single-ply,Pekka Korhonen,,M_MES_7_WPC,,,,,,,,,,,,,,,,,,,NS,B,
M,Multi-ply,Pekka Räihä,37,M_OEM_WPC,109.6,110,320,350,370,,370,-210,210,220,,220,290,310,-330,,310,900,1,SBD,Finland
M,Single-ply,Pentti Rimpi,52,M_OES_WPC,59.8,60,,,,,,,,,,,-130,130,-150,,130,130,1,D,Finland
M,Single-ply,Pentti Rimpi,52,M_MES_3_WPC,59.8,60,,,,,,100,105,-110,,105,,,,,,105,1,B,Finland
M,Single-ply,Pentti Rimpi,52,M_OES_WPC,59.8,60,,,,,,100,105,-110,,105,,,,,,105,1,B,Finland
F,Raw,Périnne Doumbia,29,F_OR_WPC,59.5,60,100,110,-115,,110,60,65,-67.5,,65,130,140,-145,,140,315,2,SBD,France
M,Raw,Perttu Nyberg,24,M_OR_WPC,72.9,75,,,,,,110,125,-135,,125,,,,,,125,1,B,Finland
M,Single-ply,Perttu Nyberg,24,M_OES_WPC,72.1,75,,,,,,130,135,-140,,135,,,,,,135,1,B,Finland
M,Raw,Peter Battakov,67,M_MR_6_WPC,97.2,100,,,,,,,,,,,170,205,-210,,205,205,1,D,Russia
M,Raw,Peter Diethalm,45,M_MR_2_WPC,123.9,125,,,,,,182.5,200,-205,,200,,,,,,200,1,B,Switzerland
M,Raw,Peter King #1,23,M_JR_WPC,80.6,82.5,180,190,200,,200,130,-140,,,130,240,255,-262.5,,255,585,2,SBD,UK
M,Multi-ply,Péter Mihály,61,M_MEM_5_WPC,162.7,140+,,,,,,100,200,-300,,200,,,,,,200,1,B,Slovakia
M,Multi-ply,Péter Mihály,61,M_OEM_WPC,162.7,140+,,,,,,100,200,-300,,200,,,,,,200,1,B,Slovakia
M,Raw,Peter Oram,65,M_MR_6_WPC,87.3,90,95,110,120,,120,67.5,-77.5,-77.5,,67.5,175,195,205,,205,392.5,1,SBD,UK
M,Wraps,Petr Battakov,67,M_MCR_6_WPC,97.1,100,-100,120,140,,140,70,-85,-85,,70,170,190,-200,,190,400,1,SBD,Russia
F,Wraps,Petra Blomvall,41,F_MCR_1_WPC,80.7,82.5,185,-205,210,,210,72.5,80,85,,85,200,215,222.5,,222.5,517.5,2,SBD,Finland
F,Raw,Petra Hiisiö,43,F_MR_1_WPC,55.4,56,110,-120,120,,120,55,-60,60,,60,130,140,150,-170,150,330,1,SBD,Finland
F,Raw,Petra Hiisiö,43,F_OR_WPC,55.4,56,110,-120,120,,120,55,-60,60,,60,130,140,150,,150,330,1,SBD,Finland
M,Raw,Petri Mäkinen,56,M_MR_4_WPC,86.3,90,,,,,,100,110,115,,115,,,,,,115,3,B,Finland
M,Raw,Petri Mäkinen,56,M_MR_4_WPC,86.3,90,,,,,,,,,,,140,150,155,,155,155,1,D,Finland
M,Multi-ply,Petri Salmela,44,M_MEM_1_WPC,82.1,82.5,250,270,280,,280,105,115,125,,125,250,270,280,,280,685,1,SBD,Finland
M,Raw,Petteri Ahola,34,M_OR_WPC,99.1,100,250,272.5,280,,280,205,-215,-215,,205,315,330,-335,,330,815,1,SBD,Finland
M,Raw,Petteri Hosio Henrik,40,M_MR_1_WPC,123.3,125,,,,,,210,220,-230,,220,,,,,,220,1,B,Finland
M,Multi-ply,Petteri Hosio Henrik,40,M_MEM_1_WPC,125,125,,,,,,340,360,380,,380,,,,,,380,1,B,Finland
M,Multi-ply,Petteri Hosio Henrik,40,M_OEM_WPC,125,125,,,,,,340,360,380,,380,,,,,,380,1,B,Finland
M,Single-ply,Philip Watkins,51,M_MES_3_WPC,89.4,90,,,,,,,,,,,290,-312.5,-312.5,,290,290,1,D,UK
M,Single-ply,Philip Watkins,51,M_OES_WPC,89.4,90,,,,,,,,,,,290,-312.5,-312.5,,290,290,1,D,UK
M,Wraps,Phil Carleton,35,M_OCR_WPC,89.4,90,280,300,-307.5,,300,160,170,-175,,170,270,285,-295,,285,755,2,SBD,UK
M,Wraps,Pierre Andrawes,23,M_OCR_WPC,,,,,,,,,,,,,,,,,,,NS,SBD,Egypt
M,Single-ply,Pierre Barsoom Andrawes,23,M_OES_WPC,,,,,,,,,,,,,,,,,,,NS,SBD,Egypt
F,Raw,Pinja Rajala,15,F_TR_1_WPC,,,,,,,,,,,,,,,,,,,NS,D,Finland
F,Multi-ply,Pinja Rajala,15,F_TEM_1_WPC,61.8,67.5,85,100,-105,,100,35,40,45,,45,100,107.5,115,,115,260,1,SBD,Finland
F,Single-ply,Pinja Rajala,15,F_TES_1_WPC,62.5,67.5,,,,,,,,,,,100,110,112.5,,112.5,112.5,1,D,Finland
M,Raw,Pjotr Ondzul,,M_OR_WPC,,,,,,,,,,,,,,,,,,,NS,B,Latvia
M,Single-ply,Rabie Mohamed Said Mohamed,24,M_OES_WPC,93.7,100,230,250,265,,265,130,160,170,,170,-240,240,-280,,240,675,1,SBD,Egypt
M,Raw,Rabie Mohamed Said Mohamed,24,M_OR_WPC,87.8,90,,,,,,,,,,,255,267.5,280,,280,280,2,D,Egypt
F,Raw,Rachel Normington,29,F_OR_WPC,77,82.5,117.5,125,-130,,125,62.5,67.5,-72.5,,67.5,140,150,160,,160,352.5,2,SBD,UK
M,Wraps,Raimo Hiisiö,50,M_MCR_3_WPC,121.4,125,250,-270,-270,,250,185,200,-207.5,,200,240,250,260,,260,710,1,SBD,Finland
M,Raw,Raimo Lehtonen,59,M_MR_4_WPC,80.8,82.5,,,,,,105,110,112.5,,112.5,,,,,,112.5,3,B,Finland
M,Raw,Raimo Sjögren,75,M_MR_8_WPC,99.1,100,115,120,-138,,120,65,70,-80,,70,130,140,-160,,140,330,1,SBD,Finland
M,Raw,Raine Mäkinen,61,M_MR_5_WPC,72.2,75,,,,,,,,,,,175,-190,190,,190,190,1,D,Finland
M,Raw,Rami Haaparanta,43,M_MR_1_WPC,98.9,100,,,,,,185,195,-205,,195,,,,,,195,1,B,Finland
M,Raw,Randall Crooks,45,M_MR_2_WPC,98.2,100,,,,,,162.5,170,-182.5,,170,,,,,,170,4,B,UK
M,Raw,Randall Crooks,45,M_MR_2_WPC,98.2,100,,,,,,,,,,,,,,,,,DQ,D,UK
M,Raw,Rane Ovaska,59,M_MR_4_WPC,81.1,82.5,,,,,,105,112.5,117.5,,117.5,,,,,,117.5,2,B,Finland
M,Raw,Rane Ovaska,59,M_MR_4_WPC,81.1,82.5,,,,,,,,,,,190,210,-225,,210,210,1,D,Finland
F,Multi-ply,Rebeka Ficeková,18,F_TEM_3_WPC,66.3,67.5,,,,,,,,,,,120,-140,140,,140,140,1,D,Slovakia
F,Multi-ply,Rebeka Ficeková,18,F_TEM_3_WPC,66.3,67.5,,,,,,80,90,-100,,90,,,,,,90,1,B,Slovakia
F,Multi-ply,Rebeka Ficeková,18,F_TEM_3_WPC,66,67.5,120,140,150,,150,80,90,-95,,90,120,-140,140,,140,380,1,SBD,Slovakia
M,Raw,Reijo Marin,60,M_MR_5_WPC,111.4,125,,,,,,155,160,165,,165,,,,,,165,1,B,Finland
M,Multi-ply,Reijo Marin,60,M_MEM_5_WPC,111.9,125,,,,,,-190,-190,190,,190,,,,,,190,1,B,Finland
M,Multi-ply,Reza Golmohammadi,44,M_MEM_1_WPC,99.1,100,,,,,,-310,310,320,,320,,,,,,320,1,B,Finland
M,Multi-ply,Reza Golmohammadi,44,M_OEM_WPC,99.1,100,,,,,,-310,310,-320,,310,,,,,,310,1,B,Finland
M,Wraps,Ricardo Monteiro,32,M_OCR_WPC,99,100,275,-287.5,-287.5,,275,160,170,-180,,170,280,-300,-300,,280,725,5,SBD,Portugal
M,Raw,Rich Willis,50,M_MR_3_WPC_Disabled,50.4,52,,,,,,115,-120,120,,120,,,,,,120,1,B,UK
M,Raw,Rich Willis,50,M_OR_WPC_Disabled,50.4,52,,,,,,115,-120,120,,120,,,,,,120,1,B,UK
M,Raw,Richard Baker #2,50,M_MR_3_WPC,106.9,110,,,,,,130,140,-150,,140,,,,,,140,3,B,UK
M,Raw,Richard Baker #2,50,M_MR_3_WPC,106.9,110,,,,,,,,,,,220,230,-240,,230,230,1,D,UK
M,Single-ply,Richie Power,36,M_OES_WPC,81.6,82.5,280,-300,-300,,280,210,220,-230,,220,220,240,-250,,240,740,1,SBD,Ireland
M,Raw,Rico Martinez,49,M_MR_2_WPC,93.6,100,,,,,,180,-190,-190,,180,,,,,,180,3,B,Germany
M,Raw,Rik Davison,58,M_MR_4_WPC,99,100,,,,,,150,160,170,,170,,,,,,170,1,B,UK
M,Raw,Rik Davison,58,M_MR_4_WPC,99,100,,,,,,,,,,,255,267.5,-280.5,,267.5,267.5,1,D,UK
M,Single-ply,Rik Davison,58,M_MES_4_WPC,99.6,100,,,,,,,,,,,260,270,-280,,270,270,1,D,UK
M,Single-ply,Rob Preston,50,M_MES_3_WPC,106.5,110,,,,,,245,-255,-265,,245,,,,,,245,1,B,UK
M,Raw,Robert Greef,59,M_MR_4_WPC,94.7,100,,,,,,115,125,-130,,125,,,,,,125,2,B,South Africa
M,Raw,Robert Greef,59,M_MR_4_WPC,94.7,100,,,,,,,,,,,215,,,,215,215,2,D,South Africa
F,Wraps,Robin Miller,50,F_MCR_3_WPC,58.9,60,90,-102.5,102.5,,102.5,65,70,-72.5,,70,137.5,142.5,147.5,,147.5,320,1,SBD,USA
M,Raw,Robin Müller,29,M_OR_WPC,116.1,125,215,230,-240,,230,142.5,-150,-150,,142.5,230,-270,-270,,230,602.5,8,SBD,Germany
M,Multi-ply,Robin Westman,,M_OEM_WPC,,,,,,,,,,,,,,,,,,,NS,SBD,Finland
M,Raw,Roman Ahmadov,34,M_OR_WPC,80.7,82.5,175,185,-195,,185,135,140,-145,,140,260,275,-285,,275,600,3,SBD,Azerbaijan
M,Raw,Roman Ahmadov,34,M_OR_WPC,81.2,82.5,,,,,,,,,,,255,265,-277.5,,265,265,1,D,Azerbaijan
M,Wraps,Ryan Silverson,45,M_MCR_2_WPC,106.5,110,247.5,265,277.5,,277.5,182.5,195,-202.5,,195,240,-260,-260,,240,712.5,1,SBD,Canada
M,Raw,Saku Hyppölä,42,M_MR_1_WPC,98.8,100,140,155,165,,165,-130,137.5,-142.5,,137.5,-180,202.5,215,,215,517.5,2,SBD,Finland
F,Raw,Sal Lack,42,F_MR_1_WPC,90,90,,,,,,,,,,,125,-135,-135,,125,125,1,D,UK
F,Raw,Sal Lack,42,F_MR_1_WPC,90,90,,,,,,65,72.5,-80,,72.5,,,,,,72.5,2,B,UK
F,Raw,Sameh Samir Abdelsalam Sereen,25,F_OR_WPC,61.5,67.5,,,,,,,,,,,135,-155,-155,,135,135,3,D,Egypt
M,Raw,Sami Kankaanpää,31,M_OR_WPC,122,125,250,-265,275,,275,175,190,197.5,,197.5,300,-315,-315,,300,772.5,3,SBD,Finland
M,Raw,Sami Salonen,50,M_MR_3_WPC,143.7,140+,,,,,,-170,-170,170,,170,,,,,,170,2,B,Finland
M,Raw,Sami Vaskelainen,,M_OR_WPC,,,,,,,,,,,,,,,,,,,NS,D,Finland
M,Wraps,Sami Vaskelainen,35,M_OCR_WPC,67.4,67.5,207.5,212.5,-220,,212.5,105,107.5,-110,,107.5,227.5,237.5,,,237.5,557.5,1,SBD,Finland
M,Raw,Samir Mechat,34,M_OR_WPC,,,,,,,,,,,,,,,,,,,NS,B,France
M,Wraps,Samir Mechat,34,M_OCR_WPC,,,,,,,,,,,,,,,,,,,NS,SBD,France
M,Raw,Sampo Lavikka,37,M_OR_WPC,54.7,56,,,,,,,,,,,95,100,115,117.5,115,115,1,D,Finland
M,Raw,Sampo Lavikka,37,M_OR_WPC,54.7,56,,,,,,-55,57.5,-60,,57.5,,,,,,57.5,2,B,Finland
M,Raw,Samppa Nyman,36,M_OR_WPC,89.2,90,210,230,250,,250,160,167.5,172.5,,172.5,250,267.5,-290,,267.5,690,3,SBD,Finland
M,Raw,Samuli Vaittinen,,M_OR_WPC,,,,,,,,,,,,,,,,,,,NS,D,Finland
M,Raw,Samy Salama Rezk Morgan,,M_OR_WPC,,,,,,,,,,,,,,,,,,,NS,SBD,Egypt
F,Raw,Sanna Purhonen,33,F_OR_WPC,66.6,67.5,-140,140,-150,,140,75,-80,-80,,75,175,182.5,-190,,182.5,397.5,2,SBD,Finland
F,Raw,Sannikka Hosio,35,F_OR_WPC,56.3,60,,,,,,55,62.5,-65,,62.5,,,,,,62.5,1,B,Finland
F,Raw,Sari Makkonen,46,F_MR_2_WPC,78.1,82.5,,,,,,,,,,,122.5,132.5,-142.5,,132.5,132.5,1,D,Finland
M,Raw,Sauli Kallunki,24,M_OR_WPC,108.3,110,225,240,250,,250,180,192.5,-195,,192.5,265,282.5,-300,,282.5,725,4,SBD,Finland
M,Multi-ply,Scott Kuderick,45,M_OEM_WPC,89.1,90,150,,,,150,125,,,,125,167.5,,,,167.5,442.5,1,SBD,USA
M,Raw,Sébastien Boizou,45,M_MR_2_WPC,81.7,82.5,160,180,205,,205,-125,125,140,,140,100,180,-240,,180,525,1,SBD,France
M,Raw,Sébastien Boizou,45,M_MR_2_WPC,81.7,82.5,,,,,,125,140,-145,,140,,,,,,140,2,B,France
M,Raw,Sébastien Boizou,45,M_MR_2_WPC,81.7,82.5,,,,,,,,,,,160,180,200,,200,200,1,D,France
M,Raw,Seppo Konkola,,M_MR_4_WPC,,,,,,,,,,,,,,,,,,,NS,D,Finland
F,Wraps,Sereen Abdelsalam,25,F_OCR_WPC,61.6,67.5,125,-140,-140,,125,50,57.5,60,,60,135,152.5,157.5,,157.5,342.5,1,SBD,Egypt
F,Single-ply,Sameh Samir Abdelsalam Sereen,25,F_OES_WPC,,,,,,,,,,,,,,,,,,,NS,SBD,Egypt
M,Raw,Sergei Nikiforov,72,M_MR_7_WPC,82.2,82.5,,,,,,125,-135,-135,,125,,,,,,125,1,B,Russia
M,Raw,Sergey Salosalov,15,M_TR_1_WPC,82.2,82.5,,,,,,150,157.5,-162.5,,157.5,,,,,,157.5,1,B,Russia
M,Raw,Shalaby Ahmed Shalaby Ekramy,39,M_OR_WPC,75.9,82.5,,,,,,160,167.5,-170,,167.5,,,,,,167.5,3,B,Egypt
F,Raw,Sharon Eggleton,39,F_OR_WPC,67,67.5,180,-195,-195,,180,120,130,-137.5,,130,190,200,,,200,510,1,SBD,UK
F,Raw,Sheryl Lynne Shockley,62,F_MR_5_WPC,76.5,82.5,85,92.5,97.5,102.5,97.5,47.5,50,-52.5,,50,-125,132.5,135,-140.5,135,282.5,1,SBD,USA
M,Raw,Siarhei Shyrkevich,67,M_MR_6_WPC,85.6,90,,,,,,120,125,130,,130,,,,,,130,1,B,Russia
M,Raw,Siméon Fraser,31,M_OR_WPC,74.3,75,225,-240,240,,240,140,165,-170,,165,250,270,-280,,270,675,1,SBD,France
M,Wraps,Sipione Federico,38,M_OCR_WPC,91.3,100,257.5,267.5,-275,,267.5,157.5,165,-172.5,,165,275,285,-290,,285,717.5,6,SBD,Italy
M,Raw,Sodgerel Enkhbaatar,,M_OR_WPC,,,,,,,,,,,,,,,,,,,NS,SBD,Mongolia
M,Raw,Sohail Rashid,,M_OR_WPC,,,,,,,,,,,,,,,,,,,NS,SBD,UK
F,Wraps,Sowilah Aya,18,F_TCR_3_WPC,66.3,67.5,-145,145,-155,,145,65,72.5,77.5,-80,77.5,125,-135,135,-150.5,135,357.5,1,SBD,Egypt
M,Multi-ply,Steeve Gameiro Barros,41,M_MEM_1_WPC,107.8,110,,,,,,336,,,,336,,,,,,336,1,B,France
M,Multi-ply,Steeve Gameiro Barros,41,M_OEM_WPC,107.8,110,,,,,,336,-350,-350,,336,,,,,,336,1,B,France
M,Raw,Stefan Stalstedt,,M_MR_3_WPC,,,,,,,,,,,,,,,,,,,NS,D,Finland
M,Raw,Sten Haugas,29,M_OR_WPC,142,140+,,,,,,240,250,-260,,250,,,,,,250,2,B,Estonia
M,Multi-ply,Stéphane Gurini,54,M_MEM_3_WPC,99.9,100,,,,,,220,-230,-230,,220,,,,,,220,1,B,France
F,Wraps,Summers Vasquez,48,F_MCR_2_WPC,55.2,56,-95,95,-105,,95,55,-60,60,,60,112.5,127.5,135,,135,290,1,SBD,USA
F,Raw,Svetlana Sinacheva,52,F_MR_3_WPC,79.3,82.5,,,,,,112.5,117.5,120,,120,,,,,,120,1,B,Russia
M,Wraps,Sylvain Bayamati,29,M_OCR_WPC,80.7,82.5,-240,240,-250,,240,150,160,-162.5,,160,250,265,-275,,265,665,1,SBD,France
M,Raw,Tahvo Jauhojärvi,57,M_MR_4_WPC,73.8,75,,,,,,125,135,142.5,,142.5,,,,,,142.5,1,B,Sweden
M,Multi-ply,Tahvo Jauhojärvi,57,M_MEM_4_WPC,74.6,75,,,,,,175,-185,185,,185,,,,,,185,1,B,Sweden
M,Single-ply,Tapio Laine,67,M_MES_6_WPC,118.4,125,,,,,,210,-220,,,210,,,,,,210,1,B,Finland
F,Raw,Taru Visuri,34,F_OR_WPC,52,52,,,,,,,,,,,155,163.5,-170,,163.5,163.5,1,D,Finland
M,Wraps,Teemu Haverinen,,M_OCR_WPC,,,,,,,,,,,,,,,,,,,NS,SBD,Finland
M,Multi-ply,Teemu Haverinen,,M_OEM_WPC,,,,,,,,,,,,,,,,,,,NS,D,Finland
M,Wraps,Teemu Mäkynen,26,M_OCR_WPC,109.4,110,-300,300,310,,310,150,160,-170,,160,290,310,-330,,310,780,3,SBD,Finland
M,Raw,Teppo Koskinen,46,M_MR_2_WPC,98.3,100,,,,,,132.5,142.5,-147.5,,142.5,,,,,,142.5,5,B,Finland
M,Raw,Teppo Koskinen,46,M_MR_2_WPC,98.3,100,,,,,,,,,,,225,242.5,,,242.5,242.5,3,D,Finland
M,Raw,Tero Pitkänen,39,M_OR_WPC,118.6,125,-230,230,240,,240,175,-185,-187.5,,175,-275,-285,285,,285,700,5,SBD,Finland
M,Wraps,Tero Soini,,M_OCR_WPC,,,,,,,,,,,,,,,,,,,NS,SBD,Finland
M,Raw,Tero Ylivinkka,53,M_MR_3_WPC,127.4,140,,,,,,170,180,-200,,180,,,,,,180,1,B,Finland
M,Raw,Teymur Nasirov,42,M_OR_WPC,,,,,,,,,,,,,,,,,,,NS,B,Azerbaijan
M,Wraps,Théo Platel,19,M_TCR_3_WPC,74.5,75,190,200,-210,,200,105,112.5,117.5,,117.5,205,215,225,,225,542.5,1,SBD,France
M,Raw,Tilo Kupper,55,M_MR_4_WPC,87.9,90,,,,,,152.5,157.5,160,,160,,,,,,160,1,B,Switzerland
M,Raw,Timo Seppänen,,M_MR_1_WPC,,,,,,,,,,,,,,,,,,,NS,B,Finland
M,Raw,Timo Seppänen,,M_OR_WPC,,,,,,,,,,,,,,,,,,,NS,B,Finland
M,Wraps,Timo Termonen,41,M_MCR_1_WPC,97.2,100,275,285,-300,,285,125,130,135,,135,240,255,265,,265,685,2,SBD,Finland
F,Raw,Tina Iuorio,38,F_OR_WPC,66.2,67.5,,,,,,,,,,,150,160,165,,165,165,2,D,Italy
M,Raw,Tom Sheppard,,M_OR_WPC,,,,,,,,,,,,,,,,,,,NS,SBD,UK
M,Single-ply,Tomasz Bejgrowicz,40,M_MES_1_WPC,107.8,110,170,180,190,,190,140,150,155,,155,200,220,,,220,565,1,SBD,Poland
M,Wraps,Tomasz Bejgrowicz,40,M_MCR_1_WPC,108.4,110,170,190,,,190,140,150,-157.5,,150,200,220,230,,230,570,2,SBD,Poland
M,Raw,Toni Ahonen,,M_OR_WPC,,,,,,,,,,,,,,,,,,,NS,D,Finland
M,Raw,Toni Ahonen,,M_OR_WPC,,,,,,,,,,,,,,,,,,,NS,B,Finland
M,Single-ply,Tony O'Rourke,36,M_OES_WPC,109.6,110,310,-330,-330,,310,231,260,-275,,260,240,260,-280,,260,830,1,SBD,Ireland
M,Raw,Totte Salmi,44,M_MR_1_WPC,59.7,60,,,,,,102.5,107.5,-110.5,,107.5,,,,,,107.5,1,B,Finland
M,Raw,Totte Salmi,44,M_MR_1_WPC,59.7,60,,,,,,,,,,,175,185,-192.5,,185,185,1,D,Finland
M,Wraps,Trevor Smith,25,M_OCR_WPC,88.5,90,195,205,-210,,205,150,155,160,,160,230,-235,235,,235,600,5,SBD,South Africa
M,Raw,Tuomas Kiander,27,M_OR_WPC,87.6,90,-140,-155,-155,,,,,,,,,,,,,,DQ,SBD,Finland
M,Raw,Tuomas Uotila,23,M_JR_WPC,131.2,140,220,230,240,,240,150,157.5,167.5,,167.5,-230,245,255,,255,662.5,1,SBD,Finland
M,Raw,Uldis Ronalds Kiploks,22,M_JR_WPC,109.8,110,-290,290,300,,300,180,195,202.5,,202.5,330,350,,,350,852.5,1,SBD,Latvia
M,Raw,Uldis Ronalds Kiploks,22,M_OR_WPC,109.7,110,,,,,,,,,,,340,355,367.5,-376,367.5,367.5,1,D,Latvia
M,Multi-ply,Ullrich Vetter,67,M_MEM_6_WPC,104.3,110,,,,,,180,-190,,,180,,,,,,180,1,B,Germany
M,Single-ply,Ullrich Vetter,67,M_MES_6_WPC,104.3,110,,,,,,175,185,192,,192,,,,,,192,1,B,Germany
M,Wraps,Urs Auf der Maur,51,M_MCR_3_WPC,105.7,110,-280,280,-300,,280,165,-180,,,165,300,-320,,,300,745,1,SBD,Switzerland
M,Raw,Valentin Rohm,24,M_OR_WPC,82.4,82.5,,,,,,152.5,157.5,-160,,157.5,,,,,,157.5,4,B,Germany
M,Raw,Vasily Chernyshenko,56,M_MR_4_WPC,110.7,125,,,,,,120,125,-130,,125,,,,,,125,1,B,Russia
M,Wraps,Vesa Järveläinen,,M_MCR_1_WPC,,,,,,,,,,,,,,,,,,,NS,SBD,Finland
M,Wraps,Vesa Nissilä,56,M_MCR_4_WPC,109.2,110,185,200,-215.5,,200,110,120,130,,130,175,195,205,,205,535,1,SBD,Finland
F,Wraps,Victoriia Blotckaia,34,F_OCR_WPC,73.5,75,100,-115,130,,130,80,-85,-87.5,,80,130,140,-150,,140,350,5,SBD,Russia
F,Raw,Viktoriia Blotckaia,34,F_OR_WPC,74.8,75,,,,,,80,-85,85,,85,,,,,,85,1,B,Russia
M,Multi-ply,Ville Rajala,,M_TEM_1_WPC,85.1,90,,,,,,-70,-70,72.5,,72.5,,,,,,72.5,1,B,Finland
M,Wraps,Ville Suominen,37,M_OCR_WPC,105.4,110,300,315,-320,,315,170,180,-187.5,,180,300,315,-322.5,,315,810,2,SBD,Finland
M,Raw,Vincent Todaro,35,M_OR_WPC,59.1,60,,,,,,,,,,,205,215,222.5,,222.5,222.5,1,D,France
M,Wraps,Vincent Todaro,35,M_OCR_WPC,59,60,160,165,170,,170,87.5,90,-92.5,,90,205,210,215,,215,475,1,SBD,France
F,Raw,Virpi Knuutila,52,F_MR_3_WPC,89.4,90,,,,,,,,,,,215,-230,-230,,215,215,1,D,Finland
F,Raw,Virpi Knuutila,52,F_MR_3_WPC,89.4,90,,,,,,125,135,142.5,,142.5,,,,,,142.5,1,B,Finland
M,Wraps,Vitalis Opalevs,48,M_MCR_2_WPC,86.3,90,145,-160,-170,,145,105,110,-115,,110,180,195,-205,,195,450,2,SBD,Latvia
F,Raw,Vivienne Shockley,38,F_OR_WPC,78.9,82.5,55,57.5,-60,,57.5,47.5,50,52.5,,52.5,125,132.5,135,140.5,135,245,3,SBD,USA
M,Raw,Vladimír Bátik,,M_MR_6_WPC,,,,,,,,,,,,,,,,,,,NS,B,Slovakia
M,Raw,Vladlen Astaptsev,54,M_MR_3_WPC,74.4,75,132.5,137.5,140,,140,107.5,112.5,115,,115,180,190,,,190,445,1,SBD,Finland
M,Raw,Vladlen Astaptsev,54,M_MR_3_WPC,74.4,75,,,,,,105,110,,,110,,,,,,110,2,B,Finland
M,Raw,Vladlen Astaptsev,54,M_MR_3_WPC,74.4,75,,,,,,,,,,,180,190,195,,195,195,1,D,Finland
M,Wraps,Vladlen Astaptsev,54,M_MCR_3_WPC,74.6,75,140,150,155,,155,107.5,112.5,115,,115,182.5,190,,,190,460,1,SBD,Finland
M,Wraps,Wayne Olivier,36,M_OCR_WPC,73.8,75,180,190,200,,200,115,125,-130,,125,220,-225,225,,225,550,2,SBD,South Africa
M,Wraps,William Holliday,22,M_JCR_WPC,135.9,140,260,275,290,,290,180,187.5,200,,200,260,280,-310,,280,770,1,SBD,UK
M,Wraps,William McNeil,42,M_MCR_1_WPC,107.6,110,180,200,205,,205,180,190,197.5,,197.5,240,250,260,,260,662.5,1,SBD,UK
M,Raw,Yerat Nurdykhan,33,M_OR_WPC,,,,,,,,,,,,,,,,,,,NS,B,Mongolia
M,Single-ply,Yuriy Ustinov,44,M_MES_1_WPC,104.2,110,,,,,,,,,,,240,260,280,,280,280,1,D,Russia
M,Raw,Yury Olekseenko,33,M_OR_WPC,85.5,90,270,290,,,290,140,160,170,,170,260,280,300,,300,760,1,SBD,Russia
M,Single-ply,Zane Ison,51,M_MES_3_WPC,137.1,140,300,315,347.5,,347.5,190,-205,205,,205,280,305.5,315,,315,867.5,1,SBD,South Africa
M,Single-ply,Zaur Jafarov,37,M_OES_WPC,108.8,110,,,,,,270,290,-302.5,,290,,,,,,290,1,B,Azerbaijan
