Division,WeightClassKg,Place,Name,Team,BodyweightKg,Best3SquatKg,Best3BenchKg,Best3DeadliftKg,TotalKg,Equipment,Event,Sex
Div 2,44.23,1,Tracy Escamilla,Rio Hondo,44.09,133.81,70.31,136.08,340.19,Single-ply,SBD,F
Div 2,44.23,2,Crystal Rodriguez,Corpus Christi West Oso,42.82,97.52,40.82,95.25,233.6,Single-ply,SBD,F
Div 2,44.23,3,Destiny Martinez,Beeville Jones,42.91,81.65,54.43,97.52,233.6,Single-ply,SBD,F
Div 2,44.23,4,Bianca Martinez,Pleasanton,42.82,83.91,38.56,97.52,219.99,Single-ply,SBD,F
Div 2,44.23,5,Audrey Spearman,Ingleside,44,74.84,40.82,95.25,210.92,Single-ply,SBD,F
Div 2,44.23,6,June Ji Peters,Columbus,37.38,77.11,38.56,83.91,199.58,Single-ply,SBD,F
Div 2,44.23,7,Savannah Sandoval,Kingsville King,41.46,72.57,31.75,81.65,185.97,Single-ply,SBD,F
Div 2,44.23,DQ,Katie Rodriguez,Carrizo Springs,43.45,,,,,Single-ply,SBD,F
Div 2,47.85,1,Kaitlyn Pelitire,Beeville Jones,46.36,131.54,58.97,124.74,315.25,Single-ply,SBD,F
Div 2,47.85,2,Yvette Flores,Crystal City,46.9,124.74,58.97,120.2,303.91,Single-ply,SBD,F
Div 2,47.85,3,Rebecca Rocha,Rio Hondo,47.26,111.13,47.63,124.74,283.5,Single-ply,SBD,F
Div 2,47.85,4,Devyn Turner,Victoria St. Joseph,47.08,113.4,52.16,113.4,278.96,Single-ply,SBD,F
Div 2,47.85,5,Karina Garay,Carrizo Springs,46.9,97.52,61.23,106.59,265.35,Single-ply,SBD,F
Div 2,47.85,6,Clarissa Garcia,Yoakum,46.08,106.59,49.9,106.59,263.08,Single-ply,SBD,F
Div 2,47.85,7,Alysia Alvarado,Orange Grove,47.81,97.52,40.82,111.13,249.48,Single-ply,SBD,F
Div 2,47.85,8,Faithann Gustamante,Bandera,47.54,92.99,43.09,104.33,240.4,Single-ply,SBD,F
Div 2,47.85,DQ,Meagan Aguilar,Orange Grove,47.36,,,,,Single-ply,SBD,F
Div 2,47.85,DQ,Clari Castillo,Zapata,47.08,,,,,Single-ply,SBD,F
Div 2,51.94,1,Julissa Ortiz,Beeville Jones,50.44,129.27,70.31,149.69,349.27,Single-ply,SBD,F
Div 2,51.94,2,Selina Velasquez,Orange Grove,51.53,136.08,52.16,156.49,344.73,Single-ply,SBD,F
Div 2,51.94,3,Brianna Gonzalez,Zapata,51.53,140.61,54.43,147.42,342.46,Single-ply,SBD,F
Div 2,51.94,4,Alexandra García,Zapata,51.17,127.01,68.04,142.88,337.93,Single-ply,SBD,F
Div 2,51.94,5,Sarah Butler #4,Bandera,51.53,106.59,56.7,145.15,308.44,Single-ply,SBD,F
Div 2,51.94,6,Maria Martinez,Crystal City,51.26,120.2,56.7,129.27,306.17,Single-ply,SBD,F
Div 2,51.94,7,Erika Peralta,Carrizo Springs,50.89,115.67,65.77,111.13,292.57,Single-ply,SBD,F
Div 2,51.94,8,Stephanie Gonzalez,Hidalgo Early College,50.8,113.4,56.7,115.67,285.76,Single-ply,SBD,F
Div 2,51.94,9,Catrina Garcia,Pearsall,50.35,111.13,56.7,111.13,278.96,Single-ply,SBD,F
Div 2,51.94,DQ,Joeli Castillo,Zapata,51.26,102.06,56.7,,,Single-ply,SBD,F
Div 2,56.02,1,Alana Montes,Zapata,55.34,154.22,77.11,154.22,385.55,Single-ply,SBD,F
Div 2,56.02,2,Sydney Martinez,Crystal City,54.88,120.2,61.23,138.35,319.78,Single-ply,SBD,F
Div 2,56.02,3,Aly Urrabazo,Crystal City,54.88,115.67,68.04,124.74,308.44,Single-ply,SBD,F
Div 2,56.02,4,Rebecca Leist,Yoakum,54.98,129.27,63.5,106.59,299.37,Single-ply,SBD,F
Div 2,56.02,5,Rebekah Medeiros,Rio Hondo,54.98,115.67,61.23,106.59,283.5,Single-ply,SBD,F
Div 2,56.02,6,Allie Denham,Bandera,54.52,104.33,61.23,113.4,278.96,Single-ply,SBD,F
Div 2,56.02,7,Andrea Guerra,Zapata,53.89,108.86,54.43,113.4,276.69,Single-ply,SBD,F
Div 2,56.02,8,Sophia Romero,Pleasanton,54.52,113.4,47.63,115.67,276.69,Single-ply,SBD,F
Div 2,56.02,9,Kyndall Wick,Columbus,55.07,102.06,52.16,120.2,274.42,Single-ply,SBD,F
Div 2,56.02,DQ,Kenia Botello,Rio Hondo,54.07,111.13,,,,Single-ply,SBD,F
Div 2,60.1,1,Abbi Garza,Crystal City,58.6,138.35,72.57,136.08,347,Single-ply,SBD,F
Div 2,60.1,2,Calie Chesler,Bandera,58.69,120.2,72.57,151.95,344.73,Single-ply,SBD,F
Div 2,60.1,3,Emily Guerrero,Lytle,59.51,140.61,61.23,127.01,328.85,Single-ply,SBD,F
Div 2,60.1,4,Kate Martin,Bandera,58.97,120.2,58.97,142.88,322.05,Single-ply,SBD,F
Div 2,60.1,5,Claudia Chapa,Robstown,58.51,120.2,61.23,136.08,317.51,Single-ply,SBD,F
Div 2,60.1,6,Brittany Garza,Kingsville King,58.33,124.74,58.97,111.13,294.84,Single-ply,SBD,F
Div 2,60.1,7,Noemi Olivera,Crystal City,59.33,104.33,68.04,117.93,290.3,Single-ply,SBD,F
Div 2,60.1,8,Shey Luckman,Jourdanton,59.33,111.13,65.77,111.13,288.03,Single-ply,SBD,F
Div 2,60.1,9,Brenna Beseda,La Grange,58.88,124.74,49.9,108.86,283.5,Single-ply,SBD,F
Div 2,60.1,DQ,Vanessa Guerra,Zapata,59.42,124.74,,,,Single-ply,SBD,F
Div 2,67.36,1,Esperanza Delgado,Jourdanton,63.59,161.03,65.77,145.15,371.95,Single-ply,SBD,F
Div 2,67.36,2,Jasmine Bocanegra,Jourdanton,63.78,154.22,74.84,133.81,362.87,Single-ply,SBD,F
Div 2,67.36,3,Bethany Martinez,Bandera,66.32,136.08,74.84,149.69,360.61,Single-ply,SBD,F
Div 2,67.36,4,Christy Alvarez,Crystal City,62.96,127.01,63.5,163.29,353.8,Single-ply,SBD,F
Div 2,67.36,5,Kiana Lara,Crystal City,65.23,147.42,72.57,117.93,337.93,Single-ply,SBD,F
Div 2,67.36,6,Katherine Perez,Crystal City,64.23,124.74,58.97,142.88,326.59,Single-ply,SBD,F
Div 2,67.36,7,Brittney Butler,Geronimo Navarro,66.41,124.74,68.04,129.27,322.05,Single-ply,SBD,F
Div 2,67.36,8,Lesley Guthmann,Columbus,64.86,104.33,63.5,120.2,288.03,Single-ply,SBD,F
Div 2,67.36,DQ,Kiana Lopez,Crystal City,65.77,147.42,68.04,,,Single-ply,SBD,F
Div 2,67.36,DQ,Franchesca Sandoval,Port Isabel,63.23,129.27,,,,Single-ply,SBD,F
Div 2,75.07,1,Zena Esquivel,Carrizo Springs,72.85,170.1,92.99,176.9,439.98,Single-ply,SBD,F
Div 2,75.07,2,Amanda Esquivel,Zapata,73.57,145.15,83.91,165.56,394.63,Single-ply,SBD,F
Div 2,75.07,3,Cecily Rodriguez,Orange Grove,73.66,158.76,56.7,154.22,369.68,Single-ply,SBD,F
Div 2,75.07,4,Kat Ramirez,Jourdanton,73.3,142.88,74.84,129.27,347,Single-ply,SBD,F
Div 2,75.07,5,Yanitza Cavozos,Jourdanton,74.57,133.81,70.31,138.35,342.46,Single-ply,SBD,F
Div 2,75.07,6,Chelsey Hardin,Victoria St. Joseph,70.76,136.08,63.5,138.35,337.93,Single-ply,SBD,F
Div 2,75.07,7,Gabi Patino,Crystal City,70.85,138.35,68.04,131.54,337.93,Single-ply,SBD,F
Div 2,75.07,8,Paige Kruciak,Lytle,73.3,140.61,83.91,113.4,337.93,Single-ply,SBD,F
Div 2,75.07,9,Aubrey Adams,Orange Grove,73.48,133.81,52.16,122.47,308.44,Single-ply,SBD,F
Div 2,75.07,DQ,Trisha Garcia,Zapata,73.48,117.93,,,,Single-ply,SBD,F
Div 2,82.33,1,Ashley Mata,Crystal City,77.07,158.76,90.72,161.03,410.5,Single-ply,SBD,F
Div 2,82.33,2,Danielle Kent,Carrizo Springs,75.93,161.03,74.84,156.49,392.36,Single-ply,SBD,F
Div 2,82.33,3,Kenia Gonzalez,Rio Grande City Grulla,80.65,158.76,81.65,147.42,387.82,Single-ply,SBD,F
Div 2,82.33,4,Shelby Carrillo,Devine,77.93,161.03,74.84,147.42,383.29,Single-ply,SBD,F
Div 2,82.33,5,Vanessa Muniz,Bandera,81.74,145.15,81.65,151.95,378.75,Single-ply,SBD,F
Div 2,82.33,6,Holli Morgan,Devine,75.93,145.15,81.65,145.15,371.95,Single-ply,SBD,F
Div 2,82.33,7,Nina Ramon,Devine,81.65,136.08,81.65,133.81,351.53,Single-ply,SBD,F
Div 2,82.33,8,Sarai Badillo,Orange Grove,80.1,145.15,58.97,142.88,347,Single-ply,SBD,F
Div 2,82.33,DQ,Gabriella Hyturria,Beeville Jones,80.29,136.08,,,,Single-ply,SBD,F
Div 2,82.33,DQ,Krystal Ortiz,Beeville Jones,81.01,158.76,,,,Single-ply,SBD,F
Div 2,90.04,1,Gaby Reyes,Zapata,86.64,167.83,92.99,167.83,428.64,Single-ply,SBD,F
Div 2,90.04,2,Irma Arrendondo,Crystal City,87.36,204.12,79.38,145.15,428.64,Single-ply,SBD,F
Div 2,90.04,3,Melissa Reyes,Carrizo Springs,85.28,165.56,68.04,158.76,392.36,Single-ply,SBD,F
Div 2,90.04,4,Amanda Sandoval,Kingsville King,87.45,145.15,79.38,142.88,367.41,Single-ply,SBD,F
Div 2,90.04,5,Amber Ramirez,Beeville Jones,88.36,142.88,88.45,129.27,360.61,Single-ply,SBD,F
Div 2,90.04,6,Yasmine Perez,La Feria,88,140.61,61.23,140.61,342.46,Single-ply,SBD,F
Div 2,90.04,7,Jacquelynn Delgado,Pleasanton,85.91,147.42,61.23,120.2,328.85,Single-ply,SBD,F
Div 2,90.04,8,Dominique Ortiz,Carrizo Springs,84.82,136.08,63.5,124.74,324.32,Single-ply,SBD,F
Div 2,90.04,9,Ashton Miller,Gonzales,83.37,106.59,56.7,129.27,292.57,Single-ply,SBD,F
Div 2,90.04,DQ,Maddie McCleary,Jourdanton,87.54,136.08,,,,Single-ply,SBD,F
Div 2,100.02,1,Jocelyn Padilla,Port Isabel,97.43,161.03,68.04,156.49,385.55,Single-ply,SBD,F
Div 2,100.02,2,Bernise Leija,Crystal City,90.9,163.29,65.77,149.69,378.75,Single-ply,SBD,F
Div 2,100.02,3,Jenisis Gomez,Crystal City,94.89,161.03,72.57,142.88,376.48,Single-ply,SBD,F
Div 2,100.02,4,Tristein Ferrell,Orange Grove,97.61,156.49,68.04,147.42,371.95,Single-ply,SBD,F
Div 2,100.02,5,Kathrina Rangel,San Antonio Holy Cross,91.81,154.22,54.43,147.42,356.07,Single-ply,SBD,F
Div 2,100.02,6,Dominique Covarubias,San Antonio Holy Cross,98.43,154.22,58.97,142.88,356.07,Single-ply,SBD,F
Div 2,100.02,7,Caitlyn Stratton,Pleasanton,99.16,151.95,65.77,131.54,349.27,Single-ply,SBD,F
Div 2,100.02,8,Angel Arguijo,Pleasanton,96.98,142.88,54.43,142.88,340.19,Single-ply,SBD,F
Div 2,100.02,DQ,Jessica Soto,Lytle,97.16,170.1,,,,Single-ply,SBD,F
Div 2,100.02,DQ,Sarah Silverleaf,Beeville Jones,91.08,138.35,81.65,,,Single-ply,SBD,F
Div 2,100.02+,1,Viviana Flores,Raymondville,122.74,272.16,120.2,170.1,562.45,Single-ply,SBD,F
Div 2,100.02+,2,Ashley Olivarez,Beeville Jones,102.06,188.24,124.74,151.95,464.93,Single-ply,SBD,F
Div 2,100.02+,3,Ericka Hernandez,Gonzales,102.6,185.97,88.45,190.51,464.93,Single-ply,SBD,F
Div 2,100.02+,4,Daisy Tellez,Crystal City,172.46,181.44,113.4,170.1,464.93,Single-ply,SBD,F
Div 2,100.02+,5,Jeanie Flores,Orange Grove,119.02,183.7,90.72,167.83,442.25,Single-ply,SBD,F
Div 2,100.02+,6,Kendra Perez,Pleasanton,115.21,181.44,77.11,142.88,401.43,Single-ply,SBD,F
Div 2,100.02+,7,Mariana Cortez,Rio Hondo,112.85,165.56,79.38,151.95,396.89,Single-ply,SBD,F
Div 2,100.02+,8,Lizzy Galvan,Robstown,103.95,158.76,68.04,158.76,385.55,Single-ply,SBD,F
Div 2,100.02+,9,Gabby Rodriguez,Gonzales,102.6,158.76,70.31,111.13,340.19,Single-ply,SBD,F
Div 3,44.23,1,Kaitlin Reyes,Bishop,43.09,117.93,63.5,122.47,303.91,Single-ply,SBD,F
Div 3,44.23,2,Symantha Flores,Three Rivers,43.82,108.86,47.63,124.74,281.23,Single-ply,SBD,F
Div 3,44.23,3,Myarae Herrera,Cotulla,43,108.86,49.9,115.67,274.42,Single-ply,SBD,F
Div 3,44.23,4,Brittany Trevino,San Diego,43.45,111.13,47.63,115.67,274.42,Single-ply,SBD,F
Div 3,44.23,5,Summer Garza,George West,43.09,99.79,43.09,111.13,254.01,Single-ply,SBD,F
Div 3,44.23,6,Cassandra Gonzalez,San Diego,43.27,97.52,36.29,106.59,240.4,Single-ply,SBD,F
Div 3,44.23,7,Mireya Cantu,Hebbronville,44.23,92.99,40.82,102.06,235.87,Single-ply,SBD,F
Div 3,44.23,8,Jessica Leal,Santa Gertrudis Academy,43.36,90.72,40.82,102.06,233.6,Single-ply,SBD,F
Div 3,44.23,9,Ayssa Hinojosa,Hebbronville,43.36,86.18,34.02,113.4,233.6,Single-ply,SBD,F
Div 3,44.23,10,Breanna Candela,Odem,44.23,92.99,36.29,102.06,231.33,Single-ply,SBD,F
Div 3,44.23,11,Alexis Navarrette,Mathis,42.18,81.65,43.09,99.79,224.53,Single-ply,SBD,F
Div 3,44.23,12,Briana Gonzales,Hebbronville,43.73,77.11,45.36,102.06,224.53,Single-ply,SBD,F
Div 3,44.23,13,Serina Moss,Hebbronville,44.23,90.72,31.75,102.06,224.53,Single-ply,SBD,F
Div 3,44.23,14,Ally May,Kenedy,43.18,74.84,38.56,92.99,206.38,Single-ply,SBD,F
Div 3,44.23,DQ,Macy Ramirez,San Diego,43.82,102.06,43.09,,,Single-ply,SBD,F
Div 3,47.85,1,Jasmine Vasquez,Natalia,46.81,131.54,63.5,142.88,337.93,Single-ply,SBD,F
Div 3,47.85,2,Lilly Aguilar,Natalia,47.36,113.4,49.9,124.74,288.03,Single-ply,SBD,F
Div 3,47.85,3,Sarah Jo Campos,San Diego,47.45,104.33,61.23,120.2,285.76,Single-ply,SBD,F
Div 3,47.85,4,Bianca Cruz,Mathis,47.26,104.33,52.16,120.2,276.69,Single-ply,SBD,F
Div 3,47.85,5,Saida Tijerina,Falfurrias,47.08,92.99,52.16,115.67,260.82,Single-ply,SBD,F
Div 3,47.85,6,Deydra Garcia,Cotulla,47.45,102.06,45.36,113.4,260.82,Single-ply,SBD,F
Div 3,47.85,7,Demi Lopez,Karnes City,47.26,115.67,40.82,99.79,256.28,Single-ply,SBD,F
Div 3,47.85,8,Savanah Segura,Karnes City,47.54,106.59,43.09,106.59,256.28,Single-ply,SBD,F
Div 3,47.85,9,Sarah Martin,Center Point,46.9,90.72,49.9,104.33,244.94,Single-ply,SBD,F
Div 3,47.85,10,Hope Willms,Goliad,46.72,90.72,47.63,104.33,242.67,Single-ply,SBD,F
Div 3,47.85,11,Mari Espinoza,Center Point,45.99,86.18,34.02,92.99,213.19,Single-ply,SBD,F
Div 3,47.85,DQ,Ariana Flores,Cotulla,47.54,97.52,45.36,,,Single-ply,SBD,F
Div 3,47.85,DQ,Sabrina Estrada,Dilley,47.72,113.4,45.36,,,Single-ply,SBD,F
Div 3,51.94,1,Tarah Perales,San Diego,51.26,124.74,63.5,133.81,322.05,Single-ply,SBD,F
Div 3,51.94,2,Thalia Garcia,Cotulla,51.71,113.4,56.7,140.61,310.71,Single-ply,SBD,F
Div 3,51.94,3,Jaz Lescuer,Center Point,51.26,108.86,63.5,136.08,308.44,Single-ply,SBD,F
Div 3,51.94,4,Elena Perez,Weimar,51.44,127.01,52.16,124.74,303.91,Single-ply,SBD,F
Div 3,51.94,5,Brittany DeLaCruz,Hebbronville,51.17,122.47,54.43,120.2,297.1,Single-ply,SBD,F
Div 3,51.94,6,Betzaidalis Rosado-Mojica,San Antonio Brooks Academy,50.8,104.33,68.04,120.2,292.57,Single-ply,SBD,F
Div 3,51.94,7,Destiny Bueno,Bishop,50.89,113.4,65.77,106.59,285.76,Single-ply,SBD,F
Div 3,51.94,8,Julie Gonzalez,San Diego,51.44,111.13,52.16,117.93,281.23,Single-ply,SBD,F
Div 3,51.94,9,Gabby Garcia,Freer,50.89,111.13,52.16,113.4,276.69,Single-ply,SBD,F
Div 3,51.94,10,Aubree Tostado,Karnes City,51.07,104.33,43.09,129.27,276.69,Single-ply,SBD,F
Div 3,51.94,11,Katherine Espinoza,Hebbronville,51.17,104.33,36.29,136.08,276.69,Single-ply,SBD,F
Div 3,51.94,DQ,Tiffany Gonzales,Mathis,49.8,120.2,,,,Single-ply,SBD,F
Div 3,56.02,1,Kassandra Garcia,San Diego,54.88,136.08,70.31,145.15,351.53,Single-ply,SBD,F
Div 3,56.02,2,Elizabeth Cantu,Hebbronville,55.61,145.15,74.84,127.01,347,Single-ply,SBD,F
Div 3,56.02,3,Jodel Patino,San Antonio Brooks Academy,53.98,115.67,70.31,149.69,335.66,Single-ply,SBD,F
Div 3,56.02,4,Gabby Gonzalez,Hebbronville,55.88,122.47,47.63,158.76,328.85,Single-ply,SBD,F
Div 3,56.02,5,Zavina Gonzalez,Bishop,54.79,117.93,68.04,138.35,324.32,Single-ply,SBD,F
Div 3,56.02,6,Molly Wick,Weimar,53.61,124.74,63.5,129.27,317.51,Single-ply,SBD,F
Div 3,56.02,7,Shea Carnes,Center Point,54.16,124.74,70.31,122.47,317.51,Single-ply,SBD,F
Div 3,56.02,8,Miranda Moss,Hebbronville,54.7,124.74,43.09,138.35,306.17,Single-ply,SBD,F
Div 3,56.02,9,Joslynn Sanchez,Cotulla,55.7,120.2,52.16,131.54,303.91,Single-ply,SBD,F
Div 3,56.02,10,Dalyda Landa,Hebbronville,55.79,117.93,49.9,133.81,301.64,Single-ply,SBD,F
Div 3,56.02,11,Jenny Cruz,Cotulla,53.98,117.93,49.9,131.54,299.37,Single-ply,SBD,F
Div 3,56.02,12,Ashlin Liska,Karnes City,55.43,117.93,54.43,122.47,294.84,Single-ply,SBD,F
Div 3,60.1,1,Brianna Maldonado,Hebbronville,59.51,154.22,63.5,145.15,362.87,Single-ply,SBD,F
Div 3,60.1,2,Sam Wick,Weimar,57.33,140.61,65.77,140.61,347,Single-ply,SBD,F
Div 3,60.1,3,Serina Flores,Dilley,60.06,133.81,74.84,138.35,347,Single-ply,SBD,F
Div 3,60.1,4,Jasmine Ruiz,San Antonio Brooks Academy,58.42,131.54,79.38,122.47,333.39,Single-ply,SBD,F
Div 3,60.1,5,Kristie Coles,Goliad,58.15,133.81,68.04,127.01,328.85,Single-ply,SBD,F
Div 3,60.1,6,Julianna Morales,Natalia,59.69,124.74,61.23,142.88,328.85,Single-ply,SBD,F
Div 3,60.1,7,Jenna Allen,Hallettsville,58.79,138.35,49.9,136.08,324.32,Single-ply,SBD,F
Div 3,60.1,8,Chantel Cerna,Hebbronville,57.79,129.27,61.23,129.27,319.78,Single-ply,SBD,F
Div 3,60.1,9,Kristen Moore,Stockdale,59.69,127.01,54.43,136.08,317.51,Single-ply,SBD,F
Div 3,60.1,10,Elizabeth Alfaro,Mathis,58.97,120.2,63.5,131.54,315.25,Single-ply,SBD,F
Div 3,60.1,11,Kendall Straube,Three Rivers,58.97,102.06,40.82,117.93,260.82,Single-ply,SBD,F
Div 3,67.36,1,Mia Casas,Hebbronville,65.05,165.56,72.57,165.56,403.7,Single-ply,SBD,F
Div 3,67.36,2,Carle Straube,Three Rivers,60.42,158.76,68.04,158.76,385.55,Single-ply,SBD,F
Div 3,67.36,3,Aliya BorJon,Santa Gertrudis Academy,64.77,149.69,68.04,147.42,365.14,Single-ply,SBD,F
Div 3,67.36,4,Caley Jackson,Karnes City,64.41,131.54,54.43,167.83,353.8,Single-ply,SBD,F
Div 3,67.36,5,Alexis Salazar,George West,64.5,142.88,63.5,138.35,344.73,Single-ply,SBD,F
Div 3,67.36,6,Kiersten Paul,La Pryor,62.41,129.27,68.04,136.08,333.39,Single-ply,SBD,F
Div 3,67.36,7,Makayla Cantu,Freer,63.23,142.88,54.43,136.08,333.39,Single-ply,SBD,F
Div 3,67.36,8,Bianca Solis,Poth,66.41,142.88,52.16,127.01,322.05,Single-ply,SBD,F
Div 3,67.36,9,Olivia Garcia,Hebbronville,63.78,140.61,52.16,124.74,317.51,Single-ply,SBD,F
Div 3,67.36,10,Priscilla Garza,Santa Gertrudis Academy,64.14,127.01,43.09,115.67,285.76,Single-ply,SBD,F
Div 3,75.07,1,Natalie Barrera,Bishop,72.76,190.51,102.06,161.03,453.59,Single-ply,SBD,F
Div 3,75.07,2,Karina Avila,Hebbronville,72.48,181.44,61.23,158.76,401.43,Single-ply,SBD,F
Div 3,75.07,3,Megan Martinez,San Antonio Brooks Academy,72.12,172.37,74.84,142.88,390.09,Single-ply,SBD,F
Div 3,75.07,4,Alex Miller #3,Kenedy,73.39,151.95,72.57,142.88,367.41,Single-ply,SBD,F
Div 3,75.07,5,Mari Alaniz,Karnes City,74.21,145.15,63.5,147.42,356.07,Single-ply,SBD,F
Div 3,75.07,6,Analyssa Gonzales,Mathis,73.94,142.88,72.57,127.01,342.46,Single-ply,SBD,F
Div 3,75.07,7,Catrina Soto,Skidmore-Tynan,69.13,138.35,63.5,136.08,337.93,Single-ply,SBD,F
Div 3,75.07,8,MarKedra Darden,Weimar,72.03,142.88,65.77,129.27,337.93,Single-ply,SBD,F
Div 3,75.07,9,Robyn Young,Marion,73.75,138.35,61.23,138.35,337.93,Single-ply,SBD,F
Div 3,75.07,10,Kayle Bliss,Santa Gertrudis Academy,73.39,129.27,77.11,122.47,328.85,Single-ply,SBD,F
Div 3,82.33,1,Delicia Garza,Hebbronville,80.92,201.85,92.99,201.85,496.68,Single-ply,SBD,F
Div 3,82.33,2,Larisa Trigo,Ben Bolt-Palito Blanco,80.74,163.29,68.04,156.49,387.82,Single-ply,SBD,F
Div 3,82.33,3,Seleste Pena,Hebbronville,77.38,161.03,72.57,147.42,381.02,Single-ply,SBD,F
Div 3,82.33,4,Caryna Flores,Bruni,80.29,142.88,95.25,136.08,374.21,Single-ply,SBD,F
Div 3,82.33,5,Candace Stovall,Altair Rice,80.65,158.76,61.23,149.69,369.68,Single-ply,SBD,F
Div 3,82.33,6,Jasmyne Martinez,Cotulla,81.1,151.95,72.57,136.08,360.61,Single-ply,SBD,F
Div 3,82.33,7,Piper Bush,Center Point,78.38,145.15,70.31,129.27,344.73,Single-ply,SBD,F
Div 3,82.33,8,Brittany Stafford,Hebbronville,81.83,140.61,56.7,140.61,337.93,Single-ply,SBD,F
Div 3,82.33,9,Grace Springs,Santa Gertrudis Academy,80.38,117.93,58.97,145.15,322.05,Single-ply,SBD,F
Div 3,82.33,DQ,Sara Cavasos,Bishop,77.29,136.08,,,,Single-ply,SBD,F
Div 3,90.04,1,Marisol Palacios,Poth,89.99,219.99,99.79,154.22,474,Single-ply,SBD,F
Div 3,90.04,2,Alexandria Garcia,Bishop,83.46,170.1,61.23,151.95,383.29,Single-ply,SBD,F
Div 3,90.04,3,Teresa Diaz,Three Rivers,82.92,136.08,52.16,147.42,335.66,Single-ply,SBD,F
Div 3,90.04,4,Jesslyn Benavidez,Cotulla,84.91,136.08,58.97,136.08,331.12,Single-ply,SBD,F
Div 3,90.04,5,Breana Briseno,Santa Gertrudis Academy,85.73,115.67,65.77,122.47,303.91,Single-ply,SBD,F
Div 3,90.04,6,Haylynn Garza,Marion,85.18,99.79,49.9,133.81,283.5,Single-ply,SBD,F
Div 3,90.04,7,Ashley Cuevas,Karnes City,82.92,113.4,49.9,111.13,274.42,Single-ply,SBD,F
Div 3,90.04,DQ,Alexia Soliz,Ben Bolt-Palito Blanco,88,145.15,,,,Single-ply,SBD,F
Div 3,90.04,DQ,Shaylia Tilley,Refugio,87.45,136.08,,,,Single-ply,SBD,F
Div 3,100.02,1,Jennifer Lozano,Hebbronville,91.81,170.1,72.57,161.03,403.7,Single-ply,SBD,F
Div 3,100.02,2,Stephanie Figueroa,Bishop,90.63,170.1,70.31,145.15,385.55,Single-ply,SBD,F
Div 3,100.02,3,Alliah Hildreth,Universal City Randolph,92.8,149.69,72.57,154.22,376.48,Single-ply,SBD,F
Div 3,100.02,4,Leila Bradley,Center Point,90.08,140.61,79.38,140.61,360.61,Single-ply,SBD,F
Div 3,100.02,5,Elizabeth Ledesma,Riviera Kaufer,95.16,163.29,65.77,129.27,358.34,Single-ply,SBD,F
Div 3,100.02,6,Aracely Flores,La Pryor,93.53,142.88,68.04,136.08,347,Single-ply,SBD,F
Div 3,100.02,7,Ariana Rodriguez,Brackettville Brackett,94.08,151.95,61.23,124.74,337.93,Single-ply,SBD,F
Div 3,100.02,8,Victoria Serna,Altair Rice,90.54,127.01,70.31,138.35,335.66,Single-ply,SBD,F
Div 3,100.02,9,Samantha Heimer,San Antonio Brooks Academy,94.44,124.74,74.84,113.4,312.98,Single-ply,SBD,F
Div 3,100.02,DQ,Mykayla Stehle,Ben Bolt-Palito Blanco,97.25,131.54,,,,Single-ply,SBD,F
Div 3,100.02+,1,Claudia Avila,Hebbronville,133.27,206.38,79.38,165.56,451.32,Single-ply,SBD,F
Div 3,100.02+,2,Lorena Vera,San Diego,106.59,181.44,92.99,170.1,444.52,Single-ply,SBD,F
Div 3,100.02+,3,Cynthia Garcia,Santa Gertrudis Academy,103.6,181.44,81.65,165.56,428.64,Single-ply,SBD,F
Div 3,100.02+,4,Cassandra Soto,Skidmore-Tynan,112.22,149.69,92.99,170.1,412.77,Single-ply,SBD,F
Div 3,100.02+,5,Karlee Lyon,Center Point,102.87,170.1,77.11,149.69,396.89,Single-ply,SBD,F
Div 3,100.02+,6,Lilia Delgado,La Pryor,156.13,149.69,86.18,154.22,390.09,Single-ply,SBD,F
Div 3,100.02+,7,Chelsea Cantu,Freer,106.68,151.95,61.23,142.88,356.07,Single-ply,SBD,F
Div 3,100.02+,8,Maizie Villarreal,George West,117.48,154.22,72.57,117.93,344.73,Single-ply,SBD,F
Div 3,100.02+,9,Jasia Cantu,Altair Rice,115.58,142.88,58.97,106.59,308.44,Single-ply,SBD,F
Div 3,100.02+,10,Jacklyn Perez,La Pryor,106.68,131.54,52.16,122.47,306.17,Single-ply,SBD,F
