Division,WeightClassKg,Place,Name,Team,BodyweightKg,Best3SquatKg,Best3BenchKg,Best3DeadliftKg,TotalKg,Equipment,Event,Sex
Boys,55.79,1,Jesse Ortiz,Sulphur Springs,51.8,149.69,74.84,154.22,378.75,Single-ply,SBD,M
Boys,51.71,2,Miguel Hernandez,Emory Rains,51.71,142.88,83.91,147.42,374.21,Single-ply,SBD,M
Boys,51.71,3,Corbin Craver,Mount Vernon,51.26,115.67,68.04,124.74,308.44,Single-ply,SBD,M
Boys,51.71,4,Jose Guajardo,Greenville,51.71,106.59,72.57,124.74,303.91,Single-ply,SBD,M
Boys,51.71,5,Marco Hernandez,Bonham,51.6,108.86,65.77,120.2,294.84,Single-ply,SBD,M
Boys,51.71,6,Baldemar Carbajal,Sherman,51.71,104.33,65.77,124.74,294.84,Single-ply,SBD,M
Boys,51.71,7,Juan Salazar,Bonham,50.8,111.13,58.97,115.67,285.76,Single-ply,SBD,M
Boys,51.71,8,Daniel Loredo,Bonham,50.35,106.59,54.43,122.47,283.5,Single-ply,SBD,M
Boys,51.71,9,Freddy Reyes,Greenville,49.44,106.59,47.63,99.79,254.01,Single-ply,SBD,M
Boys,51.71,10,Jake Hefton,Sherman,50.35,88.45,47.63,111.13,247.21,Single-ply,SBD,M
Boys,51.71,11,Dylan Simmons,Emory Rains,51.71,97.52,47.63,102.06,247.21,Single-ply,SBD,M
Boys,51.71,DQ,Adrian Brackens,Forney,51.71,124.74,,,,Single-ply,SBD,M
Boys,55.79,1,Cassius Fitzpatrick,Denison,54.43,142.88,83.91,151.95,378.75,Single-ply,SBD,M
Boys,55.79,2,Naire Gaines,Paris,55.79,145.15,81.65,149.69,376.48,Single-ply,SBD,M
Boys,55.79,3,Dakota Patton,Sulphur Springs,55.79,133.81,70.31,142.88,347,Single-ply,SBD,M
Boys,55.79,4,Jorge Solano,Bonham,54.43,133.81,61.23,145.15,340.19,Single-ply,SBD,M
Boys,59.87,5,Ryder Brock,Detroit,56.02,131.54,61.23,147.42,340.19,Single-ply,SBD,M
Boys,55.79,6,Austin Puetz,Paris,55.34,111.13,72.57,131.54,315.25,Single-ply,SBD,M
Boys,55.79,7,Garrett Weems,Emory Rains,54.88,120.2,65.77,117.93,303.91,Single-ply,SBD,M
Boys,55.79,8,Marcus Pierotek,Longview Pine Tree,53.52,113.4,63.5,113.4,290.3,Single-ply,SBD,M
Boys,55.79,9,Scott Dudley,Paris,55.79,104.33,56.7,117.93,278.96,Single-ply,SBD,M
Boys,55.79,10,Jesse Shizum,Denison,54.43,92.99,54.43,108.86,256.28,Single-ply,SBD,M
Boys,55.79,DQ,Joseph Rico,Forney,54.88,138.35,,,,Single-ply,SBD,M
Boys,59.87,1,JarMarkus Boyd,Ore City,59.42,167.83,108.86,176.9,453.59,Single-ply,SBD,M
Boys,59.87,2,Juan Mendez,Emory Rains,59.87,156.49,92.99,190.51,439.98,Single-ply,SBD,M
Boys,59.87,3,Ta'Montre Mitchell,Greenville,59.87,170.1,92.99,149.69,412.77,Single-ply,SBD,M
Boys,59.87,4,Luis Gamez,Sulphur Springs,56.25,147.42,99.79,163.29,410.5,Single-ply,SBD,M
Boys,67.13,5,Bayelei Doty,Greenville,60.1,140.61,83.91,140.61,365.14,Single-ply,SBD,M
Boys,59.87,6,Andrew Legrand,Texarkana Texas,59.87,124.74,74.84,136.08,335.66,Single-ply,SBD,M
Boys,59.87,7,Tk Mason,Paris,59.42,136.08,61.23,136.08,333.39,Single-ply,SBD,M
Boys,59.87,8,Scott Galarza,Sulphur Springs,58.97,115.67,65.77,136.08,317.51,Single-ply,SBD,M
Boys,59.87,9,Gilberto Torres,Forney,59.87,113.4,58.97,142.88,315.25,Single-ply,SBD,M
Boys,59.87,10,Zack Lester,Paris North Lamar,57.15,111.13,61.23,129.27,301.64,Single-ply,SBD,M
Boys,59.87,11,Sergio Camacho,Emory Rains,58.97,120.2,61.23,117.93,299.37,Single-ply,SBD,M
Boys,59.87,12,Eliud Gonzalez,Bonham,59.87,86.18,54.43,111.13,251.74,Single-ply,SBD,M
Boys,67.13,1,Clemetra Bailey,Paris,67.13,208.65,147.42,222.26,578.33,Single-ply,SBD,M
Boys,67.13,2,Cory Davis,Ore City,67.13,215.46,108.86,192.78,517.1,Single-ply,SBD,M
Boys,67.13,3,Chris Stephens,Sherman,65.77,188.24,92.99,188.24,469.47,Single-ply,SBD,M
Boys,67.13,4,Terrence Butler,Texarkana Texas,63.96,165.56,90.72,201.85,458.13,Single-ply,SBD,M
Boys,67.13,5,Robert Schilling,Bonham,63.05,165.56,83.91,181.44,430.91,Single-ply,SBD,M
Boys,67.13,6,Kenneth Buffin,Longview Pine Tree,64.86,158.76,90.72,165.56,415.04,Single-ply,SBD,M
Boys,67.13,7,Nathan Evans,Lindale,65.32,151.95,92.99,161.03,405.97,Single-ply,SBD,M
Boys,67.13,8,Brayden Holley,Greenville,65.32,147.42,92.99,136.08,376.48,Single-ply,SBD,M
Boys,67.13,9,Mikel Tharp,Detroit,67.13,149.69,79.38,140.61,369.68,Single-ply,SBD,M
Boys,67.13,10,Austin Blase,Mount Vernon,61.69,122.47,88.45,136.08,347,Single-ply,SBD,M
Boys,67.13,11,Zach Cariker,Ore City,66.22,124.74,79.38,136.08,340.19,Single-ply,SBD,M
Boys,67.13,12,Dan Paolucci,Texarkana Texas,66.68,120.2,74.84,136.08,331.12,Single-ply,SBD,M
Boys,67.13,13,Caleb Smith,Mount Vernon,65.77,122.47,90.72,111.13,324.32,Single-ply,SBD,M
Boys,67.13,14,Larry Sackett,Paris Chisum,61.69,104.33,56.7,120.2,281.23,Single-ply,SBD,M
Boys,67.13,15,Matt Whipkey,Lindale,63.96,83.91,40.82,117.93,242.67,Single-ply,SBD,M
Boys,74.84,1,Dominique Sanders,Paris,74.39,208.65,117.93,222.26,548.85,Single-ply,SBD,M
Boys,74.84,2,Jesse Hudson #1,Emory Rains,70.76,215.46,102.06,226.8,544.31,Single-ply,SBD,M
Boys,74.84,3,Christian Darter,Emory Rains,73.94,172.37,106.59,188.24,467.2,Single-ply,SBD,M
Boys,74.84,4,Jordon Jones,Sherman,74.84,181.44,92.99,188.24,462.66,Single-ply,SBD,M
Boys,74.84,5,Kd Cannon,Mount Pleasant,73.48,163.29,99.79,195.04,458.13,Single-ply,SBD,M
Boys,74.84,6,Larry Murphy,Texarkana Texas,74.84,165.56,106.59,176.9,449.06,Single-ply,SBD,M
Boys,74.84,7,Jacob Mitchell,Greenville,72.57,165.56,104.33,172.37,442.25,Single-ply,SBD,M
Boys,74.84,8,Chadd Perry,Sherman,74.84,145.15,92.99,165.56,403.7,Single-ply,SBD,M
Boys,74.84,9,Alex Gamez,Sulphur Springs,74.84,158.76,72.57,156.49,387.82,Single-ply,SBD,M
Boys,74.84,10,Daniel Thompson,Mount Pleasant,70.31,154.22,74.84,156.49,385.55,Single-ply,SBD,M
Boys,74.84,11,Dominique Allen,Daingerfield,74.84,113.4,86.18,149.69,349.27,Single-ply,SBD,M
Boys,74.84,12,Jacob Moore,Lindale,74.84,117.93,68.04,111.13,297.1,Single-ply,SBD,M
Boys,74.84,DQ,Brennan Davis,Mount Pleasant,73.03,149.69,,,,Single-ply,SBD,M
Boys,74.84,DQ,Tyler Cheves,Mount Vernon,74.84,,,,,Single-ply,SBD,M
Boys,74.84,DQ,Miguel Mejia,Sulphur Springs,72.57,170.1,,,,Single-ply,SBD,M
Boys,82.1,1,Adam Galaz,Lindale,80.74,249.48,131.54,231.33,612.35,Single-ply,SBD,M
Boys,82.1,2,Gannon Brown,Emory Rains,79.83,217.72,142.88,238.14,598.74,Single-ply,SBD,M
Boys,82.1,3,Tay Roper,Forney,78.02,217.72,104.33,244.94,566.99,Single-ply,SBD,M
Boys,82.1,4,Grant Russell,Emory Rains,82.1,181.44,122.47,247.21,551.11,Single-ply,SBD,M
Boys,82.1,5,Dedric Smith,Sulphur Springs,79.38,199.58,122.47,217.72,539.77,Single-ply,SBD,M
Boys,82.1,6,Colton Henslee,Denison,82.1,192.78,127.01,217.72,537.51,Single-ply,SBD,M
Boys,82.1,7,Kenton Manis,Bonham,78.93,197.31,104.33,222.26,523.9,Single-ply,SBD,M
Boys,82.1,8,Andrew Johnson #6,Paris North Lamar,81.19,183.7,106.59,206.38,496.68,Single-ply,SBD,M
Boys,82.1,9,Colton Wilson,Paris North Lamar,82.1,213.19,95.25,188.24,496.68,Single-ply,SBD,M
Boys,82.1,10,LaDarius Craddock,Mount Pleasant,79.38,188.24,111.13,190.51,489.88,Single-ply,SBD,M
Boys,82.1,11,JaKendrick Burns,Sherman,82.1,188.24,102.06,195.04,485.34,Single-ply,SBD,M
Boys,82.1,12,Orlando Mejia,Sherman,79.38,167.83,131.54,181.44,480.81,Single-ply,SBD,M
Boys,82.1,13,Tom Paolucci,Texarkana Texas,78.93,176.9,113.4,188.24,478.54,Single-ply,SBD,M
Boys,82.1,14,Brady Wilbanks,Longview Pine Tree,79.83,165.56,131.54,181.44,478.54,Single-ply,SBD,M
Boys,82.1,15,Nick Christen,Texarkana Texas,81.19,181.44,106.59,190.51,478.54,Single-ply,SBD,M
Boys,82.1,16,Trey Walker,Texarkana Texas,76.2,185.97,99.79,185.97,471.74,Single-ply,SBD,M
Boys,82.1,17,Travis Bryant,Detroit,80.74,190.51,90.72,190.51,471.74,Single-ply,SBD,M
Boys,82.1,18,Bowan Kirkbrive,Denison,80.29,183.7,113.4,172.37,469.47,Single-ply,SBD,M
Boys,82.1,19,Quay Ward,Longview Pine Tree,78.02,170.1,111.13,174.63,455.86,Single-ply,SBD,M
Boys,82.1,20,Clayton Wyman,Lindale,78.02,163.29,92.99,174.63,430.91,Single-ply,SBD,M
Boys,82.1,21,Dakota Moore,Paris North Lamar,79.83,154.22,104.33,167.83,426.38,Single-ply,SBD,M
Boys,82.1,22,Mason Wood,Lindale,81.19,156.49,97.52,172.37,426.38,Single-ply,SBD,M
Boys,89.81,23,Dylan Miers,Longview Pine Tree,82.33,145.15,90.72,181.44,417.3,Single-ply,SBD,M
Boys,82.1,24,Jordan Sanders,Paris,79.38,147.42,83.91,183.7,415.04,Single-ply,SBD,M
Boys,82.1,25,Kendall Alexander,Paris,80.74,161.03,90.72,161.03,412.77,Single-ply,SBD,M
Boys,82.1,26,Joshua Scoggin,Mount Pleasant,77.11,142.88,102.06,161.03,405.97,Single-ply,SBD,M
Boys,82.1,27,Chase Houston,Lindale,81.65,156.49,81.65,161.03,399.16,Single-ply,SBD,M
Boys,82.1,28,Dalon Rusk,Longview Pine Tree,78.93,151.95,81.65,163.29,396.89,Single-ply,SBD,M
Boys,82.1,29,Armando Cortes,Emory Rains,75.75,154.22,79.38,158.76,392.36,Single-ply,SBD,M
Boys,82.1,30,Keith Henderson,Detroit,81.65,136.08,81.65,147.42,365.14,Single-ply,SBD,M
Boys,82.1,31,Michael Murphy,Detroit,78.02,124.74,74.84,122.47,322.05,Single-ply,SBD,M
Boys,82.1,32,Kanard Mitchell,Mount Pleasant,80.74,113.4,70.31,136.08,319.78,Single-ply,SBD,M
Boys,82.1,33,Jacob DeHart,Lindale,80.74,120.2,61.23,131.54,312.98,Single-ply,SBD,M
Boys,82.1,34,Darius Samuels,Paris,79.38,120.2,61.23,127.01,308.44,Single-ply,SBD,M
Boys,82.1,35,Calvin Cook,Paris,76.66,79.38,56.7,104.33,240.4,Single-ply,SBD,M
Boys,89.81,1,Andrew Chirwa,Texarkana Texas,88,238.14,136.08,208.65,582.87,Single-ply,SBD,M
Boys,89.81,2,Fabi Molina,Lindale,88,195.04,117.93,206.38,519.36,Single-ply,SBD,M
Boys,89.81,3,Cody Brantley,Mount Pleasant,83.01,199.58,131.54,185.97,517.1,Single-ply,SBD,M
Boys,89.81,4,Harold Stoker,Texarkana Texas,85.28,188.24,113.4,201.85,503.49,Single-ply,SBD,M
Boys,89.81,5,Chance Hamilton,Greenville,89.81,181.44,108.86,210.92,501.22,Single-ply,SBD,M
Boys,89.81,6,Tyler Carpenter,Mount Vernon,84.82,197.31,97.52,204.12,498.95,Single-ply,SBD,M
Boys,89.81,7,Austin Cooper #4,Greenville,88.45,195.04,111.13,192.78,498.95,Single-ply,SBD,M
Boys,89.81,8,Chris Ferguson,Longview Pine Tree,88.45,195.04,111.13,185.97,492.15,Single-ply,SBD,M
Boys,89.81,9,Caleb Hill,Bonham,88,206.38,88.45,190.51,485.34,Single-ply,SBD,M
Boys,89.81,10,Blake Westbrook,Detroit,86.64,181.44,99.79,181.44,462.66,Single-ply,SBD,M
Boys,89.81,11,David de Santiago,Mount Vernon,88,165.56,127.01,167.83,460.4,Single-ply,SBD,M
Boys,89.81,12,Brandon Erickson,Detroit,89.81,170.1,113.4,165.56,449.06,Single-ply,SBD,M
Boys,89.81,13,Joseph Winton,Paris Chisum,85.28,158.76,104.33,181.44,444.52,Single-ply,SBD,M
Boys,89.81,14,Tristan McClure,Paris,86.64,192.78,74.84,167.83,435.45,Single-ply,SBD,M
Boys,89.81,15,Dylkn Retos,Paris Chisum,82.78,142.88,97.52,163.29,403.7,Single-ply,SBD,M
Boys,89.81,16,Draylon Porter,Sulphur Springs,88,142.88,88.45,170.1,401.43,Single-ply,SBD,M
Boys,89.81,17,Jacob Akard,Paris North Lamar,83.46,136.08,95.25,147.42,378.75,Single-ply,SBD,M
Boys,89.81,18,Drew Coleman,Forney,84.82,151.95,65.77,154.22,371.95,Single-ply,SBD,M
Boys,89.81,19,Brandon Foster,Sulphur Springs,87.09,142.88,97.52,131.54,371.95,Single-ply,SBD,M
Boys,89.81,20,Kenneth Robinson,Paris,85.73,154.22,52.16,156.49,362.87,Single-ply,SBD,M
Boys,89.81,21,Matt Speegle,Longview Pine Tree,88.45,142.88,65.77,147.42,356.07,Single-ply,SBD,M
Boys,89.81,22,Brice Walker,Lindale,85.73,108.86,86.18,140.61,335.66,Single-ply,SBD,M
Boys,89.81,DQ,Santiago Flores,Forney,83.01,,,,,Single-ply,SBD,M
Boys,99.79,1,Delenis Garrett,Lindale,98.43,235.87,142.88,206.38,585.13,Single-ply,SBD,M
Boys,99.79,2,Braylon Champion,Greenville,97.52,195.04,129.27,233.6,557.92,Single-ply,SBD,M
Boys,99.79,3,Corey Lowe,Texarkana Texas,91.17,206.38,120.2,219.99,546.58,Single-ply,SBD,M
Boys,99.79,4,Landon Wright,Lindale,99.79,208.65,113.4,210.92,532.97,Single-ply,SBD,M
Boys,99.79,5,Cipriano Gonzales,Greenville,92.99,204.12,140.61,183.7,528.44,Single-ply,SBD,M
Boys,99.79,6,Geoffrey Smith,Paris,97.52,183.7,113.4,226.8,523.9,Single-ply,SBD,M
Boys,99.79,7,Tariq Hill,Texarkana Texas,97.98,213.19,108.86,199.58,521.63,Single-ply,SBD,M
Boys,99.79,8,Will Jamar,Paris North Lamar,92.99,181.44,142.88,176.9,501.22,Single-ply,SBD,M
Boys,99.79,9,Anthony Rhone,Texarkana Texas,94.8,192.78,104.33,199.58,496.68,Single-ply,SBD,M
Boys,99.79,10,Jerrille Hughes,Sherman,97.98,181.44,106.59,181.44,469.47,Single-ply,SBD,M
Boys,99.79,11,Will Anderson,Mount Pleasant,99.79,163.29,108.86,172.37,444.52,Single-ply,SBD,M
Boys,99.79,12,Cody Berry,Paris North Lamar,99.79,163.29,99.79,181.44,444.52,Single-ply,SBD,M
Boys,99.79,13,Myles Morgan,Lindale,93.89,154.22,106.59,172.37,433.18,Single-ply,SBD,M
Boys,99.79,14,Jacob Adams,Lindale,98.88,129.27,63.5,113.4,306.17,Single-ply,SBD,M
Boys,109.77,1,Eddie Calico,Longview Pine Tree,109.32,317.51,210.92,294.84,823.27,Single-ply,SBD,M
Boys,109.77,2,Stetson Farrell,Lindale,107.5,251.74,149.69,208.65,610.08,Single-ply,SBD,M
Boys,109.77,3,Josh Heath,Denison,102.51,219.99,133.81,226.8,580.6,Single-ply,SBD,M
Boys,109.77,4,Sergio Orona,Denison,105.69,226.8,136.08,217.72,580.6,Single-ply,SBD,M
Boys,109.77,5,Mikey Dobbles,Bonham,102.06,222.26,124.74,219.99,566.99,Single-ply,SBD,M
Boys,109.77,6,Tyler Trammel,Paris North Lamar,107.05,213.19,145.15,195.04,553.38,Single-ply,SBD,M
Boys,109.77,7,Quay Evans,Mount Vernon,104.33,215.46,106.59,197.31,519.36,Single-ply,SBD,M
Boys,109.77,8,Cody Ray,Forney,109.32,195.04,102.06,199.58,496.68,Single-ply,SBD,M
Boys,109.77,9,Charles Smith,Greenville,105.69,181.44,113.4,192.78,487.61,Single-ply,SBD,M
Boys,109.77,10,Seth Harred,Sulphur Springs,106.14,181.44,122.47,179.17,483.08,Single-ply,SBD,M
Boys,109.77,11,Zach Spurgin,Greenville,103.87,179.17,120.2,181.44,480.81,Single-ply,SBD,M
Boys,109.77,12,Tyler Carter,Paris North Lamar,103.87,170.1,124.74,185.97,480.81,Single-ply,SBD,M
Boys,109.77,13,Isaiah Alvarez,Lindale,102.97,199.58,111.13,165.56,476.27,Single-ply,SBD,M
Boys,109.77,14,Tito Rivera,Paris Chisum,108.41,181.44,102.06,183.7,467.2,Single-ply,SBD,M
Boys,109.77,15,Isaiah Epperson,Paris,107.95,176.9,113.4,172.37,462.66,Single-ply,SBD,M
Boys,109.77,16,Luke Hooten,Emory Rains,109.77,213.19,97.52,145.15,455.86,Single-ply,SBD,M
Boys,109.77,17,Niko Overa,Mount Pleasant,100.24,170.1,111.13,165.56,446.79,Single-ply,SBD,M
Boys,109.77,18,Jose Ranirez,Lindale,103.42,181.44,79.38,183.7,444.52,Single-ply,SBD,M
Boys,109.77,19,Cameron Fleming,Lindale,108.41,158.76,90.72,163.29,412.77,Single-ply,SBD,M
Boys,109.77,20,Aaron Burks,Mount Pleasant,105.23,174.63,90.72,136.08,401.43,Single-ply,SBD,M
Boys,109.77,21,Grant Burns,Texarkana Texas,102.51,158.76,83.91,147.42,390.09,Single-ply,SBD,M
Boys,109.77,22,Layton Pace,Sulphur Springs,102.97,131.54,77.11,136.08,344.73,Single-ply,SBD,M
Boys,109.77,DQ,Matthew Davis #1,Texarkana Texas,107.05,117.93,,,,Single-ply,SBD,M
Boys,109.77,DQ,Justin Guth,Denison,105.69,,,,,Single-ply,SBD,M
Boys,124.74,1,Justin Lewis,Texarkana Texas,117.93,281.23,154.22,249.48,684.92,Single-ply,SBD,M
Boys,124.74,2,Justin Bigelow,Denison,116.57,249.48,174.63,240.4,664.51,Single-ply,SBD,M
Boys,124.74,3,Dillon Stevens,Greenville,117.93,213.19,138.35,204.12,555.65,Single-ply,SBD,M
Boys,124.74,4,James Hanson,Mount Pleasant,112.04,213.19,108.86,226.8,548.85,Single-ply,SBD,M
Boys,124.74,5,Matt Price,Forney,123.38,215.46,102.06,219.99,537.51,Single-ply,SBD,M
Boys,124.74,6,Heath Howard,Sulphur Springs,112.49,183.7,147.42,201.85,532.97,Single-ply,SBD,M
Boys,124.74,7,Mitchell Wheat,Greenville,119.75,215.46,127.01,181.44,523.9,Single-ply,SBD,M
Boys,124.74,8,Landon Watkins,Sulphur Springs,116.12,183.7,142.88,190.51,517.1,Single-ply,SBD,M
Boys,124.74,9,Dj Briscoe,Sherman,116.57,201.85,133.81,181.44,517.1,Single-ply,SBD,M
Boys,124.74,10,Max DeLahoya,Lindale,112.49,195.04,104.33,190.51,489.88,Single-ply,SBD,M
Boys,124.74,11,Clayton Amendson,Forney,117.03,192.78,108.86,183.7,485.34,Single-ply,SBD,M
Boys,124.74,12,Zach Watkins,Lindale,120.2,181.44,92.99,172.37,446.79,Single-ply,SBD,M
Boys,124.74,13,Riley Coker,Paris,124.28,165.56,97.52,158.76,421.84,Single-ply,SBD,M
Boys,124.74,14,James Murphy,Texarkana Texas,116.12,138.35,88.45,136.08,362.87,Single-ply,SBD,M
Boys,124.74,15,Jo Grant,Texarkana Texas,124.74,113.4,86.18,161.03,360.61,Single-ply,SBD,M
Boys,124.74,DQ,Joel Bautista,Mount Pleasant,119.29,231.33,,,,Single-ply,SBD,M
Boys,124.74,DQ,Levi Williams,Sulphur Springs,118.84,172.37,113.4,,,Single-ply,SBD,M
Boys,124.74+,1,Blake Cunningham,Denison,151.05,226.8,156.49,201.85,585.13,Single-ply,SBD,M
Boys,124.74+,2,Jackie Berry,Paris North Lamar,127.46,224.53,115.67,240.4,580.6,Single-ply,SBD,M
Boys,124.74+,3,Francisco Morales,Mount Pleasant,125.65,208.65,106.59,199.58,514.83,Single-ply,SBD,M
Boys,124.74+,4,Zac Migues,Mount Vernon,132.45,197.31,124.74,192.78,514.83,Single-ply,SBD,M
Boys,124.74+,5,Lane Allen,Detroit,127.46,183.7,113.4,192.78,489.88,Single-ply,SBD,M
Boys,124.74+,6,Colton Moore,Lindale,134.26,188.24,111.13,181.44,480.81,Single-ply,SBD,M
Boys,124.74+,7,Enoch Johnson,Sherman,131.09,199.58,97.52,174.63,471.74,Single-ply,SBD,M
Boys,124.74+,8,Tray Sewell,Bonham,133.36,183.7,113.4,170.1,467.2,Single-ply,SBD,M
Boys,124.74+,9,Alunte Jackson,Longview Pine Tree,154.22,165.56,90.72,165.56,421.84,Single-ply,SBD,M
Boys,124.74+,10,Keithon Walker,Daingerfield,134.26,172.37,81.65,136.08,390.09,Single-ply,SBD,M
