Division,WeightClassKg,Place,Name,Team,BodyweightKg,Best3SquatKg,Best3BenchKg,Best3DeadliftKg,TotalKg,Equipment,Event,Sex
Boys,51.71,1,Hector Gonzalez,Baytown Goose Creek Memorial,50.8,111.13,72.57,117.93,301.64,Single-ply,SBD,M
Boys,55.79,1,Ty Pafford,Dayton,55.34,147.42,70.31,136.08,353.8,Single-ply,SBD,M
Boys,67.13,1,Christian Hendricks,Baytown Goose Creek Memorial,61.87,124.74,72.57,120.2,317.51,Single-ply,SBD,M
Boys,74.84,1,Christian Ramirez,Dayton,67.86,172.37,97.52,183.7,453.59,Single-ply,SBD,M
Boys,74.84,2,Cam'ron Willis,Dayton,71.12,142.88,70.31,158.76,371.95,Single-ply,SBD,M
Boys,74.84,3,Jt Williams,Liberty,74.84,127.01,79.38,163.29,369.68,Single-ply,SBD,M
Boys,74.84,4,Jacob Perez #5,Baytown Goose Creek Memorial,67.59,52.16,31.75,54.43,138.35,Single-ply,SBD,M
Boys,74.84,DQ,Joseph Sterling,Liberty,74.84,,83.91,,,Single-ply,SBD,M
Boys,74.84,DQ,Gonzalo Perez,Baytown Goose Creek Memorial,71.12,92.99,,,,Single-ply,SBD,M
Boys,82.1,1,KeShaun Jnoffin,Baytown Goose Creek Memorial,76.75,199.58,113.4,206.38,519.36,Single-ply,SBD,M
Boys,82.1,2,Bryce Johnston,Baytown Goose Creek Memorial,76.38,170.1,106.59,183.7,460.4,Single-ply,SBD,M
Boys,82.1,3,Ragis Fontenot,Liberty,82.1,161.03,106.59,172.37,439.98,Single-ply,SBD,M
Boys,82.1,4,Zach Pike,Dayton,77.02,172.37,88.45,165.56,426.38,Single-ply,SBD,M
Boys,82.1,5,Jay Page,Dayton,78.65,156.49,79.38,165.56,401.43,Single-ply,SBD,M
Boys,82.1,6,Elijah Cruz,Baytown Goose Creek Memorial,77.75,142.88,102.06,151.95,396.89,Single-ply,SBD,M
Boys,82.1,7,Tod Ulrich,Baytown Goose Creek Memorial,78.11,151.95,92.99,129.27,374.21,Single-ply,SBD,M
Boys,89.81,1,Gavin Bennett,Dayton,89.72,204.12,113.4,215.46,532.97,Single-ply,SBD,M
Boys,89.81,2,Jordan LeDay,Liberty,89.81,197.31,97.52,210.92,505.76,Single-ply,SBD,M
Boys,89.81,3,Jyro Ayson,Baytown Goose Creek Memorial,86.45,133.81,86.18,127.01,347,Single-ply,SBD,M
Boys,99.79,1,Johnny Hoy,Dayton,93.53,183.7,113.4,183.7,480.81,Single-ply,SBD,M
Boys,99.79,2,Hector Lopez,Liberty,94.35,174.63,102.06,183.7,460.4,Single-ply,SBD,M
Boys,109.77,1,Mark St Julian,Dayton,103.24,208.65,113.4,217.72,539.77,Single-ply,SBD,M
Boys,109.77,2,Tim Sjolander,Dayton,106.68,172.37,113.4,192.78,478.54,Single-ply,SBD,M
Boys,109.77,3,Ricky Owens,Liberty,109.77,158.76,102.06,183.7,444.52,Single-ply,SBD,M
Boys,109.77,4,Zachary Davis,Liberty,107.5,136.08,65.77,142.88,344.73,Single-ply,SBD,M
Boys,109.77,DQ,Alex Pancheco,Liberty,109.77,,,,,Single-ply,SBD,M
Boys,124.74,1,Shohn Alexander,Dayton,111.77,238.14,149.69,199.58,587.4,Single-ply,SBD,M
Boys,124.74,2,Lucas Tanton,Dayton,124.01,226.8,142.88,217.72,587.4,Single-ply,SBD,M
Boys,124.74,3,Dalton Patterson,Dayton,122.02,192.78,136.08,199.58,528.44,Single-ply,SBD,M
Boys,124.74,4,Chandler Sanders,Liberty,124.74,195.04,111.13,199.58,505.76,Single-ply,SBD,M
Boys,124.74+,1,Haiden Shostak,Baytown Goose Creek Memorial,158.3,195.04,113.4,204.12,512.56,Single-ply,SBD,M
Boys,124.74+,2,Seth Sterns,Liberty,129.27,172.37,102.06,201.85,476.27,Single-ply,SBD,M
Boys,,NS,Alex Smith #3,Anahuac,,,,,,Single-ply,SBD,M
Boys,,NS,Nan Pham,Anahuac,,,,,,Single-ply,SBD,M
Boys,,NS,Kevin Hernandez,Anahuac,,,,,,Single-ply,SBD,M
Boys,,NS,Logan Dehoyos,Anahuac,,,,,,Single-ply,SBD,M
Boys,,NS,Logan Hill,Anahuac,,,,,,Single-ply,SBD,M
Boys,,NS,Arnaldo Rodriguez,Anahuac,,,,,,Single-ply,SBD,M
Boys,,NS,Tai Pham,Anahuac,,,,,,Single-ply,SBD,M
Boys,,NS,Deen Allen,Anahuac,,,,,,Single-ply,SBD,M
