Division,WeightClassKg,Place,Name,Team,BodyweightKg,Best3SquatKg,Best3BenchKg,Best3DeadliftKg,TotalKg,Equipment,Event,Sex
Boys,51.71,1,Joseph Dodds,Dickinson,51.17,165.56,88.45,154.22,408.23,Single-ply,SBD,M
Boys,55.79,2,Masih Zaman,Katy Mayde Creek,51.94,124.74,81.65,142.88,349.27,Single-ply,SBD,M
Boys,51.71,3,Fidencio Cruz,Dickinson,49.35,124.74,58.97,120.2,303.91,Single-ply,SBD,M
Boys,51.71,4,Brian Frank,Houston Madison,50.8,104.33,54.43,115.67,274.42,Single-ply,SBD,M
Boys,51.71,5,Anthony Galvan,Channelview,49.44,102.06,56.7,113.4,272.16,Single-ply,SBD,M
Boys,51.71,6,LaDarius Peterson,Houston Madison,50.8,104.33,52.16,115.67,272.16,Single-ply,SBD,M
Boys,51.71,7,Jake Nash,Alvin,49.08,68.04,40.82,90.72,199.58,Single-ply,SBD,M
Boys,51.71,DQ,Melvin Turman,Channelview,51.71,,,,,Single-ply,SBD,M
Boys,59.87,1,Andrew Brooks,Houston Madison,55.88,176.9,102.06,172.37,451.32,Single-ply,SBD,M
Boys,59.87,2,Merbin Valladares,Katy Mayde Creek,56.02,127.01,65.77,158.76,351.53,Single-ply,SBD,M
Boys,55.79,3,Jacob Simpson,Houston Bellaire,53.89,120.2,83.91,136.08,340.19,Single-ply,SBD,M
Boys,55.79,4,Jamahl Johnson,Houston Cypress Woods,52.62,115.67,70.31,138.35,324.32,Single-ply,SBD,M
Boys,59.87,5,Tony Nava,Houston Chavez,55.88,124.74,61.23,113.4,299.37,Single-ply,SBD,M
Boys,55.79,6,Don Hernandez,Danbury,55.16,127.01,68.04,142.88,337.93,Single-ply,SBD,M
Boys,55.79,6,Bryce Walker,Houston Madison,55.43,131.54,,136.08,267.62,Single-ply,SD,M
Boys,55.79,7,Jeff Ryan,Danbury,53.8,102.06,52.16,102.06,256.28,Single-ply,SBD,M
Boys,59.87,1,Chris Smith #21,Katy Mayde Creek,58.88,208.65,120.2,238.14,566.99,Single-ply,SBD,M
Boys,59.87,2,Rodney Bigham,Channelview,59.51,183.7,120.2,188.24,492.15,Single-ply,SBD,M
Boys,67.13,3,Alex Sharp,Dickinson,60.06,190.51,92.99,172.37,455.86,Single-ply,SBD,M
Boys,59.87,4,Juan Nunez,Katy Mayde Creek,59.15,142.88,79.38,154.22,376.48,Single-ply,SBD,M
Boys,59.87,5,Casey Hicks,Houston Cypress Woods,58.88,142.88,83.91,147.42,374.21,Single-ply,SBD,M
Boys,59.87,7,Ramiro Barron,Danbury,58.24,122.47,65.77,136.08,324.32,Single-ply,SBD,M
Boys,67.13,1,Ronald Winston,Katy Mayde Creek,67.13,181.44,97.52,190.51,469.47,Single-ply,SBD,M
Boys,67.13,2,Jesse Trevino,Houston Chavez,64.86,183.7,99.79,183.7,467.2,Single-ply,SBD,M
Boys,67.13,3,Kevin Green,Katy Mayde Creek,66.13,192.78,102.06,170.1,464.93,Single-ply,SBD,M
Boys,67.13,4,Kevin Reid,Houston Bellaire,63.96,131.54,102.06,167.83,401.43,Single-ply,SBD,M
Boys,67.13,5,Josh McDowell,Alvin,65.5,151.95,92.99,151.95,396.89,Single-ply,SBD,M
Boys,67.13,6,Dorian Taylor,Houston Madison,60.33,142.88,79.38,147.42,369.68,Single-ply,SBD,M
Boys,67.13,7,Matt Shaver,Danbury,63.14,131.54,79.38,142.88,353.8,Single-ply,SBD,M
Boys,67.13,8,Gilberto Cantu,Houston Chavez,61.78,92.99,68.04,170.1,331.12,Single-ply,SBD,M
Boys,67.13,9,Oscar Abrego,Houston Chavez,63.59,129.27,68.04,124.74,322.05,Single-ply,SBD,M
Boys,67.13,10,Rosendo Media,Danbury,61.69,104.33,52.16,111.13,267.62,Single-ply,SBD,M
Boys,67.13,11,Zaheer Alii,Houston Bellaire,66.04,113.4,,122.47,235.87,Single-ply,SD,M
Boys,74.84,1,Luke Chimes,Dickinson,73.39,201.85,127.01,204.12,532.97,Single-ply,SBD,M
Boys,74.84,2,Colton Beardmore,Houston Cypress Woods,71.3,188.24,111.13,199.58,498.95,Single-ply,SBD,M
Boys,74.84,3,Shamus Johnson,Katy Mayde Creek,73.57,195.04,106.59,183.7,485.34,Single-ply,SBD,M
Boys,74.84,4,Danzel Granderson,Channelview,67.68,165.56,106.59,210.92,483.08,Single-ply,SBD,M
Boys,74.84,5,Shawn Foster,Dickinson,68.04,183.7,102.06,174.63,460.4,Single-ply,SBD,M
Boys,74.84,6,AJ Coleman,Houston Chavez,73.66,183.7,90.72,185.97,460.4,Single-ply,SBD,M
Boys,74.84,7,Michael Owens,Houston Cypress Woods,71.21,170.1,113.4,161.03,444.52,Single-ply,SBD,M
Boys,74.84,8,Robert Coneley,Dickinson,73.84,170.1,102.06,167.83,439.98,Single-ply,SBD,M
Boys,74.84,9,Matt Wynn,Danbury,74.21,170.1,81.65,181.44,433.18,Single-ply,SBD,M
Boys,74.84,10,Eric Morales,Houston Bellaire,69.31,142.88,104.33,176.9,424.11,Single-ply,SBD,M
Boys,74.84,11,Jonathan Vasquez,Houston Bellaire,74.84,151.95,106.59,151.95,410.5,Single-ply,SBD,M
Boys,74.84,12,Foyt Jacob,Danbury,71.03,99.79,90.72,136.08,326.59,Single-ply,SBD,M
Boys,74.84,13,Brian Thomas,Houston Madison,69.13,158.76,,133.81,292.57,Single-ply,SD,M
Boys,74.84,14,Dammar Dunning,Alvin,74.48,161.03,111.13,,272.16,Single-ply,SB,M
Boys,82.1,15,Darrell Jackson,Houston Madison,75.02,113.4,,129.27,242.67,Single-ply,SD,M
Boys,74.84,DQ,George Sanders,Houston Chavez,74.84,,,,,Single-ply,SD,M
Boys,82.1,1,Kevin Orellana,Katy Mayde Creek,80.74,240.4,120.2,233.6,594.21,Single-ply,SBD,M
Boys,82.1,2,Justin Hicks,Channelview,79.11,215.46,124.74,215.46,555.65,Single-ply,SBD,M
Boys,82.1,3,Ashton Smith,Channelview,82.1,215.46,124.74,188.24,528.44,Single-ply,SBD,M
Boys,82.1,4,Jeremy Conley,Houston Cypress Woods,76.11,192.78,129.27,204.12,526.17,Single-ply,SBD,M
Boys,82.1,5,Patrick Schultz,Alvin,80.92,185.97,129.27,197.31,512.56,Single-ply,SBD,M
Boys,82.1,6,Garrett Reagan,Dickinson,77.02,199.58,106.59,201.85,508.02,Single-ply,SBD,M
Boys,89.81,7,John Le,Dickinson,82.28,204.12,111.13,183.7,498.95,Single-ply,SBD,M
Boys,89.81,8,Jessie Hollis,Alvin,82.28,183.7,106.59,204.12,494.42,Single-ply,SBD,M
Boys,82.1,9,Armani Mouton,Dickinson,80.38,156.49,111.13,170.1,437.72,Single-ply,SBD,M
Boys,82.1,10,Tim Gay,Houston Chavez,81.56,165.56,88.45,183.7,437.72,Single-ply,SBD,M
Boys,82.1,11,D'Andre Woods,Alvin,81.37,149.69,120.2,156.49,426.38,Single-ply,SBD,M
Boys,82.1,12,Juan Delgado,Danbury,77.84,154.22,90.72,163.29,408.23,Single-ply,SBD,M
Boys,82.1,13,Caleb Osborn,Danbury,82.1,154.22,81.65,163.29,399.16,Single-ply,SBD,M
Boys,82.1,14,Johnny Robertson,Houston Sam Houston,77.75,131.54,79.38,142.88,353.8,Single-ply,SBD,M
Boys,82.1,15,Raul Gama,Houston Sam Houston,76.84,102.06,79.38,136.08,317.51,Single-ply,SBD,M
Boys,82.1,DQ,Alfredo Franco,Houston Sam Houston,82.1,,,,,Single-ply,SBD,M
Boys,82.1,DQ,William Moore,Houston Madison,81.65,,,,,Single-ply,SBD,M
Boys,82.1,DQ,Eric Deveaux,Houston Madison,82.1,,,,,Single-ply,SBD,M
Boys,82.1,DQ,Jose Baltazar,Danbury,82.1,,,,,Single-ply,SBD,M
Boys,89.81,1,Tony Pullings,Katy Mayde Creek,88.27,254.01,147.42,215.46,616.89,Single-ply,SBD,M
Boys,89.81,2,Dustin Hicks,Channelview,85.37,208.65,142.88,210.92,562.45,Single-ply,SBD,M
Boys,89.81,3,Brian Cobb,Houston Cypress Woods,88.99,215.46,129.27,204.12,548.85,Single-ply,SBD,M
Boys,89.81,4,Jason Ramirez,Channelview,87.63,204.12,124.74,215.46,544.31,Single-ply,SBD,M
Boys,89.81,5,Trey Valdez,Houston Cypress Woods,86.09,201.85,102.06,204.12,508.02,Single-ply,SBD,M
Boys,89.81,6,Derrick Thompson,Houston Chavez,88.9,158.76,102.06,174.63,435.45,Single-ply,SBD,M
Boys,89.81,7,Chris Chaison,Houston Madison,89.27,149.69,95.25,167.83,412.77,Single-ply,SBD,M
Boys,89.81,8,Daniel Arias,Houston Madison,87.36,158.76,88.45,158.76,405.97,Single-ply,SBD,M
Boys,89.81,9,Ceasar Garza,Houston Chavez,85.18,147.42,113.4,138.35,399.16,Single-ply,SBD,M
Boys,89.81,10,Anthony Garza,Alvin,88.63,158.76,,179.17,337.93,Single-ply,SD,M
Boys,89.81,11,Walter Pratt,Houston Sam Houston,85.18,113.4,74.84,138.35,326.59,Single-ply,SBD,M
Boys,89.81,DQ,Eric Olvera,Houston Sam Houston,89.81,,,,,Single-ply,SBD,M
Boys,89.81,DQ,Jordan Glenn,Houston Bellaire,89.81,,,,,Single-ply,SBD,M
Boys,99.79,1,Stephon Williams,Houston Madison,99.06,238.14,140.61,240.4,619.15,Single-ply,SBD,M
Boys,99.79,2,Dylan Thompson,Houston Cypress Woods,93.71,210.92,147.42,215.46,573.79,Single-ply,SBD,M
Boys,99.79,3,Julian Jimenez,Katy Mayde Creek,91.53,199.58,113.4,201.85,514.83,Single-ply,SBD,M
Boys,99.79,4,Roderick Wiltz,Houston Madison,96.07,192.78,133.81,183.7,510.29,Single-ply,SBD,M
Boys,99.79,5,Anthony Frank,Houston Madison,98.7,174.63,120.2,185.97,480.81,Single-ply,SBD,M
Boys,99.79,6,Ambrose Paige,Houston Bellaire,99.16,167.83,131.54,181.44,480.81,Single-ply,SBD,M
Boys,99.79,7,Segundo Abrego,Houston Chavez,93.35,161.03,113.4,188.24,462.66,Single-ply,SBD,M
Boys,99.79,8,Anthony Hollis,Alvin,96.62,158.76,92.99,204.12,455.86,Single-ply,SBD,M
Boys,99.79,9,Brady Hudson,Alvin,91.9,170.1,97.52,174.63,442.25,Single-ply,SBD,M
Boys,99.79,10,Kenneth Quintana,Channelview,97.7,154.22,113.4,172.37,439.98,Single-ply,SBD,M
Boys,99.79,DQ,Glenn Brown,Houston Chavez,99.79,,,,,Single-ply,SBD,M
Boys,99.79,DQ,Alex Flores,Houston Madison,96.16,,,,,Single-ply,SBD,M
Boys,109.77,1,Josue Toledo,Channelview,106.23,226.8,124.74,238.14,589.67,Single-ply,SBD,M
Boys,109.77,2,Jared Baker,Houston Cypress Woods,109.59,233.6,129.27,226.8,589.67,Single-ply,SBD,M
Boys,109.77,3,Brett Urbanowski,Katy Mayde Creek,109.68,204.12,124.74,226.8,555.65,Single-ply,SBD,M
Boys,109.77,4,Matt White,Alvin,102.06,192.78,145.15,197.31,535.24,Single-ply,SBD,M
Boys,109.77,5,Estevan Villarreal,Houston Cypress Woods,107.41,204.12,136.08,192.78,532.97,Single-ply,SBD,M
Boys,109.77,6,Nick Simpson #5,Houston Madison,102.69,185.97,111.13,199.58,496.68,Single-ply,SBD,M
Boys,109.77,7,Jonathan Romero,Houston Madison,109.23,181.44,99.79,156.49,437.72,Single-ply,SBD,M
Boys,109.77,8,Jemi Villa,Houston Sam Houston,102.06,102.06,142.88,158.76,403.7,Single-ply,SBD,M
Boys,109.77,9,Richard Russell,Houston Madison,105.78,181.44,,136.08,317.51,Single-ply,SD,M
Boys,124.74,1,Frank Green,Dickinson,118.02,317.51,185.97,249.48,752.96,Single-ply,SBD,M
Boys,124.74,2,Matt Simonette,Houston Bellaire,124.74,226.8,165.56,204.12,596.47,Single-ply,SBD,M
Boys,124.74,3,Terran Alvez,Houston Cypress Woods,114.94,204.12,149.69,206.38,560.19,Single-ply,SBD,M
Boys,124.74,4,Michael Abrams,Houston Bellaire,122.29,226.8,115.67,199.58,542.04,Single-ply,SBD,M
Boys,124.74,5,Chris Rose,Houston Madison,119.57,204.12,129.27,190.51,523.9,Single-ply,SBD,M
Boys,124.74,6,Lamii Kawami,Houston Madison,115.76,192.78,136.08,158.76,487.61,Single-ply,SBD,M
Boys,124.74,7,Javier Roel,Houston Sam Houston,123.1,151.95,92.99,181.44,426.38,Single-ply,SBD,M
Boys,124.74,8,Dillan Warner,Danbury,114.67,158.76,68.04,136.08,362.87,Single-ply,SBD,M
Boys,124.74,9,Cleveland Simms,Houston Madison,122.83,102.06,83.91,136.08,322.05,Single-ply,SBD,M
Boys,124.74+,1,Charles Phillips,Houston Madison,132.09,217.72,161.03,158.76,537.51,Single-ply,SBD,M
Boys,124.74+,2,Felix Aguirre,Houston Sam Houston,151.59,210.92,124.74,174.63,510.29,Single-ply,SBD,M
Boys,124.74+,3,Joseph Dartez,Dickinson,132.99,183.7,97.52,149.69,430.91,Single-ply,SBD,M
Boys,124.74+,DQ,Anthony Landry,Houston Bellaire,125.19,,,,,Single-ply,SBD,M
