Division,WeightClassKg,Place,Name,Team,BodyweightKg,Best3SquatKg,Best3BenchKg,Best3DeadliftKg,TotalKg,Equipment,Event,Sex,BirthDate
Girls,44.23,1,Cat Graves,Palacios,43.14,70.31,52.16,77.11,199.58,Single-ply,SBD,F,
Girls,44.23,2,Whitni Clowers,Edna,43,65.77,34.02,86.18,185.97,Single-ply,SBD,F,
Girls,44.23,3,Jade Kuykendall,Hitchcock,42.91,65.77,38.56,74.84,179.17,Single-ply,SBD,F,
Girls,44.23,4,Bailey Cason,Van Vleck,43.09,61.23,34.02,81.65,176.9,Single-ply,SBD,F,
Girls,44.23,5,Annalyse Roque,Woodville,42.86,61.23,29.48,65.77,156.49,Single-ply,SBD,F,
Girls,44.23,6,Anjelina Balsemo,El Maton Tidehaven,42.86,52.16,29.48,65.77,147.42,Single-ply,SBD,F,
Girls,44.23,7,Natalie Sanchez,Louise,39.96,45.36,27.22,72.57,145.15,Single-ply,SBD,F,
Girls,44.23,8,Hope Cloutman,Louise,42.59,49.9,29.48,65.77,145.15,Single-ply,SBD,F,
Girls,44.23,DQ,Maggie Mixon,Edna,43.45,,,,,Single-ply,SBD,F,
Girls,47.85,1,Hannah Cantrell,Hitchcock,47.26,106.59,54.43,120.2,281.23,Single-ply,SBD,F,
Girls,47.85,2,Alyssa Milstead,Buna,46.63,102.06,54.43,102.06,258.55,Single-ply,SBD,F,
Girls,47.85,3,Shelby Sliva,El Maton Tidehaven,46.95,90.72,54.43,92.99,238.14,Single-ply,SBD,F,
Girls,47.85,4,Hailey McClure,Woodville,46.54,74.84,47.63,104.33,226.8,Single-ply,SBD,F,
Girls,47.85,5,Grace Suggett,Deweyville,45.5,83.91,34.02,77.11,195.04,Single-ply,SBD,F,
Girls,47.85,DQ,Suzanna Garcia,Boling,47.63,,,,,Single-ply,SBD,F,
Girls,51.94,1,Jamie Delacruz,Winnie East Chambers,51.17,120.2,68.04,124.74,312.98,Single-ply,SBD,F,
Girls,51.94,2,Annahy Gonzalez,Hitchcock,49.8,117.93,49.9,127.01,294.84,Single-ply,SBD,F,
Girls,51.94,3,Donna Barajas,Ganado,50.89,115.67,47.63,111.13,274.42,Single-ply,SBD,F,
Girls,51.94,4,Cynthia Shehane,Coldspring-Oakhurst,51.89,95.25,52.16,102.06,249.48,Single-ply,SBD,F,
Girls,51.94,5,Rori Stevens,Winnie East Chambers,50.94,83.91,49.9,95.25,229.06,Single-ply,SBD,F,
Girls,51.94,6,Alaina Lawson,Corrigan-Camden,48.22,81.65,36.29,108.86,226.8,Single-ply,SBD,F,
Girls,51.94,7,Whitney Vera,Corrigan-Camden,49.4,79.38,40.82,97.52,217.72,Single-ply,SBD,F,
Girls,51.94,8,Dulce Alvarez,Winnie East Chambers,50.17,77.11,31.75,102.06,210.92,Single-ply,SBD,F,
Girls,51.94,9,Madison Ziegler,Deweyville,51.85,79.38,38.56,92.99,210.92,Single-ply,SBD,F,
Girls,51.94,10,Malerie Pena,Louise,49.62,83.91,31.75,88.45,204.12,Single-ply,SBD,F,
Girls,51.94,DQ,Madilyn Kana,Louise,51.89,,,,,Single-ply,SBD,F,
Girls,51.94,DQ,Lexi Warzecha,Vanderbilt Industrial,50.62,52.16,,,,Single-ply,SBD,F,
Girls,51.94,DQ,Madison Fields,Hitchcock,49.58,,,,,Single-ply,SBD,F,
Girls,51.94,DQ,Kathryn Fisher,Corrigan-Camden,50.98,,,,,Single-ply,SBD,F,
Girls,51.94,DQ,Brinly Mathis,Cleveland Tarkington,51.71,,,,,Single-ply,SBD,F,
Girls,56.02,1,Hailey Trevino,Winnie East Chambers,54.39,145.15,74.84,140.61,360.61,Single-ply,SBD,F,
Girls,56.02,2,Peyton Wostarek,Boling,54.88,115.67,68.04,124.74,308.44,Single-ply,SBD,F,
Girls,56.02,3,Braeleigh Pinson,Winnie East Chambers,55.02,113.4,61.23,115.67,290.3,Single-ply,SBD,F,
Girls,56.02,4,Madison Lee,Cleveland Tarkington,54.3,99.79,58.97,106.59,265.35,Single-ply,SBD,F,
Girls,56.02,5,Frida Pedro-Gutierrez,Ganado,55.34,92.99,49.9,111.13,254.01,Single-ply,SBD,F,
Girls,56.02,6,Aaliyah Ochoa,Louise,54.75,97.52,40.82,104.33,242.67,Single-ply,SBD,F,
Girls,56.02,7,Brooklyn Baker,Cleveland Tarkington,54.93,81.65,45.36,115.67,242.67,Single-ply,SBD,F,
Girls,56.02,8,Ariana Tupa,Edna,55.2,83.91,45.36,113.4,242.67,Single-ply,SBD,F,
Girls,56.02,9,Lizbeth Gomez,Danbury,52.39,72.57,31.75,83.91,188.24,Single-ply,SBD,F,
Girls,56.02,10,Kayla Martinez,Van Vleck,55.88,68.04,34.02,74.84,176.9,Single-ply,SBD,F,
Girls,56.02,11,Destiny Roberts,Louise,54.02,54.43,29.48,72.57,156.49,Single-ply,SBD,F,
Girls,56.02,DQ,Kynadee Benestante,Coldspring-Oakhurst,55.79,,,,,Single-ply,SBD,F,
Girls,60.1,1,Jayleigh Gonzales,Edna,59.33,129.27,79.38,129.27,337.93,Single-ply,SBD,F,
Girls,60.1,2,Ariana Owens,Edna,58.69,122.47,63.5,131.54,317.51,Single-ply,SBD,F,
Girls,60.1,3,Micah Hughes #1,Corrigan-Camden,60.06,108.86,54.43,129.27,292.57,Single-ply,SBD,F,
Girls,60.1,4,Tracy Garcia,Palacios,58.56,113.4,70.31,106.59,290.3,Single-ply,SBD,F,
Girls,60.1,5,Celeste Gutowski,Van Vleck,59.74,108.86,58.97,111.13,278.96,Single-ply,SBD,F,
Girls,60.1,6,April Sinopoli,Winnie East Chambers,57.47,113.4,58.97,104.33,276.69,Single-ply,SBD,F,
Girls,60.1,7,Kallie Kelm,Corrigan-Camden,58.29,92.99,56.7,108.86,258.55,Single-ply,SBD,F,
Girls,60.1,8,Claudia Muniz,Boling,58.83,102.06,49.9,106.59,258.55,Single-ply,SBD,F,
Girls,60.1,9,Samantha Cranek,El Maton Tidehaven,59.19,90.72,43.09,104.33,238.14,Single-ply,SBD,F,
Girls,60.1,10,Savannah Morton,Louise,57.15,88.45,36.29,99.79,224.53,Single-ply,SBD,F,
Girls,60.1,11,Daniela Lopez,Winnie East Chambers,58.24,83.91,34.02,102.06,219.99,Single-ply,SBD,F,
Girls,60.1,DQ,Natalie Gonzales,Boling,58.79,,,,,Single-ply,SBD,F,
Girls,60.1,DQ,Bianca Sanchez,Boling,56.88,,,,,Single-ply,SBD,F,
Girls,60.1,DQ,Caylin Harrell,Danbury,57.33,92.99,49.9,,,Single-ply,SBD,F,
Girls,60.1,DQ,Adriana Penaloza,Boling,57.33,92.99,,,,Single-ply,SBD,F,
Girls,67.36,1,Emily Keith,Edna,66.09,127.01,74.84,142.88,344.73,Single-ply,SBD,F,
Girls,67.36,2,Jehan Johnson,El Maton Tidehaven,64.27,138.35,74.84,127.01,340.19,Single-ply,SBD,F,
Girls,67.36,3,Gracie Moore,Winnie East Chambers,62.05,120.2,74.84,122.47,317.51,Single-ply,SBD,F,
Girls,67.36,4,Zelia Williams,Woodville,65.59,120.2,43.09,145.15,308.44,Single-ply,SBD,F,
Girls,67.36,5,Olivia Sommerfeld,Edna,67.31,124.74,61.23,111.13,297.1,Single-ply,SBD,F,
Girls,67.36,6,Kate Franzel,Palacios,64.77,106.59,70.31,117.93,294.84,Single-ply,SBD,F,
Girls,67.36,7,Brianna Sanchez,Winnie East Chambers,65.54,102.06,65.77,115.67,283.5,Single-ply,SBD,F,
Girls,67.36,8,Breanne Kana,El Maton Tidehaven,62.78,97.52,47.63,117.93,263.08,Single-ply,SBD,F,
Girls,67.36,9,Alyssa Jones,Louise,62.46,102.06,45.36,108.86,256.28,Single-ply,SBD,F,
Girls,67.36,10,Kilea Schaffer,Edna,65.95,97.52,43.09,106.59,247.21,Single-ply,SBD,F,
Girls,67.36,11,Kaitlyn Maley,Louise,63.28,92.99,47.63,95.25,235.87,Single-ply,SBD,F,
Girls,67.36,DQ,Brittany Benjamin,Newton,64.73,,,,,Single-ply,SBD,F,
Girls,67.36,DQ,Jaiden Dotson,Hitchcock,65.32,,,,,Single-ply,SBD,F,
Girls,67.36,DQ,Savannah Savage,Boling,61.33,,,,,Single-ply,SBD,F,
Girls,67.36,DQ,Ellie Voulgaris,Boling,65.05,104.33,,,,Single-ply,SBD,F,
Girls,67.36,DQ,Kayla Stiles,Cleveland Tarkington,60.6,,,,,Single-ply,SBD,F,
Girls,67.36,DQ,Aundrea Cuevas,Corrigan-Camden,64.59,97.52,68.04,,,Single-ply,SBD,F,
Girls,75.07,1,J'Lailah Dotson,Hitchcock,71.08,158.76,74.84,158.76,392.36,Single-ply,SBD,F,
Girls,75.07,2,Jodee Maloy,Deweyville,67.4,136.08,79.38,151.95,367.41,Single-ply,SBD,F,
Girls,75.07,3,Blessing Menifee,Corrigan-Camden,69.54,142.88,56.7,158.76,358.34,Single-ply,SBD,F,
Girls,75.07,4,Gigi Guzman,Buna,71.17,133.81,70.31,133.81,337.93,Single-ply,SBD,F,
Girls,75.07,5,Abbi Smith,Cleveland Tarkington,72.03,129.27,65.77,129.27,324.32,Single-ply,SBD,F,
Girls,75.07,6,Karen Campos,Woodville,72.67,113.4,72.57,117.93,303.91,Single-ply,SBD,F,
Girls,75.07,7,Ashley Alvarez,Winnie East Chambers,71.17,122.47,72.57,106.59,301.64,Single-ply,SBD,F,
Girls,75.07,8,Ashley Williams,Buna,72.8,120.2,65.77,111.13,297.1,Single-ply,SBD,F,
Girls,75.07,9,Michala Sulak,Louise,71.44,117.93,58.97,111.13,288.03,Single-ply,SBD,F,
Girls,75.07,10,Elise Sharp,Boling,71.99,106.59,54.43,117.93,278.96,Single-ply,SBD,F,
Girls,75.07,11,Marianna Matehula,Winnie East Chambers,68.04,104.33,52.16,102.06,258.55,Single-ply,SBD,F,
Girls,75.07,12,Briceida Lopez,Winnie East Chambers,73.12,106.59,36.29,102.06,244.94,Single-ply,SBD,F,
Girls,75.07,DQ,Kelly Santana,Winnie East Chambers,72.12,,,,,Single-ply,SBD,F,
Girls,75.07,DQ,Brooke Clippa,Deweyville,72.62,,,,,Single-ply,SBD,F,
Girls,82.33,1,Cheyan Foote,Winnie East Chambers,80.15,142.88,77.11,131.54,351.53,Single-ply,SBD,F,
Girls,82.33,2,Chloe Whipps,Buna,80.06,136.08,77.11,131.54,344.73,Single-ply,SBD,F,
Girls,82.33,3,Kaylee Hardin,Deweyville,76.84,142.88,56.7,142.88,342.46,Single-ply,SBD,F,
Girls,82.33,4,Rylee Case,Winnie East Chambers,80.51,138.35,77.11,120.2,335.66,Single-ply,SBD,F,
Girls,82.33,5,Allana Sublett,Ganado,80.74,149.69,68.04,117.93,335.66,Single-ply,SBD,F,
Girls,82.33,6,Paxton Joslin,Cleveland Tarkington,79.65,129.27,63.5,136.08,328.85,Single-ply,SBD,F,
Girls,82.33,7,Annika Willett,Cleveland Tarkington,81.06,111.13,74.84,106.59,292.57,Single-ply,SBD,F,
Girls,82.33,8,Elisabeth Fowler,Newton,79.56,120.2,52.16,106.59,278.96,Single-ply,SBD,F,
Girls,82.33,9,Mia Sanchez,Vanderbilt Industrial,77.61,120.2,49.9,90.72,260.82,Single-ply,SBD,F,
Girls,82.33,10,Lyric Gambrell,Woodville,82.28,106.59,49.9,97.52,254.01,Single-ply,SBD,F,
Girls,82.33,11,Esabella Rodriguez,Van Vleck,75.34,70.31,52.16,92.99,215.46,Single-ply,SBD,F,
Girls,82.33,DQ,Yazmyn Wilson,Van Vleck,81.42,,,,,Single-ply,SBD,F,
Girls,82.33,DQ,Rebecca Slaughter,Cleveland Tarkington,78.93,,,,,Single-ply,SBD,F,
Girls,90.04,1,Rain Chandler,Buna,87.36,163.29,92.99,183.7,439.98,Single-ply,SBD,F,
Girls,90.04,2,Shayana Sanchez,Edna,84.91,158.76,83.91,129.27,371.95,Single-ply,SBD,F,
Girls,90.04,3,Mirka Lopez,Palacios,82.42,124.74,61.23,138.35,324.32,Single-ply,SBD,F,
Girls,90.04,4,Destiny McKean,Deweyville,85.09,115.67,58.97,115.67,290.3,Single-ply,SBD,F,
Girls,90.04,5,Serenity Suarez,Van Vleck,86.14,111.13,52.16,97.52,260.82,Single-ply,SBD,F,
Girls,90.04,6,Bianca Borchardt,El Maton Tidehaven,83.82,102.06,47.63,106.59,256.28,Single-ply,SBD,F,
Girls,90.04,7,Brooklyn Smith,Deweyville,85.05,97.52,58.97,99.79,256.28,Single-ply,SBD,F,
Girls,90.04,8,Maggie Talent,Saratoga West Hardin,82.92,81.65,40.82,86.18,208.65,Single-ply,SBD,F,
Girls,90.04,DQ,Faith Bailey,Newton,82.37,,,,,Single-ply,SBD,F,
Girls,90.04,DQ,Sarah Whittle,Kountze,84.05,,,,,Single-ply,SBD,F,
Girls,90.04,DQ,Maricarmen Gonzalez,Winnie East Chambers,82.64,,,,,Single-ply,SBD,F,
Girls,90.04,DQ,Brianna Zapalac,Boling,82.51,115.67,52.16,,,Single-ply,SBD,F,
Girls,90.04,DQ,Stacey Trejo,Coldspring-Oakhurst,87.32,,,,,Single-ply,SBD,F,
Girls,90.04,DQ,Loralei Babb,Vanderbilt Industrial,89.81,,,,,Single-ply,SBD,F,
Girls,100.02,1,Christian Bridges,Saratoga West Hardin,92.76,185.97,77.11,165.56,428.64,Single-ply,SBD,F,
Girls,100.02,2,Hope Anderson,Cleveland Tarkington,95.35,158.76,81.65,136.08,376.48,Single-ply,SBD,F,
Girls,100.02,3,Lacie McCollough,Deweyville,99.29,138.35,74.84,138.35,351.53,Single-ply,SBD,F,
Girls,100.02,4,Jenna Penn,Danbury,98.43,108.86,68.04,122.47,299.37,Single-ply,SBD,F,
Girls,100.02,5,Makyla Paniagua,El Maton Tidehaven,91.08,124.74,45.36,124.74,294.84,Single-ply,SBD,F,
Girls,100.02,6,Jeslynn Morales,Van Vleck,95.44,106.59,61.23,127.01,294.84,Single-ply,SBD,F,
Girls,100.02,DQ,Davianna Owoigbe,Newton,97.66,,,,,Single-ply,SBD,F,
Girls,100.02,DQ,Bianca Aguilar,Hull-Daisetta,98.52,,,,,Single-ply,SBD,F,
Girls,100.02,DQ,Destinee Ortega,Louise,93.53,,,,,Single-ply,SBD,F,
Girls,100.02,DQ,Kaylyn Keszler,Ganado,95.98,113.4,,,,Single-ply,SBD,F,
Girls,100.02,DQ,Kaylee Gillespie,Ganado,94.71,,,,,Single-ply,SBD,F,
Girls,100.02,DQ,Bria Fields,Hitchcock,91.35,,,,,Single-ply,SBD,F,
Girls,100.02,DQ,Paula Turrabiate,El Maton Tidehaven,92.62,,,,,Single-ply,SBD,F,
Girls,117.71,1,Courtney Junious,Edna,116.98,176.9,90.72,170.1,437.72,Single-ply,SBD,F,
Girls,117.71,2,Maria Gomez,Buna,102.74,149.69,81.65,133.81,365.14,Single-ply,SBD,F,
Girls,117.71,3,Chloe Kirchner,Cleveland Tarkington,104.42,142.88,86.18,131.54,360.61,Single-ply,SBD,F,
Girls,117.71,4,Janessa Jackson,Newton,108.5,138.35,68.04,129.27,335.66,Single-ply,SBD,F,
Girls,117.71,5,Jewel Jones,Cleveland Tarkington,100.97,117.93,63.5,122.47,303.91,Single-ply,SBD,F,
Girls,117.71,6,Alyssa Holguin,Edna,103.1,122.47,54.43,115.67,292.57,Single-ply,SBD,F,
Girls,117.71,7,Sajah Salazar,Vanderbilt Industrial,107.55,120.2,47.63,124.74,292.57,Single-ply,SBD,F,
Girls,117.71,8,Saylah Salazar,Vanderbilt Industrial,113.9,113.4,49.9,111.13,274.42,Single-ply,SBD,F,
Girls,117.71,9,Erica Melchor,Louise,115.67,92.99,49.9,111.13,254.01,Single-ply,SBD,F,
Girls,117.71,10,Danica Perkins,Newton,100.74,106.59,54.43,90.72,251.74,Single-ply,SBD,F,
Girls,117.71,11,Alexis Love,Saratoga West Hardin,107.68,63.5,49.9,77.11,190.51,Single-ply,SBD,F,
Girls,117.71,DQ,Kali Majors,Cleveland Tarkington,106.37,,,,,Single-ply,SBD,F,
Girls,117.71,DQ,Sarah Taylor,Hull-Daisetta,112.58,117.93,68.04,,,Single-ply,SBD,F,
Girls,117.71+,1,Aubrey Harding,Buna,130.91,142.88,108.86,127.01,378.75,Single-ply,SBD,F,
Girls,117.71+,2,Nattali Vonessen,Woodville,130.59,154.22,102.06,120.2,376.48,Single-ply,SBD,F,
Girls,117.71+,3,Ta'Kaira Randolph,Hitchcock,118.66,129.27,108.86,111.13,349.27,Single-ply,SBD,F,
Girls,117.71+,4,Ember Burks,Corrigan-Camden,131.77,131.54,52.16,117.93,301.64,Single-ply,SBD,F,
Girls,117.71+,DQ,Kerrington Keating,Van Vleck,130.5,151.95,,,,Single-ply,SBD,F,
